%!PS-Adobe-2.0 EPSF-2.0
%%Title: 19.eps
%%Creator: gnuplot 4.6 patchlevel 6
%%CreationDate: Fri Jul 13 12:01:44 2018
%%DocumentFonts: (atend)
%%BoundingBox: 50 50 410 302
%%EndComments
%%BeginProlog
/gnudict 256 dict def
gnudict begin
%
% The following true/false flags may be edited by hand if desired.
% The unit line width and grayscale image gamma correction may also be changed.
%
/Color true def
/Blacktext false def
/Solid false def
/Dashlength 1 def
/Landscape false def
/Level1 false def
/Rounded false def
/ClipToBoundingBox false def
/SuppressPDFMark false def
/TransparentPatterns false def
/gnulinewidth 5.000 def
/userlinewidth gnulinewidth def
/Gamma 1.0 def
/BackgroundColor {-1.000 -1.000 -1.000} def
%
/vshift -46 def
/dl1 {
  10.0 Dashlength mul mul
  Rounded { currentlinewidth 0.75 mul sub dup 0 le { pop 0.01 } if } if
} def
/dl2 {
  10.0 Dashlength mul mul
  Rounded { currentlinewidth 0.75 mul add } if
} def
/hpt_ 31.5 def
/vpt_ 31.5 def
/hpt hpt_ def
/vpt vpt_ def
/doclip {
  ClipToBoundingBox {
    newpath 50 50 moveto 410 50 lineto 410 302 lineto 50 302 lineto closepath
    clip
  } if
} def
%
% Gnuplot Prolog Version 4.6 (September 2012)
%
%/SuppressPDFMark true def
%
/M {moveto} bind def
/L {lineto} bind def
/R {rmoveto} bind def
/V {rlineto} bind def
/N {newpath moveto} bind def
/Z {closepath} bind def
/C {setrgbcolor} bind def
/f {rlineto fill} bind def
/g {setgray} bind def
/Gshow {show} def   % May be redefined later in the file to support UTF-8
/vpt2 vpt 2 mul def
/hpt2 hpt 2 mul def
/Lshow {currentpoint stroke M 0 vshift R 
	Blacktext {gsave 0 setgray show grestore} {show} ifelse} def
/Rshow {currentpoint stroke M dup stringwidth pop neg vshift R
	Blacktext {gsave 0 setgray show grestore} {show} ifelse} def
/Cshow {currentpoint stroke M dup stringwidth pop -2 div vshift R 
	Blacktext {gsave 0 setgray show grestore} {show} ifelse} def
/UP {dup vpt_ mul /vpt exch def hpt_ mul /hpt exch def
  /hpt2 hpt 2 mul def /vpt2 vpt 2 mul def} def
/DL {Color {setrgbcolor Solid {pop []} if 0 setdash}
 {pop pop pop 0 setgray Solid {pop []} if 0 setdash} ifelse} def
/BL {stroke userlinewidth 2 mul setlinewidth
	Rounded {1 setlinejoin 1 setlinecap} if} def
/AL {stroke userlinewidth 2 div setlinewidth
	Rounded {1 setlinejoin 1 setlinecap} if} def
/UL {dup gnulinewidth mul /userlinewidth exch def
	dup 1 lt {pop 1} if 10 mul /udl exch def} def
/PL {stroke userlinewidth setlinewidth
	Rounded {1 setlinejoin 1 setlinecap} if} def
3.8 setmiterlimit
% Default Line colors
/LCw {1 1 1} def
/LCb {0 0 0} def
/LCa {0 0 0} def
/LC0 {1 0 0} def
/LC1 {0 1 0} def
/LC2 {0 0 1} def
/LC3 {1 0 1} def
/LC4 {0 1 1} def
/LC5 {1 1 0} def
/LC6 {0 0 0} def
/LC7 {1 0.3 0} def
/LC8 {0.5 0.5 0.5} def
% Default Line Types
/LTw {PL [] 1 setgray} def
/LTb {BL [] LCb DL} def
/LTa {AL [1 udl mul 2 udl mul] 0 setdash LCa setrgbcolor} def
/LT0 {PL [] LC0 DL} def
/LT1 {PL [4 dl1 2 dl2] LC1 DL} def
/LT2 {PL [2 dl1 3 dl2] LC2 DL} def
/LT3 {PL [1 dl1 1.5 dl2] LC3 DL} def
/LT4 {PL [6 dl1 2 dl2 1 dl1 2 dl2] LC4 DL} def
/LT5 {PL [3 dl1 3 dl2 1 dl1 3 dl2] LC5 DL} def
/LT6 {PL [2 dl1 2 dl2 2 dl1 6 dl2] LC6 DL} def
/LT7 {PL [1 dl1 2 dl2 6 dl1 2 dl2 1 dl1 2 dl2] LC7 DL} def
/LT8 {PL [2 dl1 2 dl2 2 dl1 2 dl2 2 dl1 2 dl2 2 dl1 4 dl2] LC8 DL} def
/Pnt {stroke [] 0 setdash gsave 1 setlinecap M 0 0 V stroke grestore} def
/Dia {stroke [] 0 setdash 2 copy vpt add M
  hpt neg vpt neg V hpt vpt neg V
  hpt vpt V hpt neg vpt V closepath stroke
  Pnt} def
/Pls {stroke [] 0 setdash vpt sub M 0 vpt2 V
  currentpoint stroke M
  hpt neg vpt neg R hpt2 0 V stroke
 } def
/Box {stroke [] 0 setdash 2 copy exch hpt sub exch vpt add M
  0 vpt2 neg V hpt2 0 V 0 vpt2 V
  hpt2 neg 0 V closepath stroke
  Pnt} def
/Crs {stroke [] 0 setdash exch hpt sub exch vpt add M
  hpt2 vpt2 neg V currentpoint stroke M
  hpt2 neg 0 R hpt2 vpt2 V stroke} def
/TriU {stroke [] 0 setdash 2 copy vpt 1.12 mul add M
  hpt neg vpt -1.62 mul V
  hpt 2 mul 0 V
  hpt neg vpt 1.62 mul V closepath stroke
  Pnt} def
/Star {2 copy Pls Crs} def
/BoxF {stroke [] 0 setdash exch hpt sub exch vpt add M
  0 vpt2 neg V hpt2 0 V 0 vpt2 V
  hpt2 neg 0 V closepath fill} def
/TriUF {stroke [] 0 setdash vpt 1.12 mul add M
  hpt neg vpt -1.62 mul V
  hpt 2 mul 0 V
  hpt neg vpt 1.62 mul V closepath fill} def
/TriD {stroke [] 0 setdash 2 copy vpt 1.12 mul sub M
  hpt neg vpt 1.62 mul V
  hpt 2 mul 0 V
  hpt neg vpt -1.62 mul V closepath stroke
  Pnt} def
/TriDF {stroke [] 0 setdash vpt 1.12 mul sub M
  hpt neg vpt 1.62 mul V
  hpt 2 mul 0 V
  hpt neg vpt -1.62 mul V closepath fill} def
/DiaF {stroke [] 0 setdash vpt add M
  hpt neg vpt neg V hpt vpt neg V
  hpt vpt V hpt neg vpt V closepath fill} def
/Pent {stroke [] 0 setdash 2 copy gsave
  translate 0 hpt M 4 {72 rotate 0 hpt L} repeat
  closepath stroke grestore Pnt} def
/PentF {stroke [] 0 setdash gsave
  translate 0 hpt M 4 {72 rotate 0 hpt L} repeat
  closepath fill grestore} def
/Circle {stroke [] 0 setdash 2 copy
  hpt 0 360 arc stroke Pnt} def
/CircleF {stroke [] 0 setdash hpt 0 360 arc fill} def
/C0 {BL [] 0 setdash 2 copy moveto vpt 90 450 arc} bind def
/C1 {BL [] 0 setdash 2 copy moveto
	2 copy vpt 0 90 arc closepath fill
	vpt 0 360 arc closepath} bind def
/C2 {BL [] 0 setdash 2 copy moveto
	2 copy vpt 90 180 arc closepath fill
	vpt 0 360 arc closepath} bind def
/C3 {BL [] 0 setdash 2 copy moveto
	2 copy vpt 0 180 arc closepath fill
	vpt 0 360 arc closepath} bind def
/C4 {BL [] 0 setdash 2 copy moveto
	2 copy vpt 180 270 arc closepath fill
	vpt 0 360 arc closepath} bind def
/C5 {BL [] 0 setdash 2 copy moveto
	2 copy vpt 0 90 arc
	2 copy moveto
	2 copy vpt 180 270 arc closepath fill
	vpt 0 360 arc} bind def
/C6 {BL [] 0 setdash 2 copy moveto
	2 copy vpt 90 270 arc closepath fill
	vpt 0 360 arc closepath} bind def
/C7 {BL [] 0 setdash 2 copy moveto
	2 copy vpt 0 270 arc closepath fill
	vpt 0 360 arc closepath} bind def
/C8 {BL [] 0 setdash 2 copy moveto
	2 copy vpt 270 360 arc closepath fill
	vpt 0 360 arc closepath} bind def
/C9 {BL [] 0 setdash 2 copy moveto
	2 copy vpt 270 450 arc closepath fill
	vpt 0 360 arc closepath} bind def
/C10 {BL [] 0 setdash 2 copy 2 copy moveto vpt 270 360 arc closepath fill
	2 copy moveto
	2 copy vpt 90 180 arc closepath fill
	vpt 0 360 arc closepath} bind def
/C11 {BL [] 0 setdash 2 copy moveto
	2 copy vpt 0 180 arc closepath fill
	2 copy moveto
	2 copy vpt 270 360 arc closepath fill
	vpt 0 360 arc closepath} bind def
/C12 {BL [] 0 setdash 2 copy moveto
	2 copy vpt 180 360 arc closepath fill
	vpt 0 360 arc closepath} bind def
/C13 {BL [] 0 setdash 2 copy moveto
	2 copy vpt 0 90 arc closepath fill
	2 copy moveto
	2 copy vpt 180 360 arc closepath fill
	vpt 0 360 arc closepath} bind def
/C14 {BL [] 0 setdash 2 copy moveto
	2 copy vpt 90 360 arc closepath fill
	vpt 0 360 arc} bind def
/C15 {BL [] 0 setdash 2 copy vpt 0 360 arc closepath fill
	vpt 0 360 arc closepath} bind def
/Rec {newpath 4 2 roll moveto 1 index 0 rlineto 0 exch rlineto
	neg 0 rlineto closepath} bind def
/Square {dup Rec} bind def
/Bsquare {vpt sub exch vpt sub exch vpt2 Square} bind def
/S0 {BL [] 0 setdash 2 copy moveto 0 vpt rlineto BL Bsquare} bind def
/S1 {BL [] 0 setdash 2 copy vpt Square fill Bsquare} bind def
/S2 {BL [] 0 setdash 2 copy exch vpt sub exch vpt Square fill Bsquare} bind def
/S3 {BL [] 0 setdash 2 copy exch vpt sub exch vpt2 vpt Rec fill Bsquare} bind def
/S4 {BL [] 0 setdash 2 copy exch vpt sub exch vpt sub vpt Square fill Bsquare} bind def
/S5 {BL [] 0 setdash 2 copy 2 copy vpt Square fill
	exch vpt sub exch vpt sub vpt Square fill Bsquare} bind def
/S6 {BL [] 0 setdash 2 copy exch vpt sub exch vpt sub vpt vpt2 Rec fill Bsquare} bind def
/S7 {BL [] 0 setdash 2 copy exch vpt sub exch vpt sub vpt vpt2 Rec fill
	2 copy vpt Square fill Bsquare} bind def
/S8 {BL [] 0 setdash 2 copy vpt sub vpt Square fill Bsquare} bind def
/S9 {BL [] 0 setdash 2 copy vpt sub vpt vpt2 Rec fill Bsquare} bind def
/S10 {BL [] 0 setdash 2 copy vpt sub vpt Square fill 2 copy exch vpt sub exch vpt Square fill
	Bsquare} bind def
/S11 {BL [] 0 setdash 2 copy vpt sub vpt Square fill 2 copy exch vpt sub exch vpt2 vpt Rec fill
	Bsquare} bind def
/S12 {BL [] 0 setdash 2 copy exch vpt sub exch vpt sub vpt2 vpt Rec fill Bsquare} bind def
/S13 {BL [] 0 setdash 2 copy exch vpt sub exch vpt sub vpt2 vpt Rec fill
	2 copy vpt Square fill Bsquare} bind def
/S14 {BL [] 0 setdash 2 copy exch vpt sub exch vpt sub vpt2 vpt Rec fill
	2 copy exch vpt sub exch vpt Square fill Bsquare} bind def
/S15 {BL [] 0 setdash 2 copy Bsquare fill Bsquare} bind def
/D0 {gsave translate 45 rotate 0 0 S0 stroke grestore} bind def
/D1 {gsave translate 45 rotate 0 0 S1 stroke grestore} bind def
/D2 {gsave translate 45 rotate 0 0 S2 stroke grestore} bind def
/D3 {gsave translate 45 rotate 0 0 S3 stroke grestore} bind def
/D4 {gsave translate 45 rotate 0 0 S4 stroke grestore} bind def
/D5 {gsave translate 45 rotate 0 0 S5 stroke grestore} bind def
/D6 {gsave translate 45 rotate 0 0 S6 stroke grestore} bind def
/D7 {gsave translate 45 rotate 0 0 S7 stroke grestore} bind def
/D8 {gsave translate 45 rotate 0 0 S8 stroke grestore} bind def
/D9 {gsave translate 45 rotate 0 0 S9 stroke grestore} bind def
/D10 {gsave translate 45 rotate 0 0 S10 stroke grestore} bind def
/D11 {gsave translate 45 rotate 0 0 S11 stroke grestore} bind def
/D12 {gsave translate 45 rotate 0 0 S12 stroke grestore} bind def
/D13 {gsave translate 45 rotate 0 0 S13 stroke grestore} bind def
/D14 {gsave translate 45 rotate 0 0 S14 stroke grestore} bind def
/D15 {gsave translate 45 rotate 0 0 S15 stroke grestore} bind def
/DiaE {stroke [] 0 setdash vpt add M
  hpt neg vpt neg V hpt vpt neg V
  hpt vpt V hpt neg vpt V closepath stroke} def
/BoxE {stroke [] 0 setdash exch hpt sub exch vpt add M
  0 vpt2 neg V hpt2 0 V 0 vpt2 V
  hpt2 neg 0 V closepath stroke} def
/TriUE {stroke [] 0 setdash vpt 1.12 mul add M
  hpt neg vpt -1.62 mul V
  hpt 2 mul 0 V
  hpt neg vpt 1.62 mul V closepath stroke} def
/TriDE {stroke [] 0 setdash vpt 1.12 mul sub M
  hpt neg vpt 1.62 mul V
  hpt 2 mul 0 V
  hpt neg vpt -1.62 mul V closepath stroke} def
/PentE {stroke [] 0 setdash gsave
  translate 0 hpt M 4 {72 rotate 0 hpt L} repeat
  closepath stroke grestore} def
/CircE {stroke [] 0 setdash 
  hpt 0 360 arc stroke} def
/Opaque {gsave closepath 1 setgray fill grestore 0 setgray closepath} def
/DiaW {stroke [] 0 setdash vpt add M
  hpt neg vpt neg V hpt vpt neg V
  hpt vpt V hpt neg vpt V Opaque stroke} def
/BoxW {stroke [] 0 setdash exch hpt sub exch vpt add M
  0 vpt2 neg V hpt2 0 V 0 vpt2 V
  hpt2 neg 0 V Opaque stroke} def
/TriUW {stroke [] 0 setdash vpt 1.12 mul add M
  hpt neg vpt -1.62 mul V
  hpt 2 mul 0 V
  hpt neg vpt 1.62 mul V Opaque stroke} def
/TriDW {stroke [] 0 setdash vpt 1.12 mul sub M
  hpt neg vpt 1.62 mul V
  hpt 2 mul 0 V
  hpt neg vpt -1.62 mul V Opaque stroke} def
/PentW {stroke [] 0 setdash gsave
  translate 0 hpt M 4 {72 rotate 0 hpt L} repeat
  Opaque stroke grestore} def
/CircW {stroke [] 0 setdash 
  hpt 0 360 arc Opaque stroke} def
/BoxFill {gsave Rec 1 setgray fill grestore} def
/Density {
  /Fillden exch def
  currentrgbcolor
  /ColB exch def /ColG exch def /ColR exch def
  /ColR ColR Fillden mul Fillden sub 1 add def
  /ColG ColG Fillden mul Fillden sub 1 add def
  /ColB ColB Fillden mul Fillden sub 1 add def
  ColR ColG ColB setrgbcolor} def
/BoxColFill {gsave Rec PolyFill} def
/PolyFill {gsave Density fill grestore grestore} def
/h {rlineto rlineto rlineto gsave closepath fill grestore} bind def
%
% PostScript Level 1 Pattern Fill routine for rectangles
% Usage: x y w h s a XX PatternFill
%	x,y = lower left corner of box to be filled
%	w,h = width and height of box
%	  a = angle in degrees between lines and x-axis
%	 XX = 0/1 for no/yes cross-hatch
%
/PatternFill {gsave /PFa [ 9 2 roll ] def
  PFa 0 get PFa 2 get 2 div add PFa 1 get PFa 3 get 2 div add translate
  PFa 2 get -2 div PFa 3 get -2 div PFa 2 get PFa 3 get Rec
  TransparentPatterns {} {gsave 1 setgray fill grestore} ifelse
  clip
  currentlinewidth 0.5 mul setlinewidth
  /PFs PFa 2 get dup mul PFa 3 get dup mul add sqrt def
  0 0 M PFa 5 get rotate PFs -2 div dup translate
  0 1 PFs PFa 4 get div 1 add floor cvi
	{PFa 4 get mul 0 M 0 PFs V} for
  0 PFa 6 get ne {
	0 1 PFs PFa 4 get div 1 add floor cvi
	{PFa 4 get mul 0 2 1 roll M PFs 0 V} for
 } if
  stroke grestore} def
%
/languagelevel where
 {pop languagelevel} {1} ifelse
 2 lt
	{/InterpretLevel1 true def}
	{/InterpretLevel1 Level1 def}
 ifelse
%
% PostScript level 2 pattern fill definitions
%
/Level2PatternFill {
/Tile8x8 {/PaintType 2 /PatternType 1 /TilingType 1 /BBox [0 0 8 8] /XStep 8 /YStep 8}
	bind def
/KeepColor {currentrgbcolor [/Pattern /DeviceRGB] setcolorspace} bind def
<< Tile8x8
 /PaintProc {0.5 setlinewidth pop 0 0 M 8 8 L 0 8 M 8 0 L stroke} 
>> matrix makepattern
/Pat1 exch def
<< Tile8x8
 /PaintProc {0.5 setlinewidth pop 0 0 M 8 8 L 0 8 M 8 0 L stroke
	0 4 M 4 8 L 8 4 L 4 0 L 0 4 L stroke}
>> matrix makepattern
/Pat2 exch def
<< Tile8x8
 /PaintProc {0.5 setlinewidth pop 0 0 M 0 8 L
	8 8 L 8 0 L 0 0 L fill}
>> matrix makepattern
/Pat3 exch def
<< Tile8x8
 /PaintProc {0.5 setlinewidth pop -4 8 M 8 -4 L
	0 12 M 12 0 L stroke}
>> matrix makepattern
/Pat4 exch def
<< Tile8x8
 /PaintProc {0.5 setlinewidth pop -4 0 M 8 12 L
	0 -4 M 12 8 L stroke}
>> matrix makepattern
/Pat5 exch def
<< Tile8x8
 /PaintProc {0.5 setlinewidth pop -2 8 M 4 -4 L
	0 12 M 8 -4 L 4 12 M 10 0 L stroke}
>> matrix makepattern
/Pat6 exch def
<< Tile8x8
 /PaintProc {0.5 setlinewidth pop -2 0 M 4 12 L
	0 -4 M 8 12 L 4 -4 M 10 8 L stroke}
>> matrix makepattern
/Pat7 exch def
<< Tile8x8
 /PaintProc {0.5 setlinewidth pop 8 -2 M -4 4 L
	12 0 M -4 8 L 12 4 M 0 10 L stroke}
>> matrix makepattern
/Pat8 exch def
<< Tile8x8
 /PaintProc {0.5 setlinewidth pop 0 -2 M 12 4 L
	-4 0 M 12 8 L -4 4 M 8 10 L stroke}
>> matrix makepattern
/Pat9 exch def
/Pattern1 {PatternBgnd KeepColor Pat1 setpattern} bind def
/Pattern2 {PatternBgnd KeepColor Pat2 setpattern} bind def
/Pattern3 {PatternBgnd KeepColor Pat3 setpattern} bind def
/Pattern4 {PatternBgnd KeepColor Landscape {Pat5} {Pat4} ifelse setpattern} bind def
/Pattern5 {PatternBgnd KeepColor Landscape {Pat4} {Pat5} ifelse setpattern} bind def
/Pattern6 {PatternBgnd KeepColor Landscape {Pat9} {Pat6} ifelse setpattern} bind def
/Pattern7 {PatternBgnd KeepColor Landscape {Pat8} {Pat7} ifelse setpattern} bind def
} def
%
%
%End of PostScript Level 2 code
%
/PatternBgnd {
  TransparentPatterns {} {gsave 1 setgray fill grestore} ifelse
} def
%
% Substitute for Level 2 pattern fill codes with
% grayscale if Level 2 support is not selected.
%
/Level1PatternFill {
/Pattern1 {0.250 Density} bind def
/Pattern2 {0.500 Density} bind def
/Pattern3 {0.750 Density} bind def
/Pattern4 {0.125 Density} bind def
/Pattern5 {0.375 Density} bind def
/Pattern6 {0.625 Density} bind def
/Pattern7 {0.875 Density} bind def
} def
%
% Now test for support of Level 2 code
%
Level1 {Level1PatternFill} {Level2PatternFill} ifelse
%
/Symbol-Oblique /Symbol findfont [1 0 .167 1 0 0] makefont
dup length dict begin {1 index /FID eq {pop pop} {def} ifelse} forall
currentdict end definefont pop
/MFshow {
   { dup 5 get 3 ge
     { 5 get 3 eq {gsave} {grestore} ifelse }
     {dup dup 0 get findfont exch 1 get scalefont setfont
     [ currentpoint ] exch dup 2 get 0 exch R dup 5 get 2 ne {dup dup 6
     get exch 4 get {Gshow} {stringwidth pop 0 R} ifelse }if dup 5 get 0 eq
     {dup 3 get {2 get neg 0 exch R pop} {pop aload pop M} ifelse} {dup 5
     get 1 eq {dup 2 get exch dup 3 get exch 6 get stringwidth pop -2 div
     dup 0 R} {dup 6 get stringwidth pop -2 div 0 R 6 get
     show 2 index {aload pop M neg 3 -1 roll neg R pop pop} {pop pop pop
     pop aload pop M} ifelse }ifelse }ifelse }
     ifelse }
   forall} def
/Gswidth {dup type /stringtype eq {stringwidth} {pop (n) stringwidth} ifelse} def
/MFwidth {0 exch { dup 5 get 3 ge { 5 get 3 eq { 0 } { pop } ifelse }
 {dup 3 get{dup dup 0 get findfont exch 1 get scalefont setfont
     6 get Gswidth pop add} {pop} ifelse} ifelse} forall} def
/MLshow { currentpoint stroke M
  0 exch R
  Blacktext {gsave 0 setgray MFshow grestore} {MFshow} ifelse } bind def
/MRshow { currentpoint stroke M
  exch dup MFwidth neg 3 -1 roll R
  Blacktext {gsave 0 setgray MFshow grestore} {MFshow} ifelse } bind def
/MCshow { currentpoint stroke M
  exch dup MFwidth -2 div 3 -1 roll R
  Blacktext {gsave 0 setgray MFshow grestore} {MFshow} ifelse } bind def
/XYsave    { [( ) 1 2 true false 3 ()] } bind def
/XYrestore { [( ) 1 2 true false 4 ()] } bind def
Level1 SuppressPDFMark or 
{} {
/SDict 10 dict def
systemdict /pdfmark known not {
  userdict /pdfmark systemdict /cleartomark get put
} if
SDict begin [
  /Title (19.eps)
  /Subject (gnuplot plot)
  /Creator (gnuplot 4.6 patchlevel 6)
  /Author (rishabh)
%  /Producer (gnuplot)
%  /Keywords ()
  /CreationDate (Fri Jul 13 12:01:44 2018)
  /DOCINFO pdfmark
end
} ifelse
end
%%EndProlog
%%Page: 1 1
gnudict begin
gsave
doclip
50 50 translate
0.050 0.050 scale
0 setgray
newpath
(Helvetica) findfont 140 scalefont setfont
BackgroundColor 0 lt 3 1 roll 0 lt exch 0 lt or or not {BackgroundColor C 1.000 0 0 7200.00 5040.00 BoxColFill} if
1.000 UL
LTb
LCb setrgbcolor
1224 1120 M
63 0 V
stroke
1140 1120 M
[ [(Times-Roman) 300.0 0.0 true true 0 ( 0)]
] -100.0 MRshow
1.000 UL
LTb
LCb setrgbcolor
1224 1495 M
63 0 V
stroke
1140 1495 M
[ [(Times-Roman) 300.0 0.0 true true 0 ( 0.05)]
] -100.0 MRshow
1.000 UL
LTb
LCb setrgbcolor
1224 1870 M
63 0 V
stroke
1140 1870 M
[ [(Times-Roman) 300.0 0.0 true true 0 ( 0.1)]
] -100.0 MRshow
1.000 UL
LTb
LCb setrgbcolor
1224 2245 M
63 0 V
stroke
1140 2245 M
[ [(Times-Roman) 300.0 0.0 true true 0 ( 0.15)]
] -100.0 MRshow
1.000 UL
LTb
LCb setrgbcolor
1224 2620 M
63 0 V
stroke
1140 2620 M
[ [(Times-Roman) 300.0 0.0 true true 0 ( 0.2)]
] -100.0 MRshow
1.000 UL
LTb
LCb setrgbcolor
1224 2996 M
63 0 V
stroke
1140 2996 M
[ [(Times-Roman) 300.0 0.0 true true 0 ( 0.25)]
] -100.0 MRshow
1.000 UL
LTb
LCb setrgbcolor
1224 3371 M
63 0 V
stroke
1140 3371 M
[ [(Times-Roman) 300.0 0.0 true true 0 ( 0.3)]
] -100.0 MRshow
1.000 UL
LTb
LCb setrgbcolor
1224 3746 M
63 0 V
stroke
1140 3746 M
[ [(Times-Roman) 300.0 0.0 true true 0 ( 0.35)]
] -100.0 MRshow
1.000 UL
LTb
LCb setrgbcolor
1224 4121 M
63 0 V
stroke
1140 4121 M
[ [(Times-Roman) 300.0 0.0 true true 0 ( 0.4)]
] -100.0 MRshow
1.000 UL
LTb
LCb setrgbcolor
1224 4496 M
63 0 V
stroke
1140 4496 M
[ [(Times-Roman) 300.0 0.0 true true 0 ( 0.45)]
] -100.0 MRshow
1.000 UL
LTb
LCb setrgbcolor
1224 4871 M
63 0 V
stroke
1140 4871 M
[ [(Times-Roman) 300.0 0.0 true true 0 ( 0.5)]
] -100.0 MRshow
1.000 UL
LTb
LCb setrgbcolor
1224 1120 M
stroke
1098 910 M
[ [(Times-Roman) 300.0 0.0 true true 0 ( 0.1)]
] -100.0 MCshow
1.000 UL
LTb
LCb setrgbcolor
1939 1120 M
stroke
1813 910 M
[ [(Times-Roman) 300.0 0.0 true true 0 ( 0.2)]
] -100.0 MCshow
1.000 UL
LTb
LCb setrgbcolor
2655 1120 M
stroke
2529 910 M
[ [(Times-Roman) 300.0 0.0 true true 0 ( 0.3)]
] -100.0 MCshow
1.000 UL
LTb
LCb setrgbcolor
3370 1120 M
stroke
3244 910 M
[ [(Times-Roman) 300.0 0.0 true true 0 ( 0.4)]
] -100.0 MCshow
1.000 UL
LTb
LCb setrgbcolor
4086 1120 M
stroke
3960 910 M
[ [(Times-Roman) 300.0 0.0 true true 0 ( 0.5)]
] -100.0 MCshow
1.000 UL
LTb
LCb setrgbcolor
4801 1120 M
stroke
4675 910 M
[ [(Times-Roman) 300.0 0.0 true true 0 ( 0.6)]
] -100.0 MCshow
1.000 UL
LTb
LCb setrgbcolor
5516 1120 M
stroke
5390 910 M
[ [(Times-Roman) 300.0 0.0 true true 0 ( 0.7)]
] -100.0 MCshow
1.000 UL
LTb
LCb setrgbcolor
6232 1120 M
stroke
6106 910 M
[ [(Times-Roman) 300.0 0.0 true true 0 ( 0.8)]
] -100.0 MCshow
1.000 UL
LTb
LCb setrgbcolor
6947 1120 M
stroke
6821 910 M
[ [(Times-Roman) 300.0 0.0 true true 0 ( 0.9)]
] -100.0 MCshow
1.000 UL
LTb
LCb setrgbcolor
1.000 UL
LTb
LCb setrgbcolor
1224 4871 N
0 -3751 V
5723 0 V
0 3751 V
-5723 0 V
Z stroke
LCb setrgbcolor
146 3275 M
currentpoint gsave translate -270 rotate 0 0 moveto
[ [(Times:Bold) 350.0 0.0 true true 0 (Service Benefit)]
] -116.7 MCshow
grestore
LTb
LCb setrgbcolor
4085 350 M
[ [(Times:Bold) 350.0 0.0 true true 0 (Risk Score)]
] -116.7 MCshow
LTb
1.000 UP
1.000 UL
LTb
LCb setrgbcolor
1.000 UL
LTb
LCb setrgbcolor
3584 2659 N
0 2212 V
1575 0 V
0 -2212 V
-1575 0 V
Z stroke
% Begin plot #1
1.000 UP
2.000 UL
LT1
0.00 0.00 1.00 C LCb setrgbcolor
4592 4473 M
[ [(Times:Bold) 300.0 0.0 true true 0 (Front 1)]
] -100.0 MRshow
LT1
0.00 0.00 1.00 C 1723 1285 Pls
1670 1278 Pls
1856 1304 Pls
1943 3034 Pls
2416 3644 Pls
2602 3877 Pls
1915 2996 Pls
3029 4383 Pls
2988 4337 Pls
1855 1304 Pls
2400 3626 Pls
2478 3724 Pls
1996 3105 Pls
2687 3979 Pls
3272 4580 Pls
1892 1309 Pls
2639 3921 Pls
2189 3307 Pls
2234 3362 Pls
2477 3662 Pls
2561 3826 Pls
1865 1304 Pls
2279 3420 Pls
3032 4387 Pls
2102 3186 Pls
2227 3353 Pls
3107 4396 Pls
1752 1287 Pls
1977 3052 Pls
2924 4259 Pls
1876 1307 Pls
2592 3863 Pls
2550 3810 Pls
1774 1292 Pls
2942 4273 Pls
1762 1290 Pls
1722 1285 Pls
2091 3173 Pls
2062 3118 Pls
2188 3277 Pls
6564 4774 Pls
6565 4865 Pls
4875 4473 Pls
% End plot #1
% Begin plot #2
1.000 UP
2.000 UL
LT1
1.00 0.00 0.00 C LCb setrgbcolor
4592 4237 M
[ [(Times:Bold) 300.0 0.0 true true 0 (Front 2)]
] -100.0 MRshow
LT1
1.00 0.00 0.00 C 1671 1277 Crs
1977 3025 Crs
1965 1318 Crs
2408 3576 Crs
2499 3688 Crs
2015 3083 Crs
2024 3096 Crs
2565 3759 Crs
2022 3084 Crs
2376 3419 Crs
2723 3927 Crs
1915 1300 Crs
2550 3722 Crs
2990 4201 Crs
2260 3333 Crs
1731 1280 Crs
1915 1300 Crs
2192 3191 Crs
5966 4463 Crs
6064 4527 Crs
1775 1286 Crs
5949 4431 Crs
6441 4579 Crs
4875 4237 Crs
% End plot #2
% Begin plot #3
1.000 UP
2.000 UL
LT1
0.00 0.00 0.00 C LCb setrgbcolor
4592 4001 M
[ [(Times:Bold) 300.0 0.0 true true 0 (Front 3)]
] -100.0 MRshow
LT1
0.00 0.00 0.00 C 2042 1330 Star
2239 3058 Star
2022 1327 Star
2045 1330 Star
2958 3783 Star
2117 3012 Star
6343 4285 Star
2539 3674 Star
2007 1312 Star
1937 1294 Star
1799 1275 Star
2996 3960 Star
2105 1335 Star
3015 4160 Star
6437 4490 Star
6349 4375 Star
6315 4225 Star
4875 4001 Star
% End plot #3
% Begin plot #4
1.000 UP
2.000 UL
LT1
0.65 0.16 0.16 C LCb setrgbcolor
4592 3765 M
[ [(Times:Bold) 300.0 0.0 true true 0 (Front 4)]
] -100.0 MRshow
LT1
0.65 0.16 0.16 C 2567 1397 Box
2337 1369 Box
2217 1353 Box
2139 1342 Box
2480 1386 Box
2010 1293 Box
3113 3558 Box
1989 1276 Box
2907 3143 Box
3007 3435 Box
3040 3473 Box
5989 3558 Box
6088 3818 Box
2884 3077 Box
2971 3266 Box
6125 3828 Box
6061 3762 Box
6147 3874 Box
6245 4076 Box
6150 3945 Box
6277 4145 Box
6163 3974 Box
6088 3818 Box
4875 3765 Box
% End plot #4
% Begin plot #5
1.000 UP
2.000 UL
LT1
0.00 1.00 0.00 C LCb setrgbcolor
4592 3529 M
[ [(Times:Bold) 300.0 0.0 true true 0 (Front 5)]
] -100.0 MRshow
LT1
0.00 1.00 0.00 C 2089 1290 BoxF
2686 1392 BoxF
2648 1362 BoxF
3194 3315 BoxF
3146 3307 BoxF
2673 1365 BoxF
2201 1318 BoxF
2958 3095 BoxF
2949 3038 BoxF
3095 3253 BoxF
6096 3771 BoxF
2952 3082 BoxF
3220 3391 BoxF
2891 3009 BoxF
3222 3399 BoxF
2946 3028 BoxF
2957 3087 BoxF
3112 3267 BoxF
4875 3529 BoxF
% End plot #5
% Begin plot #6
1.000 UP
2.000 UL
LT1
1.00 0.50 1.00 C LCb setrgbcolor
4592 3293 M
[ [(Times:Bold) 300.0 0.0 true true 0 (Front 6)]
] -100.0 MRshow
LT1
1.00 0.50 1.00 C 2696 1381 Circle
2580 1275 Circle
3149 3259 Circle
2341 1275 Circle
3140 3248 Circle
3139 3248 Circle
2673 1287 Circle
2661 1285 Circle
2952 3035 Circle
3101 3205 Circle
3173 3285 Circle
3153 3263 Circle
2657 1285 Circle
4875 3293 Circle
% End plot #6
% Begin plot #7
1.000 UP
2.000 UL
LT1
1.00 0.65 0.00 C LCb setrgbcolor
4592 3057 M
[ [(Times:Bold) 300.0 0.0 true true 0 (Front 7)]
] -100.0 MRshow
LT1
1.00 0.65 0.00 C 3214 1382 TriU
2730 1297 TriU
6061 1391 TriU
2933 1319 TriU
3045 1332 TriU
2864 1310 TriU
6164 1413 TriU
6064 1391 TriU
6065 1391 TriU
3034 1331 TriU
6054 1389 TriU
6045 1387 TriU
3111 1340 TriU
2727 1294 TriU
4875 3057 TriU
% End plot #7
1.000 UL
LTb
LCb setrgbcolor
1224 4871 N
0 -3751 V
5723 0 V
0 3751 V
-5723 0 V
Z stroke
1.000 UP
1.000 UL
LTb
LCb setrgbcolor
stroke
grestore
end
showpage
%%Trailer
%%DocumentFonts: Times:Bold Times-Roman Helvetica
