Simulation Time = 20 units

Front#	 Avg. Risk	   Avg. Service Benefit
-------------------------------------------
1			0.27762		 0.02658	
2			0.32999      0.02614 
3			0.38332		 0.02288
4			0.50624	     0.02457
5			0.35629		 0.02118
6			0.33122		 0.01671	
7			0.52909		 0.00312

Simulation Time = 40 units

Front#	 Avg. Risk	   Avg. Service Benefit
-------------------------------------------
1			0.26852		0.02783	
2			0.38493		0.02602
3			0.55082		0.03050
4			0.52263		0.02268
5			0.55095		0.02809
6			0.32297		0.01997	
7			0.32473		0.01453
8			0.34024		0.01802
9			0.42749		0.00317
10			0.61158		0.00332