D2 D2_U48
D2 D2_U56
D5 D5_U28
D2 D2_U13
D4 D4_U10
D2 D2_U92
D4 D4_U94
D2 D2_U90
D1 D1_U34
D5 D5_U65
D3 D3_U43
D3 D3_U58
D3 D3_U2
D3 D3_U33
D1 D1_U1
D4 D4_U64
D5 D5_U67
D3 D3_U26
D1 D1_U74
D1 D1_U64
D3 D3_U29
D4 D4_U69
D4 D4_U83
D1 D1_U84
D3 D3_U23
D3 D3_U28
D1 D1_U51
D2 D2_U36
D1 D1_U50
D4 D4_U23
D1 D1_U52
D3 D3_U94
D4 D4_U63
D4 D4_U9
D1 D1_U55
D3 D3_U68
D4 D4_U67
D1 D1_U32
D5 D5_U78
D4 D4_U40
D5 D5_U72
D4 D4_U35
D2 D2_U3
D1 D1_U17
D3 D3_U86
D1 D1_U95
D5 D5_U94
D1 D1_U14
D5 D5_U87
D3 D3_U56
D3 D3_U87
D2 D2_U8
D5 D5_U36
D3 D3_U13
D4 D4_U36
D1 D1_U16
D3 D3_U54
D3 D3_U19
D3 D3_U98
D4 D4_U77
D3 D3_U93
D1 D1_U7
D1 D1_U10
D5 D5_U51
D4 D4_U76
D3 D3_U59
D3 D3_U11
D3 D3_U24
D5 D5_U56
D3 D3_U92
D2 D2_U17
D5 D5_U92
D2 D2_U7
D4 D4_U32
D4 D4_U85
D4 D4_U56
D2 D2_U42
D5 D5_U44
D5 D5_U86
D2 D2_U4
D2 D2_U6
D5 D5_U26
D2 D2_U67
D4 D4_U80
D5 D5_U69
D1 D1_U93
D1 D1_U85
D3 D3_U45
D4 D4_U54
D5 D5_U95
D1 D1_U58
D5 D5_U11
D5 D5_U31
D3 D3_U51
D2 D2_U93
D5 D5_U42
D1 D1_U90
D4 D4_U19
D1 D1_U56
D2 D2_U81
D4 D4_U34
D4 D4_U14
D1 D1_U18
D3 D3_U55
D3 D3_U100
D3 D3_U99
D4 D4_U88
D5 D5_U60
D2 D2_U10
D2 D2_U16
D5 D5_U57
D5 D5_U23
D2 D2_U88
D3 D3_U38
D1 D1_U36
D5 D5_U15
D4 D4_U28
D1 D1_U100
D2 D2_U79
D5 D5_U39
D4 D4_U7
D4 D4_U29
D4 D4_U39
D5 D5_U10
D5 D5_U98
D3 D3_U15
D2 D2_U86
D5 D5_U29
D1 D1_U69
D1 D1_U88
D2 D2_U80
D1 D1_U54
D5 D5_U71
D4 D4_U58
D4 D4_U1
D2 D2_U33
D4 D4_U53
D4 D4_U18
D5 D5_U85
D3 D3_U90
D1 D1_U38
D4 D4_U89
D5 D5_U1
D2 D2_U18
D3 D3_U81
D3 D3_U49
D5 D5_U73
D1 D1_U98
D5 D5_U38
D5 D5_U83
D3 D3_U7
D5 D5_U84
D5 D5_U96
D3 D3_U12
D5 D5_U50
D2 D2_U47
D1 D1_U68
D3 D3_U41
D2 D2_U63
D2 D2_U30
D5 D5_U63
D3 D3_U62
D5 D5_U81
D2 D2_U66
D1 D1_U26
D2 D2_U84
D3 D3_U96
D4 D4_U45
D2 D2_U68
D2 D2_U20
D2 D2_U96
D4 D4_U13
D1 D1_U62
D1 D1_U49
D3 D3_U61
D4 D4_U92
D5 D5_U62
D4 D4_U100
D2 D2_U22
D2 D2_U24
D1 D1_U66
D3 D3_U47
D5 D5_U79
D3 D3_U20
D3 D3_U60
D4 D4_U37
D5 D5_U58
D2 D2_U100
D3 D3_U85
D4 D4_U81
D2 D2_U75
D5 D5_U13
D1 D1_U43
D4 D4_U99
D5 D5_U21
D2 D2_U95
D2 D2_U19
D4 D4_U43
D1 D1_U40
D2 D2_U21
D3 D3_U70
D1 D1_U60
D1 D1_U94
D1 D1_U39
D5 D5_U54
D2 D2_U9
D5 D5_U12
D4 D4_U82
D5 D5_U97
D1 D1_U30
D5 D5_U32
D5 D5_U100
D5 D5_U25
D4 D4_U47
D2 D2_U46
D2 D2_U34
D4 D4_U90
D1 D1_U89
D4 D4_U15
D2 D2_U44
D2 D2_U50
D2 D2_U49
D4 D4_U51
D1 D1_U3
D3 D3_U67
D3 D3_U34
D4 D4_U98
D1 D1_U45
D2 D2_U12
D4 D4_U25
D4 D4_U59
D5 D5_U77
D3 D3_U82
D3 D3_U17
D5 D5_U88
D1 D1_U53
D5 D5_U27
D2 D2_U69
D5 D5_U74
D4 D4_U48
D4 D4_U75
D3 D3_U97
D4 D4_U17
D5 D5_U24
D3 D3_U84
D1 D1_U13
D4 D4_U71
D5 D5_U45
D4 D4_U16
D5 D5_U41
D3 D3_U22
D2 D2_U52
D3 D3_U18
D1 D1_U78
D2 D2_U23
D2 D2_U94
D4 D4_U44
D2 D2_U76
D3 D3_U50
D2 D2_U39
D1 D1_U42
D3 D3_U35
D3 D3_U9
D4 D4_U4
D3 D3_U44
D2 D2_U54
D2 D2_U60
D4 D4_U27
D3 D3_U73
D4 D4_U11
D4 D4_U50
D5 D5_U75
D3 D3_U91
D4 D4_U86
D4 D4_U65
D3 D3_U53
D4 D4_U93
D3 D3_U1
D2 D2_U38
D2 D2_U61
D1 D1_U2
D3 D3_U75
D5 D5_U99
D1 D1_U35
D3 D3_U36
D2 D2_U32
D4 D4_U52
D4 D4_U38
D5 D5_U19
D5 D5_U7
D2 D2_U43
D2 D2_U41
D4 D4_U30
D2 D2_U15
D1 D1_U81
D3 D3_U5
D1 D1_U22
D4 D4_U62
D3 D3_U14
D3 D3_U10
D4 D4_U84
D1 D1_U12
D2 D2_U72
D1 D1_U24
D5 D5_U46
D4 D4_U70
D5 D5_U89
D2 D2_U55
D2 D2_U51
D3 D3_U4
D5 D5_U5
D2 D2_U64
D1 D1_U65
D1 D1_U8
D2 D2_U83
D2 D2_U89
D3 D3_U66
D5 D5_U80
D5 D5_U66
D2 D2_U99
D5 D5_U4
D4 D4_U61
D1 D1_U11
D2 D2_U29
D3 D3_U16
D1 D1_U28
D3 D3_U77
D4 D4_U78
D1 D1_U87
D5 D5_U20
D3 D3_U79
D1 D1_U73
D5 D5_U61
D1 D1_U33
D1 D1_U97
D5 D5_U17
D5 D5_U33
D3 D3_U65
D5 D5_U59
D5 D5_U90
D4 D4_U91
D2 D2_U82
D5 D5_U9
D3 D3_U37
D3 D3_U57
D3 D3_U95
D3 D3_U3
D2 D2_U71
D1 D1_U99
D5 D5_U43
D2 D2_U91
D4 D4_U26
D1 D1_U79
D4 D4_U96
D1 D1_U15
D1 D1_U59
D5 D5_U68
D5 D5_U18
D1 D1_U25
D4 D4_U24
D3 D3_U64
D1 D1_U19
D5 D5_U91
D2 D2_U53
D1 D1_U96
D3 D3_U83
D5 D5_U48
D4 D4_U73
D3 D3_U72
D3 D3_U31
D3 D3_U21
D1 D1_U44
D4 D4_U74
D2 D2_U62
D2 D2_U78
D2 D2_U97
D4 D4_U31
D4 D4_U87
D3 D3_U71
D3 D3_U52
D1 D1_U46
D4 D4_U66
D1 D1_U57
D4 D4_U57
D4 D4_U2
D3 D3_U32
D1 D1_U92
D3 D3_U89
D5 D5_U40
D2 D2_U98
D2 D2_U37
D4 D4_U21
D4 D4_U20
D1 D1_U21
D5 D5_U34
D1 D1_U83
D5 D5_U14
D4 D4_U42
D1 D1_U31
D2 D2_U70
D1 D1_U63
D5 D5_U64
D2 D2_U14
D1 D1_U70
D4 D4_U22
D1 D1_U23
D4 D4_U49
D3 D3_U42
D5 D5_U8
D4 D4_U72
D4 D4_U95
D3 D3_U80
D1 D1_U82
D1 D1_U61
D5 D5_U82
D1 D1_U77
D2 D2_U58
D4 D4_U3
D1 D1_U80
D2 D2_U77
D1 D1_U71
D2 D2_U31
D1 D1_U48
D5 D5_U37
D5 D5_U70
D2 D2_U27
D2 D2_U65
D5 D5_U49
D3 D3_U40
D1 D1_U75
D3 D3_U30
D1 D1_U86
D5 D5_U3
D2 D2_U1
D2 D2_U2
D4 D4_U6
D5 D5_U6
D3 D3_U46
D5 D5_U30
D4 D4_U33
D1 D1_U91
D4 D4_U46
D1 D1_U41
D1 D1_U29
D3 D3_U6
D1 D1_U27
D5 D5_U35
D4 D4_U5
D2 D2_U57
D1 D1_U9
D1 D1_U5
D4 D4_U8
D5 D5_U55
D3 D3_U48
D5 D5_U2
D4 D4_U41
D5 D5_U16
D1 D1_U20
D1 D1_U76
D2 D2_U45
D2 D2_U74
D3 D3_U69
D2 D2_U73
D1 D1_U6
D5 D5_U52
D2 D2_U87
D3 D3_U27
D3 D3_U63
D5 D5_U22
D2 D2_U40
D3 D3_U76
D1 D1_U37
D4 D4_U79
D3 D3_U39
D3 D3_U74
D4 D4_U68
D2 D2_U59
D3 D3_U8
D5 D5_U53
D5 D5_U93
D5 D5_U47
D4 D4_U12
D3 D3_U78
D1 D1_U67
D4 D4_U55
D2 D2_U25
D2 D2_U28
D2 D2_U11
D4 D4_U60
D1 D1_U72
D2 D2_U85
D4 D4_U97
D2 D2_U5
D3 D3_U25
D2 D2_U26
D5 D5_U76
D2 D2_U35
D1 D1_U4
D3 D3_U88
D1 D1_U47
