D3_U1 27
D3_U2 29
D3_U3 6
D3_U4 17
D3_U5 44
D3_U6 14
D3_U7 17
D3_U8 16
D3_U9 17
D3_U10 27
D3_U11 34
D3_U12 15
D3_U13 52
D3_U14 8
D3_U15 10
D3_U16 20
D3_U17 0
D3_U18 9
D3_U19 21
D3_U20 0
D3_U21 8
D3_U22 44
D3_U23 17
D3_U24 0
D3_U25 0
D3_U26 0
D3_U27 34
D3_U28 33
D3_U29 6
D3_U30 25
D3_U31 19
D3_U32 7
D3_U33 12
D3_U34 33
D3_U35 0
D3_U36 53
D3_U37 22
D3_U38 59
D3_U39 9
D3_U40 10
D3_U41 41
D3_U42 68
D3_U43 0
D3_U44 13
D3_U45 48
D3_U46 30
D3_U47 16
D3_U48 25
D3_U49 20
D3_U50 24
D3_U51 36
D3_U52 69
D3_U53 7
D3_U54 37
D3_U55 16
D3_U56 0
D3_U57 28
D3_U58 30
D3_U59 37
D3_U60 16
D3_U61 461
D3_U62 122
D3_U63 166
D3_U64 0
D3_U65 61
D3_U66 68
D3_U67 69
D3_U68 127
D3_U69 65
D3_U70 55
D3_U71 195
D3_U72 0
D3_U73 177
D3_U74 126
D3_U75 59
D3_U76 195
D3_U77 66
D3_U78 0
D3_U79 0
D3_U80 63
D3_U81 0
D3_U82 45
D3_U83 134
D3_U84 0
D3_U85 0
D3_U86 120
D3_U87 59
D3_U88 186
D3_U89 127
D3_U90 223
D3_U91 0
D3_U92 528
D3_U93 363
D3_U94 362
D3_U95 0
D3_U96 727
D3_U97 728
D3_U98 537
D3_U99 175
D3_U100 354
