D2,D2_U83,5,D4,O507,A1 L Confidential 0.7 0.7408704298667437 0.36665288184518446
D5,D5_U69,5,D3,O503,A1 H Top_Secret 0.7 0.9344100291602886 0.7825742596520473
D1,D1_U81,5,D2,O987,A1 L Unclassified 0.7 0.5551574805082098 0.302144939559308
D5,D5_U65,5,D4,O687,A1 L Confidential 0.7 0.712027069806084 0.35642421804217317
D5,D5_U65,5,D3,O965,A1 M Confidential 0.7 0.7257523400533837 0.361282225575575
D3,D3_U64,5,D1,O101,A1 M Confidential 0.7 0.7439386172513162 0.36774535012483417
D2,D2_U77,5,D5,O349,A1 L Secret 0.7 0.7994472665345871 0.3876541876887618
D4,D4_U71,5,D5,O835,A1 H Unclassified 0.7 0.518051494108798 0.2896523446383091
D5,D5_U83,5,D1,O238,A1 M Unclassified 0.7 0.503875019062571 0.28491582654688397
D2,D2_U75,5,D1,O539,A1 M Unclassified 0.7 0.5172489951783198 0.28938368083449467
D3,D3_U87,5,D5,O268,A1 M Unclassified 0.7 0.5545583513192297 0.3019421460810794
D2,D2_U88,5,D5,O601,A1 M Confidential 0.7 0.6136807289549921 0.32212227708297836
D4,D4_U65,5,D3,O626,A1 H Unclassified 0.7 0.5407153624690964 0.2972664212224458
D4,D4_U62,5,D1,O723,A1 H Unclassified 0.7 0.581796162003349 0.3111971162992493
D5,D5_U75,5,D3,O281,A1 M Confidential 0.7 0.7023496767438308 0.35300921751243425
D4,D4_U83,5,D3,O239,A1 M Unclassified 0.7 0.5550643503665463 0.30211341451615514
D1,D1_U81,5,D3,O694,A1 M Secret 0.7 0.8998621630061827 0.7757027098074244
D4,D4_U85,5,D2,O911,A1 H Unclassified 0.7 0.5047608598909735 0.285211202100651
D4,D4_U74,5,D1,O330,A1 L Confidential 0.7 0.6811090354973492 0.34554373923348103
D5,D5_U65,5,D1,O95,A1 H Unclassified 0.7 0.5425414640613616 0.29788213650134876
D2,D2_U74,5,D4,O685,A1 L Unclassified 0.7 0.5209860590585139 0.2906353400385923
D1,D1_U90,5,D3,O494,A1 H Top_Secret 0.7 0.9312787509322648 0.781955178549426
D5,D5_U68,5,D4,O559,A1 L Confidential 0.7 0.7421232337875676 0.3670988572847144
D4,D4_U63,5,D1,O116,A1 M Confidential 0.7 0.6266870119638334 0.32660676882428363
D1,D1_U85,5,D5,O26,A1 L Secret 0.7 0.8272541698020813 0.760955322216153
D2,D2_U87,5,D5,O409,A1 M Unclassified 0.7 0.5863484032039725 0.31275093709567925
D4,D4_U67,5,D3,O142,A1 L Unclassified 0.7 0.5535619205849676 0.3016049520152223
D4,D4_U86,5,D5,O440,A1 L Unclassified 0.7 0.5683685185396303 0.306625566025956
D4,D4_U89,5,D5,O814,A1 L Unclassified 0.7 0.5111682541094146 0.28735004896154226
D4,D4_U61,5,D1,O303,A1 H Unclassified 0.7 0.573591927640455 0.30840183306012153
D2,D2_U71,5,D5,O268,A1 M Unclassified 0.7 0.5804133824189148 0.310725528385731
D2,D2_U63,5,D1,O664,A1 L Unclassified 0.7 0.5765874786754013 0.3094216959886775
D1,D1_U71,5,D3,O277,A1 M Unclassified 0.7 0.5221144491900753 0.29101354820813835
D5,D5_U71,5,D2,O960,A1 H Confidential 0.7 0.6431557431384777 0.3323080657835143
D1,D1_U77,5,D5,O26,A1 L Secret 0.7 0.7594937389080768 0.373296885926013
D3,D3_U63,5,D2,O509,A1 L Unclassified 0.7 0.5511165684935244 0.3007778544236651
D2,D2_U66,5,D3,O641,A1 M Unclassified 0.7 0.5028193823675344 0.2845639377583503
D1,D1_U84,5,D2,O902,A1 H Confidential 0.7 0.6641805450907937 0.3396236165267174
D2,D2_U72,5,D1,O676,A1 H Confidential 0.7 0.7471040251016756 0.36887331750974894
D2,D2_U82,5,D1,O462,A1 M Confidential 0.7 0.6468642281347472 0.3335954247333809
D5,D5_U73,5,D3,O963,A1 M Unclassified 0.7 0.5572525741280111 0.3028543650821584
D1,D1_U64,5,D5,O36,A1 M Confidential 0.7 0.64201800071885 0.33191337008854616
D4,D4_U69,5,D5,O999,A1 M Unclassified 0.7 0.5264520547484203 0.29246859133737835
D2,D2_U83,5,D3,O626,A1 H Unclassified 0.7 0.5554526747805951 0.30224487000961264
D1,D1_U68,5,D3,O786,A1 M Confidential 0.7 0.6815169179650863 0.34568670802789625
D5,D5_U78,5,D3,O18,A1 H Unclassified 0.7 0.5965368622879641 0.3162358281298702
D5,D5_U65,5,D1,O959,A1 L Unclassified 0.7 0.5325164779521139 0.2945060420527364
D1,D1_U78,5,D4,O396,A1 L Unclassified 0.7 0.5701556634421305 0.30723300124690056
D5,D5_U74,5,D4,O218,A1 L Secret 0.7 0.8610593576356432 0.7678743502962937
D1,D1_U67,5,D5,O526,A1 L Unclassified 0.7 0.5782440172017419 0.3099860544154613
