D1,D1_U48,5,D5,O300,A1 M Confidential 0.95
D3,D3_U3,2,D1,O296,A3 L Unclassified 0.95
D2,D2_U3,1,D5,O954,A3 L Unclassified 0.95
D1,D1_U23,8,D2,O347,A2 H Unclassified 0.95
D4,D4_U2,8,D1,O96,A1 L Secret 0.95
D5,D5_U32,10,D4,O685,A1 L Unclassified 0.95
D5,D5_U53,5,D1,O81,A1 M Confidential 0.95
D1,D1_U36,9,D2,O448,A3 L Top_Secret 0.95
D5,D5_U22,1,D2,O50,A3 M Unclassified 0.95
D4,D4_U26,9,D1,O168,A3 L Top_Secret 0.95
D4,D4_U44,3,D1,O280,A1 M Unclassified 0.95
D4,D4_U40,6,D1,O886,A1 H Unclassified 0.95
D1,D1_U54,8,D4,O478,A1 L Confidential 0.95
D3,D3_U51,9,D2,O584,A1 H Confidential 0.95
D2,D2_U47,7,D4,O753,A2 L Secret 0.95
D3,D3_U42,9,D2,O902,A1 H Confidential 0.95
D3,D3_U53,6,D4,O392,A3 L Confidential 0.95
D3,D3_U51,9,D5,O820,A3 L Top_Secret 0.95
D1,D1_U32,7,D2,O10,A2 L Confidential 0.95
D2,D2_U24,6,D5,O920,A1 H Confidential 0.95
D5,D5_U29,6,D1,O513,A3 M Secret 0.95
D4,D4_U55,5,D2,O989,A1 M Unclassified 0.95
D5,D5_U57,5,D1,O711,A1 M Confidential 0.95
D3,D3_U16,10,D4,O878,A1 L Secret 0.95
D2,D2_U33,4,D5,O699,A2 L Unclassified 0.95
D2,D2_U58,8,D5,O648,A3 M Confidential 0.95
D1,D1_U26,10,D2,O783,A2 L Top_Secret 0.95
D3,D3_U35,1,D4,O243,A3 H Unclassified 0.95
D1,D1_U26,10,D2,O176,A1 H Secret 0.95
D2,D2_U17,7,D5,O405,A2 H Unclassified 0.95
D1,D1_U18,3,D2,O256,A3 H Confidential 0.95
D1,D1_U12,7,D5,O56,A1 L Secret 0.95
D3,D3_U53,6,D4,O559,A1 L Confidential 0.95
D5,D5_U1,6,D3,O279,A3 L Secret 0.95
D4,D4_U32,3,D3,O70,A3 M Confidential 0.95
D1,D1_U23,8,D2,O960,A1 H Confidential 0.95
D5,D5_U20,6,D1,O861,A2 L Unclassified 0.95
D5,D5_U47,7,D2,O537,A2 M Unclassified 0.95
D3,D3_U27,5,D5,O521,A1 L Unclassified 0.95
D4,D4_U18,10,D1,O115,A3 M Unclassified 0.95
D1,D1_U47,10,D2,O357,A2 L Secret 0.95
D1,D1_U54,8,D2,O742,A1 M Unclassified 0.95
D4,D4_U20,10,D2,O194,A1 M Top_Secret 0.95
D1,D1_U21,9,D4,O207,A1 H Top_Secret 0.95
D2,D2_U22,10,D1,O119,A1 H Secret 0.95
D5,D5_U6,6,D4,O553,A3 L Secret 0.95
D3,D3_U41,10,D4,O547,A1 M Top_Secret 0.95
D3,D3_U45,10,D2,O298,A3 H Confidential 0.95
D2,D2_U14,10,D1,O81,A1 M Confidential 0.95
D4,D4_U16,10,D3,O617,A1 L Top_Secret 0.95
D3,D3_U35,1,D5,O433,A2 M Unclassified 0.95
D5,D5_U56,4,D4,O385,A2 M Confidential 0.95
D5,D5_U33,6,D3,O904,A3 M Unclassified 0.95
D5,D5_U5,1,D4,O888,A3 L Unclassified 0.95
D4,D4_U19,9,D1,O118,A2 M Top_Secret 0.95
D4,D4_U4,5,D1,O620,A1 L Unclassified 0.95
D3,D3_U49,9,D5,O881,A2 L Secret 0.95
D3,D3_U7,2,D1,O167,A3 L Unclassified 0.95
D3,D3_U19,7,D5,O521,A1 L Unclassified 0.95
D5,D5_U54,9,D3,O170,A1 H Top_Secret 0.95
D5,D5_U33,6,D4,O901,A2 L Secret 0.95
D2,D2_U56,3,D3,O834,A3 M Unclassified 0.95
D4,D4_U29,8,D5,O925,A2 L Secret 0.95
D1,D1_U37,1,D2,O966,A3 H Unclassified 0.95
D2,D2_U16,8,D1,O855,A2 M Unclassified 0.95
D2,D2_U27,9,D4,O602,A3 M Top_Secret 0.95
D2,D2_U3,1,D3,O828,A3 H Unclassified 0.95
D2,D2_U11,2,D3,O340,A2 H Unclassified 0.95
D2,D2_U27,9,D4,O126,A3 L Unclassified 0.95
D5,D5_U48,5,D1,O386,A3 M Unclassified 0.95
D2,D2_U36,6,D1,O419,A2 H Confidential 0.95
D5,D5_U7,7,D2,O64,A2 M Confidential 0.95
D1,D1_U58,5,D4,O748,A3 L Unclassified 0.95
D3,D3_U12,4,D1,O83,A1 M Confidential 0.95
D2,D2_U20,7,D3,O285,A3 L Secret 0.95
D3,D3_U46,9,D5,O542,A1 H Secret 0.95
D4,D4_U43,8,D2,O870,A3 L Unclassified 0.95
D3,D3_U36,9,D5,O79,A3 L Confidential 0.95
D5,D5_U9,8,D4,O429,A2 L Unclassified 0.95
D2,D2_U33,4,D3,O90,A3 M Unclassified 0.95
D5,D5_U29,6,D2,O771,A3 L Confidential 0.95
D1,D1_U24,7,D2,O940,A2 H Confidential 0.95
D4,D4_U57,4,D3,O258,A2 H Confidential 0.95
D3,D3_U16,10,D5,O663,A3 L Unclassified 0.95
D2,D2_U36,6,D4,O15,A2 L Unclassified 0.95
D2,D2_U43,3,D1,O914,A3 M Confidential 0.95
D3,D3_U12,4,D5,O909,A1 L Confidential 0.95
D3,D3_U21,10,D1,O234,A2 L Secret 0.95
D1,D1_U40,9,D4,O841,A3 M Top_Secret 0.95
D2,D2_U35,8,D1,O906,A2 L Secret 0.95
D1,D1_U39,7,D4,O606,A1 M Unclassified 0.95
D1,D1_U17,2,D5,O2,A3 M Unclassified 0.95
D1,D1_U3,7,D5,O715,A3 L Confidential 0.95
D3,D3_U20,8,D2,O434,A3 H Confidential 0.95
D4,D4_U60,1,D2,O260,A3 M Unclassified 0.95
D4,D4_U18,10,D1,O632,A3 L Unclassified 0.95
D1,D1_U53,3,D3,O125,A1 H Confidential 0.95
D4,D4_U40,6,D5,O300,A1 M Confidential 0.95
D3,D3_U19,7,D5,O433,A2 M Unclassified 0.95
D2,D2_U15,8,D1,O54,A2 L Confidential 0.95
D2,D2_U46,9,D1,O978,A2 L Unclassified 0.95
D4,D4_U11,9,D5,O673,A1 H Unclassified 0.95
D5,D5_U59,6,D4,O921,A2 M Secret 0.95
D5,D5_U20,6,D2,O517,A3 M Secret 0.95
D5,D5_U45,10,D3,O991,A2 H Top_Secret 0.95
D5,D5_U55,1,D3,O500,A2 M Unclassified 0.95
D2,D2_U16,8,D5,O556,A3 M Unclassified 0.95
D1,D1_U19,4,D2,O682,A3 L Unclassified 0.95
D2,D2_U31,10,D5,O789,A1 L Secret 0.95
D5,D5_U43,7,D1,O261,A3 M Secret 0.95
D1,D1_U4,6,D4,O5,A1 M Unclassified 0.95
D1,D1_U23,8,D3,O18,A1 H Unclassified 0.95
D3,D3_U46,9,D1,O818,A2 M Unclassified 0.95
D4,D4_U26,9,D5,O866,A3 M Top_Secret 0.95
D3,D3_U44,4,D1,O877,A2 L Confidential 0.95
D5,D5_U23,10,D1,O740,A2 H Top_Secret 0.95
D1,D1_U16,9,D3,O919,A2 H Unclassified 0.95
D3,D3_U9,9,D5,O869,A3 L Top_Secret 0.95
D2,D2_U47,7,D4,O28,A3 M Unclassified 0.95
D4,D4_U10,7,D1,O747,A2 M Secret 0.95
D3,D3_U74,10,D4,O28,A3 M Unclassified 0.7
D3,D3_U61,6,D2,O799,A2 L Secret 0.7
D2,D2_U73,8,D1,O530,A3 L Unclassified 0.7
D5,D5_U88,6,D1,O325,A3 L Secret 0.7
D5,D5_U72,3,D2,O821,A3 L Unclassified 0.7
D4,D4_U90,10,D3,O645,A3 L Unclassified 0.7
D5,D5_U84,2,D2,O619,A1 M Unclassified 0.7
D2,D2_U87,6,D3,O645,A3 L Unclassified 0.7
D3,D3_U80,4,D4,O390,A3 M Unclassified 0.7
D1,D1_U75,6,D2,O998,A2 L Secret 0.7
D5,D5_U65,9,D3,O803,A3 H Top_Secret 0.7
D5,D5_U69,9,D1,O561,A1 H Top_Secret 0.7
D2,D2_U77,10,D4,O373,A2 L Top_Secret 0.7
D2,D2_U85,3,D5,O412,A1 H Confidential 0.7
D5,D5_U89,8,D1,O413,A3 L Unclassified 0.7
D1,D1_U85,7,D5,O835,A1 H Unclassified 0.7
D1,D1_U67,6,D3,O785,A3 L Secret 0.7
D2,D2_U64,10,D4,O709,A2 L Top_Secret 0.7
D2,D2_U61,5,D4,O126,A3 L Unclassified 0.7
D5,D5_U69,9,D4,O252,A3 L Secret 0.7
D2,D2_U90,10,D5,O435,A2 L Secret 0.7
D3,D3_U78,6,D5,O948,A3 M Confidential 0.7
D3,D3_U66,9,D5,O382,A3 L Top_Secret 0.7
D2,D2_U84,9,D4,O161,A2 M Confidential 0.7
D3,D3_U70,7,D5,O300,A1 M Confidential 0.7
D3,D3_U86,3,D4,O39,A3 L Confidential 0.7
D3,D3_U78,6,D5,O954,A3 L Unclassified 0.7
D2,D2_U90,10,D1,O752,A3 H Secret 0.7
D4,D4_U65,9,D2,O960,A1 H Confidential 0.7
D2,D2_U69,2,D1,O217,A2 M Unclassified 0.7
D3,D3_U73,10,D2,O361,A3 M Top_Secret 0.7
D4,D4_U65,9,D5,O825,A1 L Top_Secret 0.7
D2,D2_U73,8,D5,O482,A3 M Unclassified 0.7
D4,D4_U74,9,D3,O725,A1 L Unclassified 0.7
D5,D5_U68,5,D4,O621,A3 M Unclassified 0.7
D4,D4_U65,9,D1,O740,A2 H Top_Secret 0.7
D4,D4_U74,9,D2,O394,A2 M Unclassified 0.7
D5,D5_U82,3,D4,O75,A2 M Unclassified 0.7
D1,D1_U75,6,D3,O919,A2 H Unclassified 0.7
D5,D5_U61,9,D4,O307,A3 M Unclassified 0.7
D2,D2_U61,5,D3,O640,A2 M Confidential 0.7
D3,D3_U74,10,D5,O979,A1 L Secret 0.7
D5,D5_U80,4,D3,O181,A1 H Unclassified 0.7
D5,D5_U64,10,D3,O123,A1 H Secret 0.7
D3,D3_U67,2,D2,O915,A1 L Unclassified 0.7
D2,D2_U79,4,D5,O482,A3 M Unclassified 0.7
D2,D2_U75,8,D5,O912,A3 H Secret 0.7
D5,D5_U71,6,D4,O477,A2 L Unclassified 0.7
D5,D5_U76,1,D1,O331,A2 M Unclassified 0.7
D1,D1_U80,4,D5,O468,A3 M Unclassified 0.7
D3,D3_U90,8,D2,O230,A2 L Secret 0.7
D4,D4_U61,6,D5,O881,A2 L Secret 0.7
D2,D2_U76,7,D1,O177,A2 L Secret 0.7
D3,D3_U64,10,D2,O288,A3 M Unclassified 0.7
D1,D1_U63,5,D4,O9,A2 M Confidential 0.7
D5,D5_U69,9,D4,O666,A2 L Secret 0.7
D1,D1_U78,3,D3,O365,A3 L Unclassified 0.7
D2,D2_U89,2,D4,O496,A1 H Unclassified 0.7
D1,D1_U64,8,D5,O174,A1 M Secret 0.7
D2,D2_U79,4,D3,O479,A3 L Unclassified 0.7
D3,D3_U100,5,D2,O647,A3 M Unclassified 0.1
D2,D2_U98,8,D5,O634,A3 M Secret 0.1
D4,D4_U96,4,D2,O434,A3 H Confidential 0.1
D5,D5_U97,8,D3,O961,A2 L Secret 0.1
D3,D3_U98,6,D1,O475,A3 L Secret 0.1
D2,D2_U99,9,D1,O562,A3 H Confidential 0.1
D3,D3_U97,10,D2,O426,A1 L Unclassified 0.1
D3,D3_U99,7,D4,O571,A3 L Unclassified 0.1
D5,D5_U97,8,D4,O878,A1 L Secret 0.1
D3,D3_U96,10,D1,O484,A3 M Secret 0.1
D3,D3_U96,10,D5,O60,A2 M Confidential 0.1
D2,D2_U95,8,D1,O195,A3 L Secret 0.1
D2,D2_U97,5,D4,O809,A2 H Confidential 0.1
D3,D3_U99,7,D2,O801,A1 L Confidential 0.1
D5,D5_U100,10,D2,O554,A1 M Secret 0.1
D5,D5_U92,10,D2,O235,A2 H Unclassified 0.1
D2,D2_U97,5,D3,O786,A1 M Confidential 0.1
D4,D4_U92,4,D3,O849,A3 M Confidential 0.1
D1,D1_U94,5,D3,O644,A3 M Unclassified 0.1
D2,D2_U93,6,D3,O216,A2 M Confidential 0.1

