D1,D1_U76,5,D3,O500,A2 M Unclassified 0.7 0.5008136778233465 0.33176157168029585
D3,D3_U78,5,D1,O259,A2 L Unclassified 0.7 0.5024031034359321 0.3324679459328802
D3,D3_U83,5,D1,O145,A2 H Unclassified 0.7 0.5073468603114907 0.31543334088724234
D4,D4_U72,5,D5,O770,A2 M Unclassified 0.7 0.5078988568679701 0.33480124642231646
D3,D3_U78,5,D4,O968,A2 L Unclassified 0.7 0.5091560410241764 0.33547342972834965
D1,D1_U84,5,D2,O155,A2 L Unclassified 0.7 0.5106210767647874 0.33601415675392654
D5,D5_U86,5,D2,O274,A2 M Unclassified 0.7 0.5188241237669348 0.3390269719113292
D4,D4_U65,5,D2,O49,A2 L Unclassified 0.7 0.5198423720130815 0.22613414994802578
D2,D2_U79,5,D4,O72,A2 H Unclassified 0.7 0.5229428662057805 0.341631130576019
D1,D1_U65,5,D5,O933,A2 H Unclassified 0.7 0.5250217811345907 0.3424493802840009
D2,D2_U66,5,D1,O331,A2 M Unclassified 0.7 0.5475928239213292 0.3519436468577633
D4,D4_U87,5,D3,O531,A2 M Unclassified 0.7 0.5558958698481329 0.3474269936773828
D3,D3_U70,5,D5,O889,A2 L Unclassified 0.7 0.5647343891448949 0.3604723752471631
D1,D1_U78,5,D4,O40,A2 L Unclassified 0.7 0.567205594368538 0.34196224253580626
D2,D2_U88,5,D4,O910,A2 M Unclassified 0.7 0.5750292180079344 0.36195889057727465
D2,D2_U64,5,D3,O531,A2 M Unclassified 0.7 0.5872866431985485 0.3706326574365462
D1,D1_U76,5,D5,O889,A2 L Unclassified 0.7 0.5935274666517522 0.37360444273056537
D5,D5_U83,5,D2,O536,A2 L Unclassified 0.7 0.5981583848836671 0.3558952802990505
D1,D1_U79,5,D2,O235,A2 H Unclassified 0.7 0.5983394291337534 0.3758109382102296
D3,D3_U77,5,D5,O544,A2 M Unclassified 0.7 0.599658258982793 0.3756342302823652
D1,D1_U68,5,D2,O842,A2 L Confidential 0.7 0.6131187408574748 0.3292632762167059
D5,D5_U75,5,D3,O654,A2 H Confidential 0.7 0.6200439255234431 0.3858050674857357
D2,D2_U67,5,D3,O514,A2 M Confidential 0.7 0.6451237466787867 0.38813770248057483
D1,D1_U67,5,D4,O543,A2 L Confidential 0.7 0.6663094952991269 0.7659089741387283
D5,D5_U71,5,D2,O518,A2 M Confidential 0.7 0.669631190599832 0.37308678234126696
D2,D2_U77,5,D1,O54,A2 L Confidential 0.7 0.6706578680376487 0.33568677366477845
D2,D2_U79,5,D4,O385,A2 M Confidential 0.7 0.6720324579084365 0.7678469523037047
D1,D1_U85,5,D2,O842,A2 L Confidential 0.7 0.686305952246741 0.7711102495612033
D1,D1_U79,5,D3,O577,A2 L Confidential 0.7 0.6942969071920398 0.7736131448049193
D1,D1_U61,5,D2,O264,A2 H Confidential 0.7 0.7001531019664163 0.7751142624792049
D5,D5_U90,5,D2,O64,A2 M Confidential 0.7 0.7206110174136324 0.7803460827312294
D5,D5_U68,5,D1,O797,A2 L Confidential 0.7 0.7206760687358871 0.3104712735181409
D4,D4_U81,5,D5,O444,A2 M Confidential 0.7 0.7483981067631488 0.7823130397421436
D2,D2_U87,5,D4,O732,A2 H Secret 0.7 0.7563295420466242 0.7590103024703769
D4,D4_U86,5,D2,O998,A2 L Secret 0.7 0.7597597663943192 0.7897794041816977
D5,D5_U61,5,D4,O901,A2 L Secret 0.7 0.7635806615563215 0.7802053373836816
D5,D5_U90,5,D3,O276,A2 L Secret 0.7 0.764716502859965 0.7914397773231397
D5,D5_U89,5,D1,O12,A2 H Secret 0.7 0.7777354273338049 0.7946078584108709
D5,D5_U66,5,D1,O266,A2 L Secret 0.7 0.7816713214724008 0.7952219796755801
D2,D2_U86,5,D5,O925,A2 L Secret 0.7 0.7928225838956824 0.7979704931823556
D2,D2_U75,5,D1,O7,A2 M Secret 0.7 0.7968748504024583 0.7989657679068273
D4,D4_U71,5,D1,O93,A2 L Secret 0.7 0.8091537758234576 0.8019702910948193
D2,D2_U84,5,D1,O360,A2 L Secret 0.7 0.8108679409435735 0.7620353136179439
D2,D2_U76,5,D1,O552,A2 L Secret 0.7 0.8497462090028249 0.8121927667274055
D1,D1_U69,5,D4,O97,A2 L Secret 0.7 0.8714942750465522 0.7671264123374523
D4,D4_U69,5,D1,O234,A2 L Secret 0.7 0.8748763758407019 0.7895014331555229
D3,D3_U70,5,D5,O61,A2 L Secret 0.7 0.8857542768219372 0.8207457954547905
D2,D2_U72,5,D1,O906,A2 L Secret 0.7 0.8969117368893332 0.8229692620592134
D4,D4_U74,5,D5,O777,A2 M Top_Secret 0.7 0.9229658152450076 0.8294464251013122
D4,D4_U74,5,D3,O529,A2 L Top_Secret 0.7 0.9941531562880518 0.8457201518330866
