%!PS-Adobe-2.0 EPSF-2.0
%%Title: 6.eps
%%Creator: gnuplot 4.6 patchlevel 6
%%CreationDate: Thu Jul 12 18:45:58 2018
%%DocumentFonts: (atend)
%%BoundingBox: 50 50 410 302
%%EndComments
%%BeginProlog
/gnudict 256 dict def
gnudict begin
%
% The following true/false flags may be edited by hand if desired.
% The unit line width and grayscale image gamma correction may also be changed.
%
/Color true def
/Blacktext false def
/Solid false def
/Dashlength 1 def
/Landscape false def
/Level1 false def
/Rounded false def
/ClipToBoundingBox false def
/SuppressPDFMark false def
/TransparentPatterns false def
/gnulinewidth 5.000 def
/userlinewidth gnulinewidth def
/Gamma 1.0 def
/BackgroundColor {-1.000 -1.000 -1.000} def
%
/vshift -46 def
/dl1 {
  10.0 Dashlength mul mul
  Rounded { currentlinewidth 0.75 mul sub dup 0 le { pop 0.01 } if } if
} def
/dl2 {
  10.0 Dashlength mul mul
  Rounded { currentlinewidth 0.75 mul add } if
} def
/hpt_ 31.5 def
/vpt_ 31.5 def
/hpt hpt_ def
/vpt vpt_ def
/doclip {
  ClipToBoundingBox {
    newpath 50 50 moveto 410 50 lineto 410 302 lineto 50 302 lineto closepath
    clip
  } if
} def
%
% Gnuplot Prolog Version 4.6 (September 2012)
%
%/SuppressPDFMark true def
%
/M {moveto} bind def
/L {lineto} bind def
/R {rmoveto} bind def
/V {rlineto} bind def
/N {newpath moveto} bind def
/Z {closepath} bind def
/C {setrgbcolor} bind def
/f {rlineto fill} bind def
/g {setgray} bind def
/Gshow {show} def   % May be redefined later in the file to support UTF-8
/vpt2 vpt 2 mul def
/hpt2 hpt 2 mul def
/Lshow {currentpoint stroke M 0 vshift R 
	Blacktext {gsave 0 setgray show grestore} {show} ifelse} def
/Rshow {currentpoint stroke M dup stringwidth pop neg vshift R
	Blacktext {gsave 0 setgray show grestore} {show} ifelse} def
/Cshow {currentpoint stroke M dup stringwidth pop -2 div vshift R 
	Blacktext {gsave 0 setgray show grestore} {show} ifelse} def
/UP {dup vpt_ mul /vpt exch def hpt_ mul /hpt exch def
  /hpt2 hpt 2 mul def /vpt2 vpt 2 mul def} def
/DL {Color {setrgbcolor Solid {pop []} if 0 setdash}
 {pop pop pop 0 setgray Solid {pop []} if 0 setdash} ifelse} def
/BL {stroke userlinewidth 2 mul setlinewidth
	Rounded {1 setlinejoin 1 setlinecap} if} def
/AL {stroke userlinewidth 2 div setlinewidth
	Rounded {1 setlinejoin 1 setlinecap} if} def
/UL {dup gnulinewidth mul /userlinewidth exch def
	dup 1 lt {pop 1} if 10 mul /udl exch def} def
/PL {stroke userlinewidth setlinewidth
	Rounded {1 setlinejoin 1 setlinecap} if} def
3.8 setmiterlimit
% Default Line colors
/LCw {1 1 1} def
/LCb {0 0 0} def
/LCa {0 0 0} def
/LC0 {1 0 0} def
/LC1 {0 1 0} def
/LC2 {0 0 1} def
/LC3 {1 0 1} def
/LC4 {0 1 1} def
/LC5 {1 1 0} def
/LC6 {0 0 0} def
/LC7 {1 0.3 0} def
/LC8 {0.5 0.5 0.5} def
% Default Line Types
/LTw {PL [] 1 setgray} def
/LTb {BL [] LCb DL} def
/LTa {AL [1 udl mul 2 udl mul] 0 setdash LCa setrgbcolor} def
/LT0 {PL [] LC0 DL} def
/LT1 {PL [4 dl1 2 dl2] LC1 DL} def
/LT2 {PL [2 dl1 3 dl2] LC2 DL} def
/LT3 {PL [1 dl1 1.5 dl2] LC3 DL} def
/LT4 {PL [6 dl1 2 dl2 1 dl1 2 dl2] LC4 DL} def
/LT5 {PL [3 dl1 3 dl2 1 dl1 3 dl2] LC5 DL} def
/LT6 {PL [2 dl1 2 dl2 2 dl1 6 dl2] LC6 DL} def
/LT7 {PL [1 dl1 2 dl2 6 dl1 2 dl2 1 dl1 2 dl2] LC7 DL} def
/LT8 {PL [2 dl1 2 dl2 2 dl1 2 dl2 2 dl1 2 dl2 2 dl1 4 dl2] LC8 DL} def
/Pnt {stroke [] 0 setdash gsave 1 setlinecap M 0 0 V stroke grestore} def
/Dia {stroke [] 0 setdash 2 copy vpt add M
  hpt neg vpt neg V hpt vpt neg V
  hpt vpt V hpt neg vpt V closepath stroke
  Pnt} def
/Pls {stroke [] 0 setdash vpt sub M 0 vpt2 V
  currentpoint stroke M
  hpt neg vpt neg R hpt2 0 V stroke
 } def
/Box {stroke [] 0 setdash 2 copy exch hpt sub exch vpt add M
  0 vpt2 neg V hpt2 0 V 0 vpt2 V
  hpt2 neg 0 V closepath stroke
  Pnt} def
/Crs {stroke [] 0 setdash exch hpt sub exch vpt add M
  hpt2 vpt2 neg V currentpoint stroke M
  hpt2 neg 0 R hpt2 vpt2 V stroke} def
/TriU {stroke [] 0 setdash 2 copy vpt 1.12 mul add M
  hpt neg vpt -1.62 mul V
  hpt 2 mul 0 V
  hpt neg vpt 1.62 mul V closepath stroke
  Pnt} def
/Star {2 copy Pls Crs} def
/BoxF {stroke [] 0 setdash exch hpt sub exch vpt add M
  0 vpt2 neg V hpt2 0 V 0 vpt2 V
  hpt2 neg 0 V closepath fill} def
/TriUF {stroke [] 0 setdash vpt 1.12 mul add M
  hpt neg vpt -1.62 mul V
  hpt 2 mul 0 V
  hpt neg vpt 1.62 mul V closepath fill} def
/TriD {stroke [] 0 setdash 2 copy vpt 1.12 mul sub M
  hpt neg vpt 1.62 mul V
  hpt 2 mul 0 V
  hpt neg vpt -1.62 mul V closepath stroke
  Pnt} def
/TriDF {stroke [] 0 setdash vpt 1.12 mul sub M
  hpt neg vpt 1.62 mul V
  hpt 2 mul 0 V
  hpt neg vpt -1.62 mul V closepath fill} def
/DiaF {stroke [] 0 setdash vpt add M
  hpt neg vpt neg V hpt vpt neg V
  hpt vpt V hpt neg vpt V closepath fill} def
/Pent {stroke [] 0 setdash 2 copy gsave
  translate 0 hpt M 4 {72 rotate 0 hpt L} repeat
  closepath stroke grestore Pnt} def
/PentF {stroke [] 0 setdash gsave
  translate 0 hpt M 4 {72 rotate 0 hpt L} repeat
  closepath fill grestore} def
/Circle {stroke [] 0 setdash 2 copy
  hpt 0 360 arc stroke Pnt} def
/CircleF {stroke [] 0 setdash hpt 0 360 arc fill} def
/C0 {BL [] 0 setdash 2 copy moveto vpt 90 450 arc} bind def
/C1 {BL [] 0 setdash 2 copy moveto
	2 copy vpt 0 90 arc closepath fill
	vpt 0 360 arc closepath} bind def
/C2 {BL [] 0 setdash 2 copy moveto
	2 copy vpt 90 180 arc closepath fill
	vpt 0 360 arc closepath} bind def
/C3 {BL [] 0 setdash 2 copy moveto
	2 copy vpt 0 180 arc closepath fill
	vpt 0 360 arc closepath} bind def
/C4 {BL [] 0 setdash 2 copy moveto
	2 copy vpt 180 270 arc closepath fill
	vpt 0 360 arc closepath} bind def
/C5 {BL [] 0 setdash 2 copy moveto
	2 copy vpt 0 90 arc
	2 copy moveto
	2 copy vpt 180 270 arc closepath fill
	vpt 0 360 arc} bind def
/C6 {BL [] 0 setdash 2 copy moveto
	2 copy vpt 90 270 arc closepath fill
	vpt 0 360 arc closepath} bind def
/C7 {BL [] 0 setdash 2 copy moveto
	2 copy vpt 0 270 arc closepath fill
	vpt 0 360 arc closepath} bind def
/C8 {BL [] 0 setdash 2 copy moveto
	2 copy vpt 270 360 arc closepath fill
	vpt 0 360 arc closepath} bind def
/C9 {BL [] 0 setdash 2 copy moveto
	2 copy vpt 270 450 arc closepath fill
	vpt 0 360 arc closepath} bind def
/C10 {BL [] 0 setdash 2 copy 2 copy moveto vpt 270 360 arc closepath fill
	2 copy moveto
	2 copy vpt 90 180 arc closepath fill
	vpt 0 360 arc closepath} bind def
/C11 {BL [] 0 setdash 2 copy moveto
	2 copy vpt 0 180 arc closepath fill
	2 copy moveto
	2 copy vpt 270 360 arc closepath fill
	vpt 0 360 arc closepath} bind def
/C12 {BL [] 0 setdash 2 copy moveto
	2 copy vpt 180 360 arc closepath fill
	vpt 0 360 arc closepath} bind def
/C13 {BL [] 0 setdash 2 copy moveto
	2 copy vpt 0 90 arc closepath fill
	2 copy moveto
	2 copy vpt 180 360 arc closepath fill
	vpt 0 360 arc closepath} bind def
/C14 {BL [] 0 setdash 2 copy moveto
	2 copy vpt 90 360 arc closepath fill
	vpt 0 360 arc} bind def
/C15 {BL [] 0 setdash 2 copy vpt 0 360 arc closepath fill
	vpt 0 360 arc closepath} bind def
/Rec {newpath 4 2 roll moveto 1 index 0 rlineto 0 exch rlineto
	neg 0 rlineto closepath} bind def
/Square {dup Rec} bind def
/Bsquare {vpt sub exch vpt sub exch vpt2 Square} bind def
/S0 {BL [] 0 setdash 2 copy moveto 0 vpt rlineto BL Bsquare} bind def
/S1 {BL [] 0 setdash 2 copy vpt Square fill Bsquare} bind def
/S2 {BL [] 0 setdash 2 copy exch vpt sub exch vpt Square fill Bsquare} bind def
/S3 {BL [] 0 setdash 2 copy exch vpt sub exch vpt2 vpt Rec fill Bsquare} bind def
/S4 {BL [] 0 setdash 2 copy exch vpt sub exch vpt sub vpt Square fill Bsquare} bind def
/S5 {BL [] 0 setdash 2 copy 2 copy vpt Square fill
	exch vpt sub exch vpt sub vpt Square fill Bsquare} bind def
/S6 {BL [] 0 setdash 2 copy exch vpt sub exch vpt sub vpt vpt2 Rec fill Bsquare} bind def
/S7 {BL [] 0 setdash 2 copy exch vpt sub exch vpt sub vpt vpt2 Rec fill
	2 copy vpt Square fill Bsquare} bind def
/S8 {BL [] 0 setdash 2 copy vpt sub vpt Square fill Bsquare} bind def
/S9 {BL [] 0 setdash 2 copy vpt sub vpt vpt2 Rec fill Bsquare} bind def
/S10 {BL [] 0 setdash 2 copy vpt sub vpt Square fill 2 copy exch vpt sub exch vpt Square fill
	Bsquare} bind def
/S11 {BL [] 0 setdash 2 copy vpt sub vpt Square fill 2 copy exch vpt sub exch vpt2 vpt Rec fill
	Bsquare} bind def
/S12 {BL [] 0 setdash 2 copy exch vpt sub exch vpt sub vpt2 vpt Rec fill Bsquare} bind def
/S13 {BL [] 0 setdash 2 copy exch vpt sub exch vpt sub vpt2 vpt Rec fill
	2 copy vpt Square fill Bsquare} bind def
/S14 {BL [] 0 setdash 2 copy exch vpt sub exch vpt sub vpt2 vpt Rec fill
	2 copy exch vpt sub exch vpt Square fill Bsquare} bind def
/S15 {BL [] 0 setdash 2 copy Bsquare fill Bsquare} bind def
/D0 {gsave translate 45 rotate 0 0 S0 stroke grestore} bind def
/D1 {gsave translate 45 rotate 0 0 S1 stroke grestore} bind def
/D2 {gsave translate 45 rotate 0 0 S2 stroke grestore} bind def
/D3 {gsave translate 45 rotate 0 0 S3 stroke grestore} bind def
/D4 {gsave translate 45 rotate 0 0 S4 stroke grestore} bind def
/D5 {gsave translate 45 rotate 0 0 S5 stroke grestore} bind def
/D6 {gsave translate 45 rotate 0 0 S6 stroke grestore} bind def
/D7 {gsave translate 45 rotate 0 0 S7 stroke grestore} bind def
/D8 {gsave translate 45 rotate 0 0 S8 stroke grestore} bind def
/D9 {gsave translate 45 rotate 0 0 S9 stroke grestore} bind def
/D10 {gsave translate 45 rotate 0 0 S10 stroke grestore} bind def
/D11 {gsave translate 45 rotate 0 0 S11 stroke grestore} bind def
/D12 {gsave translate 45 rotate 0 0 S12 stroke grestore} bind def
/D13 {gsave translate 45 rotate 0 0 S13 stroke grestore} bind def
/D14 {gsave translate 45 rotate 0 0 S14 stroke grestore} bind def
/D15 {gsave translate 45 rotate 0 0 S15 stroke grestore} bind def
/DiaE {stroke [] 0 setdash vpt add M
  hpt neg vpt neg V hpt vpt neg V
  hpt vpt V hpt neg vpt V closepath stroke} def
/BoxE {stroke [] 0 setdash exch hpt sub exch vpt add M
  0 vpt2 neg V hpt2 0 V 0 vpt2 V
  hpt2 neg 0 V closepath stroke} def
/TriUE {stroke [] 0 setdash vpt 1.12 mul add M
  hpt neg vpt -1.62 mul V
  hpt 2 mul 0 V
  hpt neg vpt 1.62 mul V closepath stroke} def
/TriDE {stroke [] 0 setdash vpt 1.12 mul sub M
  hpt neg vpt 1.62 mul V
  hpt 2 mul 0 V
  hpt neg vpt -1.62 mul V closepath stroke} def
/PentE {stroke [] 0 setdash gsave
  translate 0 hpt M 4 {72 rotate 0 hpt L} repeat
  closepath stroke grestore} def
/CircE {stroke [] 0 setdash 
  hpt 0 360 arc stroke} def
/Opaque {gsave closepath 1 setgray fill grestore 0 setgray closepath} def
/DiaW {stroke [] 0 setdash vpt add M
  hpt neg vpt neg V hpt vpt neg V
  hpt vpt V hpt neg vpt V Opaque stroke} def
/BoxW {stroke [] 0 setdash exch hpt sub exch vpt add M
  0 vpt2 neg V hpt2 0 V 0 vpt2 V
  hpt2 neg 0 V Opaque stroke} def
/TriUW {stroke [] 0 setdash vpt 1.12 mul add M
  hpt neg vpt -1.62 mul V
  hpt 2 mul 0 V
  hpt neg vpt 1.62 mul V Opaque stroke} def
/TriDW {stroke [] 0 setdash vpt 1.12 mul sub M
  hpt neg vpt 1.62 mul V
  hpt 2 mul 0 V
  hpt neg vpt -1.62 mul V Opaque stroke} def
/PentW {stroke [] 0 setdash gsave
  translate 0 hpt M 4 {72 rotate 0 hpt L} repeat
  Opaque stroke grestore} def
/CircW {stroke [] 0 setdash 
  hpt 0 360 arc Opaque stroke} def
/BoxFill {gsave Rec 1 setgray fill grestore} def
/Density {
  /Fillden exch def
  currentrgbcolor
  /ColB exch def /ColG exch def /ColR exch def
  /ColR ColR Fillden mul Fillden sub 1 add def
  /ColG ColG Fillden mul Fillden sub 1 add def
  /ColB ColB Fillden mul Fillden sub 1 add def
  ColR ColG ColB setrgbcolor} def
/BoxColFill {gsave Rec PolyFill} def
/PolyFill {gsave Density fill grestore grestore} def
/h {rlineto rlineto rlineto gsave closepath fill grestore} bind def
%
% PostScript Level 1 Pattern Fill routine for rectangles
% Usage: x y w h s a XX PatternFill
%	x,y = lower left corner of box to be filled
%	w,h = width and height of box
%	  a = angle in degrees between lines and x-axis
%	 XX = 0/1 for no/yes cross-hatch
%
/PatternFill {gsave /PFa [ 9 2 roll ] def
  PFa 0 get PFa 2 get 2 div add PFa 1 get PFa 3 get 2 div add translate
  PFa 2 get -2 div PFa 3 get -2 div PFa 2 get PFa 3 get Rec
  TransparentPatterns {} {gsave 1 setgray fill grestore} ifelse
  clip
  currentlinewidth 0.5 mul setlinewidth
  /PFs PFa 2 get dup mul PFa 3 get dup mul add sqrt def
  0 0 M PFa 5 get rotate PFs -2 div dup translate
  0 1 PFs PFa 4 get div 1 add floor cvi
	{PFa 4 get mul 0 M 0 PFs V} for
  0 PFa 6 get ne {
	0 1 PFs PFa 4 get div 1 add floor cvi
	{PFa 4 get mul 0 2 1 roll M PFs 0 V} for
 } if
  stroke grestore} def
%
/languagelevel where
 {pop languagelevel} {1} ifelse
 2 lt
	{/InterpretLevel1 true def}
	{/InterpretLevel1 Level1 def}
 ifelse
%
% PostScript level 2 pattern fill definitions
%
/Level2PatternFill {
/Tile8x8 {/PaintType 2 /PatternType 1 /TilingType 1 /BBox [0 0 8 8] /XStep 8 /YStep 8}
	bind def
/KeepColor {currentrgbcolor [/Pattern /DeviceRGB] setcolorspace} bind def
<< Tile8x8
 /PaintProc {0.5 setlinewidth pop 0 0 M 8 8 L 0 8 M 8 0 L stroke} 
>> matrix makepattern
/Pat1 exch def
<< Tile8x8
 /PaintProc {0.5 setlinewidth pop 0 0 M 8 8 L 0 8 M 8 0 L stroke
	0 4 M 4 8 L 8 4 L 4 0 L 0 4 L stroke}
>> matrix makepattern
/Pat2 exch def
<< Tile8x8
 /PaintProc {0.5 setlinewidth pop 0 0 M 0 8 L
	8 8 L 8 0 L 0 0 L fill}
>> matrix makepattern
/Pat3 exch def
<< Tile8x8
 /PaintProc {0.5 setlinewidth pop -4 8 M 8 -4 L
	0 12 M 12 0 L stroke}
>> matrix makepattern
/Pat4 exch def
<< Tile8x8
 /PaintProc {0.5 setlinewidth pop -4 0 M 8 12 L
	0 -4 M 12 8 L stroke}
>> matrix makepattern
/Pat5 exch def
<< Tile8x8
 /PaintProc {0.5 setlinewidth pop -2 8 M 4 -4 L
	0 12 M 8 -4 L 4 12 M 10 0 L stroke}
>> matrix makepattern
/Pat6 exch def
<< Tile8x8
 /PaintProc {0.5 setlinewidth pop -2 0 M 4 12 L
	0 -4 M 8 12 L 4 -4 M 10 8 L stroke}
>> matrix makepattern
/Pat7 exch def
<< Tile8x8
 /PaintProc {0.5 setlinewidth pop 8 -2 M -4 4 L
	12 0 M -4 8 L 12 4 M 0 10 L stroke}
>> matrix makepattern
/Pat8 exch def
<< Tile8x8
 /PaintProc {0.5 setlinewidth pop 0 -2 M 12 4 L
	-4 0 M 12 8 L -4 4 M 8 10 L stroke}
>> matrix makepattern
/Pat9 exch def
/Pattern1 {PatternBgnd KeepColor Pat1 setpattern} bind def
/Pattern2 {PatternBgnd KeepColor Pat2 setpattern} bind def
/Pattern3 {PatternBgnd KeepColor Pat3 setpattern} bind def
/Pattern4 {PatternBgnd KeepColor Landscape {Pat5} {Pat4} ifelse setpattern} bind def
/Pattern5 {PatternBgnd KeepColor Landscape {Pat4} {Pat5} ifelse setpattern} bind def
/Pattern6 {PatternBgnd KeepColor Landscape {Pat9} {Pat6} ifelse setpattern} bind def
/Pattern7 {PatternBgnd KeepColor Landscape {Pat8} {Pat7} ifelse setpattern} bind def
} def
%
%
%End of PostScript Level 2 code
%
/PatternBgnd {
  TransparentPatterns {} {gsave 1 setgray fill grestore} ifelse
} def
%
% Substitute for Level 2 pattern fill codes with
% grayscale if Level 2 support is not selected.
%
/Level1PatternFill {
/Pattern1 {0.250 Density} bind def
/Pattern2 {0.500 Density} bind def
/Pattern3 {0.750 Density} bind def
/Pattern4 {0.125 Density} bind def
/Pattern5 {0.375 Density} bind def
/Pattern6 {0.625 Density} bind def
/Pattern7 {0.875 Density} bind def
} def
%
% Now test for support of Level 2 code
%
Level1 {Level1PatternFill} {Level2PatternFill} ifelse
%
/Symbol-Oblique /Symbol findfont [1 0 .167 1 0 0] makefont
dup length dict begin {1 index /FID eq {pop pop} {def} ifelse} forall
currentdict end definefont pop
/MFshow {
   { dup 5 get 3 ge
     { 5 get 3 eq {gsave} {grestore} ifelse }
     {dup dup 0 get findfont exch 1 get scalefont setfont
     [ currentpoint ] exch dup 2 get 0 exch R dup 5 get 2 ne {dup dup 6
     get exch 4 get {Gshow} {stringwidth pop 0 R} ifelse }if dup 5 get 0 eq
     {dup 3 get {2 get neg 0 exch R pop} {pop aload pop M} ifelse} {dup 5
     get 1 eq {dup 2 get exch dup 3 get exch 6 get stringwidth pop -2 div
     dup 0 R} {dup 6 get stringwidth pop -2 div 0 R 6 get
     show 2 index {aload pop M neg 3 -1 roll neg R pop pop} {pop pop pop
     pop aload pop M} ifelse }ifelse }ifelse }
     ifelse }
   forall} def
/Gswidth {dup type /stringtype eq {stringwidth} {pop (n) stringwidth} ifelse} def
/MFwidth {0 exch { dup 5 get 3 ge { 5 get 3 eq { 0 } { pop } ifelse }
 {dup 3 get{dup dup 0 get findfont exch 1 get scalefont setfont
     6 get Gswidth pop add} {pop} ifelse} ifelse} forall} def
/MLshow { currentpoint stroke M
  0 exch R
  Blacktext {gsave 0 setgray MFshow grestore} {MFshow} ifelse } bind def
/MRshow { currentpoint stroke M
  exch dup MFwidth neg 3 -1 roll R
  Blacktext {gsave 0 setgray MFshow grestore} {MFshow} ifelse } bind def
/MCshow { currentpoint stroke M
  exch dup MFwidth -2 div 3 -1 roll R
  Blacktext {gsave 0 setgray MFshow grestore} {MFshow} ifelse } bind def
/XYsave    { [( ) 1 2 true false 3 ()] } bind def
/XYrestore { [( ) 1 2 true false 4 ()] } bind def
Level1 SuppressPDFMark or 
{} {
/SDict 10 dict def
systemdict /pdfmark known not {
  userdict /pdfmark systemdict /cleartomark get put
} if
SDict begin [
  /Title (6.eps)
  /Subject (gnuplot plot)
  /Creator (gnuplot 4.6 patchlevel 6)
  /Author (rishabh)
%  /Producer (gnuplot)
%  /Keywords ()
  /CreationDate (Thu Jul 12 18:45:58 2018)
  /DOCINFO pdfmark
end
} ifelse
end
%%EndProlog
%%Page: 1 1
gnudict begin
gsave
doclip
50 50 translate
0.050 0.050 scale
0 setgray
newpath
(Helvetica) findfont 140 scalefont setfont
BackgroundColor 0 lt 3 1 roll 0 lt exch 0 lt or or not {BackgroundColor C 1.000 0 0 7200.00 5040.00 BoxColFill} if
1.000 UL
LTb
LCb setrgbcolor
1224 1120 M
63 0 V
stroke
1140 1120 M
[ [(Times-Roman) 300.0 0.0 true true 0 ( 0.1)]
] -100.0 MRshow
1.000 UL
LTb
LCb setrgbcolor
1224 1589 M
63 0 V
stroke
1140 1589 M
[ [(Times-Roman) 300.0 0.0 true true 0 ( 0.2)]
] -100.0 MRshow
1.000 UL
LTb
LCb setrgbcolor
1224 2058 M
63 0 V
stroke
1140 2058 M
[ [(Times-Roman) 300.0 0.0 true true 0 ( 0.3)]
] -100.0 MRshow
1.000 UL
LTb
LCb setrgbcolor
1224 2527 M
63 0 V
stroke
1140 2527 M
[ [(Times-Roman) 300.0 0.0 true true 0 ( 0.4)]
] -100.0 MRshow
1.000 UL
LTb
LCb setrgbcolor
1224 2996 M
63 0 V
stroke
1140 2996 M
[ [(Times-Roman) 300.0 0.0 true true 0 ( 0.5)]
] -100.0 MRshow
1.000 UL
LTb
LCb setrgbcolor
1224 3464 M
63 0 V
stroke
1140 3464 M
[ [(Times-Roman) 300.0 0.0 true true 0 ( 0.6)]
] -100.0 MRshow
1.000 UL
LTb
LCb setrgbcolor
1224 3933 M
63 0 V
stroke
1140 3933 M
[ [(Times-Roman) 300.0 0.0 true true 0 ( 0.7)]
] -100.0 MRshow
1.000 UL
LTb
LCb setrgbcolor
1224 4402 M
63 0 V
stroke
1140 4402 M
[ [(Times-Roman) 300.0 0.0 true true 0 ( 0.8)]
] -100.0 MRshow
1.000 UL
LTb
LCb setrgbcolor
1224 4871 M
63 0 V
stroke
1140 4871 M
[ [(Times-Roman) 300.0 0.0 true true 0 ( 0.9)]
] -100.0 MRshow
1.000 UL
LTb
LCb setrgbcolor
1224 1120 M
stroke
1098 910 M
[ [(Times-Roman) 300.0 0.0 true true 0 ( 0.5)]
] -100.0 MCshow
1.000 UL
LTb
LCb setrgbcolor
1796 1120 M
stroke
1670 910 M
[ [(Times-Roman) 300.0 0.0 true true 0 ( 0.55)]
] -100.0 MCshow
1.000 UL
LTb
LCb setrgbcolor
2369 1120 M
stroke
2243 910 M
[ [(Times-Roman) 300.0 0.0 true true 0 ( 0.6)]
] -100.0 MCshow
1.000 UL
LTb
LCb setrgbcolor
2941 1120 M
stroke
2815 910 M
[ [(Times-Roman) 300.0 0.0 true true 0 ( 0.65)]
] -100.0 MCshow
1.000 UL
LTb
LCb setrgbcolor
3513 1120 M
stroke
3387 910 M
[ [(Times-Roman) 300.0 0.0 true true 0 ( 0.7)]
] -100.0 MCshow
1.000 UL
LTb
LCb setrgbcolor
4086 1120 M
stroke
3960 910 M
[ [(Times-Roman) 300.0 0.0 true true 0 ( 0.75)]
] -100.0 MCshow
1.000 UL
LTb
LCb setrgbcolor
4658 1120 M
stroke
4532 910 M
[ [(Times-Roman) 300.0 0.0 true true 0 ( 0.8)]
] -100.0 MCshow
1.000 UL
LTb
LCb setrgbcolor
5230 1120 M
stroke
5104 910 M
[ [(Times-Roman) 300.0 0.0 true true 0 ( 0.85)]
] -100.0 MCshow
1.000 UL
LTb
LCb setrgbcolor
5802 1120 M
stroke
5676 910 M
[ [(Times-Roman) 300.0 0.0 true true 0 ( 0.9)]
] -100.0 MCshow
1.000 UL
LTb
LCb setrgbcolor
6375 1120 M
stroke
6249 910 M
[ [(Times-Roman) 300.0 0.0 true true 0 ( 0.95)]
] -100.0 MCshow
1.000 UL
LTb
LCb setrgbcolor
6947 1120 M
stroke
6821 910 M
[ [(Times-Roman) 300.0 0.0 true true 0 ( 1)]
] -100.0 MCshow
1.000 UL
LTb
LCb setrgbcolor
1.000 UL
LTb
LCb setrgbcolor
1224 4871 N
0 -3751 V
5723 0 V
0 3751 V
-5723 0 V
Z stroke
LCb setrgbcolor
230 3275 M
currentpoint gsave translate -270 rotate 0 0 moveto
[ [(Times:Bold) 350.0 0.0 true true 0 (Risk Score)]
] -116.7 MCshow
grestore
LTb
LCb setrgbcolor
4085 350 M
[ [(Times:Bold) 350.0 0.0 true true 0 (Object Sensitivity)]
] -116.7 MCshow
LTb
1.000 UP
1.000 UL
LTb
LCb setrgbcolor
% Begin plot #1
1.000 UP
2.000 UL
LT0
0.00 0.00 1.00 C LCb setrgbcolor
2488 4518 M
[ [(Times:Bold) 300.0 0.0 true true 0 (Honest)]
] -100.0 MRshow
LT0
0.00 0.00 1.00 C 2572 4518 M
399 0 V
1241 1576 M
63 40 V
58 -21 V
47 7 V
10 15 V
19 -10 V
45 7 V
102 48 V
29 4 V
18 3 V
14 3 V
62 -22 V
3 105 V
68 -93 V
35 10 V
13 11 V
54 -4 V
221 98 V
4 -61 V
342 70 V
33 -4 V
96 44 V
173 -3 V
77 14 V
728 158 V
44 -12 V
5 1 V
96 68 V
45 -58 V
97 52 V
235 22 V
653 217 V
128 -87 V
66 7 V
38 7 V
33 5 V
153 29 V
103 88 V
114 -47 V
41 11 V
49 4 V
148 28 V
90 16 V
26 6 V
43 23 V
12 -13 V
169 36 V
622 1821 V
19 0 V
339 36 V
1241 1576 CircleF
1304 1616 CircleF
1362 1595 CircleF
1409 1602 CircleF
1419 1617 CircleF
1438 1607 CircleF
1483 1614 CircleF
1585 1662 CircleF
1614 1666 CircleF
1632 1669 CircleF
1646 1672 CircleF
1708 1650 CircleF
1711 1755 CircleF
1779 1662 CircleF
1814 1672 CircleF
1827 1683 CircleF
1881 1679 CircleF
2102 1777 CircleF
2106 1716 CircleF
2448 1786 CircleF
2481 1782 CircleF
2577 1826 CircleF
2750 1823 CircleF
2827 1837 CircleF
3555 1995 CircleF
3599 1983 CircleF
3604 1984 CircleF
3700 2052 CircleF
3745 1994 CircleF
3842 2046 CircleF
4077 2068 CircleF
4730 2285 CircleF
4858 2198 CircleF
4924 2205 CircleF
4962 2212 CircleF
4995 2217 CircleF
5148 2246 CircleF
5251 2334 CircleF
5365 2287 CircleF
5406 2298 CircleF
5455 2302 CircleF
5603 2330 CircleF
5693 2346 CircleF
5719 2352 CircleF
5762 2375 CircleF
5774 2362 CircleF
5943 2398 CircleF
6565 4219 CircleF
6584 4219 CircleF
6923 4255 CircleF
2771 4518 CircleF
% End plot #1
% Begin plot #2
1.000 UP
2.000 UL
LT0
0.00 0.00 0.00 C LCb setrgbcolor
2488 4280 M
[ [(Times:Bold) 300.0 0.0 true true 0 (Selfish)]
] -100.0 MRshow
LT0
0.00 0.00 0.00 C 2572 4280 M
399 0 V
1233 2207 M
19 3 V
56 -80 V
6 91 V
15 3 V
17 3 V
93 14 V
12 -530 V
36 542 V
23 4 V
259 44 V
95 -21 V
101 61 V
28 -86 V
90 93 V
140 41 V
72 14 V
53 -83 V
2 93 V
15 -1 V
154 -217 V
79 265 V
287 11 V
243 1771 V
38 -1842 V
11 -175 V
16 2026 V
163 16 V
92 11 V
67 7 V
234 25 V
1 -2203 V
317 2212 V
91 -109 V
39 144 V
44 -45 V
13 53 V
149 15 V
45 3 V
128 13 V
46 4 V
141 14 V
19 -187 V
445 235 V
249 -211 V
39 105 V
124 146 V
128 11 V
298 30 V
815 76 V
1233 2207 Star
1252 2210 Star
1308 2130 Star
1314 2221 Star
1329 2224 Star
1346 2227 Star
1439 2241 Star
1451 1711 Star
1487 2253 Star
1510 2257 Star
1769 2301 Star
1864 2280 Star
1965 2341 Star
1993 2255 Star
2083 2348 Star
2223 2389 Star
2295 2403 Star
2348 2320 Star
2350 2413 Star
2365 2412 Star
2519 2195 Star
2598 2460 Star
2885 2471 Star
3128 4242 Star
3166 2400 Star
3177 2225 Star
3193 4251 Star
3356 4267 Star
3448 4278 Star
3515 4285 Star
3749 4310 Star
3750 2107 Star
4067 4319 Star
4158 4210 Star
4197 4354 Star
4241 4309 Star
4254 4362 Star
4403 4377 Star
4448 4380 Star
4576 4393 Star
4622 4397 Star
4763 4411 Star
4782 4224 Star
5227 4459 Star
5476 4248 Star
5515 4353 Star
5639 4499 Star
5767 4510 Star
6065 4540 Star
6880 4616 Star
2771 4280 Star
% End plot #2
% Begin plot #3
1.000 UP
2.000 UL
LT0
1.00 0.00 0.00 C LCb setrgbcolor
2488 4042 M
[ [(Times:Bold) 300.0 0.0 true true 0 (Malicious)]
] -100.0 MRshow
LT0
1.00 0.00 0.00 C 2572 4042 M
399 0 V
1242 2208 M
26 5 V
21 4 V
113 21 V
183 33 V
29 5 V
69 13 V
194 36 V
18 3 V
38 7 V
11 2 V
11 2 V
78 15 V
10 2 V
70 13 V
50 9 V
534 101 V
543 1777 V
35 4 V
35 4 V
6 0 V
78 9 V
205 21 V
170 18 V
206 21 V
90 10 V
56 5 V
129 14 V
84 8 V
76 8 V
74 7 V
1 0 V
139 14 V
24 3 V
41 4 V
132 13 V
18 2 V
40 4 V
137 13 V
61 6 V
24 3 V
120 12 V
81 8 V
168 16 V
99 10 V
10 1 V
504 48 V
65 6 V
188 18 V
88 8 V
1242 2208 BoxF
1268 2213 BoxF
1289 2217 BoxF
1402 2238 BoxF
1585 2271 BoxF
1614 2276 BoxF
1683 2289 BoxF
1877 2325 BoxF
1895 2328 BoxF
1933 2335 BoxF
1944 2337 BoxF
1955 2339 BoxF
2033 2354 BoxF
2043 2356 BoxF
2113 2369 BoxF
2163 2378 BoxF
2697 2479 BoxF
3240 4256 BoxF
3275 4260 BoxF
3310 4264 BoxF
3316 4264 BoxF
3394 4273 BoxF
3599 4294 BoxF
3769 4312 BoxF
3975 4333 BoxF
4065 4343 BoxF
4121 4348 BoxF
4250 4362 BoxF
4334 4370 BoxF
4410 4378 BoxF
4484 4385 BoxF
4485 4385 BoxF
4624 4399 BoxF
4648 4402 BoxF
4689 4406 BoxF
4821 4419 BoxF
4839 4421 BoxF
4879 4425 BoxF
5016 4438 BoxF
5077 4444 BoxF
5101 4447 BoxF
5221 4459 BoxF
5302 4467 BoxF
5470 4483 BoxF
5569 4493 BoxF
5579 4494 BoxF
6083 4542 BoxF
6148 4548 BoxF
6336 4566 BoxF
6424 4574 BoxF
2771 4042 BoxF
% End plot #3
1.000 UL
LTb
LCb setrgbcolor
1224 4871 N
0 -3751 V
5723 0 V
0 3751 V
-5723 0 V
Z stroke
1.000 UP
1.000 UL
LTb
LCb setrgbcolor
stroke
grestore
end
showpage
%%Trailer
%%DocumentFonts: Times:Bold Times-Roman Helvetica
