D3,D3_U92,5,D4,O40,A2 L Unclassified 0.1 0.5570367689792083 0.3569823413475383
D2,D2_U94,5,D1,O532,A2 M Confidential 0.1 0.7482096996085909 0.7873153198932317
D2,D2_U99,5,D5,O20,A2 L Secret 0.1 0.7716951552712583 0.7931738320519117
D1,D1_U97,5,D5,O173,A2 M Unclassified 0.1 0.5155829903069045 0.3383403271844502
D3,D3_U98,5,D1,O360,A2 L Secret 0.1 0.799166376947264 0.7999452714227244
D2,D2_U94,5,D5,O917,A2 L Confidential 0.1 0.722378016937579 0.7807950860310882
D3,D3_U94,5,D5,O678,A2 M Confidential 0.1 0.6791888393650469 0.7697074281860201
D4,D4_U92,5,D5,O173,A2 M Unclassified 0.1 0.5619177731236035 0.35919432506934273
D4,D4_U98,5,D5,O883,A2 M Confidential 0.1 0.707531062107518 0.7770102798582821
D3,D3_U96,5,D2,O124,A2 M Top_Secret 0.1 0.9245399665702836 0.8298114748092874
D2,D2_U93,5,D5,O198,A2 L Secret 0.1 0.8026985949723728 0.8008097148198239
D3,D3_U99,5,D4,O75,A2 M Unclassified 0.1 0.5015698223557826 0.33209756967836185
D2,D2_U93,5,D1,O360,A2 L Secret 0.1 0.7531106638607882 0.7885432736297773
D2,D2_U96,5,D5,O913,A2 L Secret 0.1 0.7847805813053774 0.796410057976693
D2,D2_U95,5,D4,O312,A2 M Unclassified 0.1 0.5777114392356006 0.36637591888235366
D4,D4_U98,5,D5,O61,A2 L Secret 0.1 0.8491960516801852 0.8120610374161834
D3,D3_U94,5,D2,O469,A2 L Secret 0.1 0.7643376611782924 0.7913454796164632
D3,D3_U96,5,D5,O20,A2 L Secret 0.1 0.7970857870568193 0.7994354300544404
D4,D4_U96,5,D1,O408,A2 H Confidential 0.1 0.6827543152906763 0.7706318480615529
D2,D2_U99,5,D1,O822,A2 L Secret 0.1 0.8158517098961728 0.8040164476203351
D3,D3_U95,5,D4,O134,A2 M Unclassified 0.1 0.5401037317464649 0.34933616276904134
D3,D3_U100,5,D2,O290,A2 L Confidential 0.1 0.682248240906258 0.7705007396006738
D5,D5_U100,5,D2,O269,A2 L Secret 0.1 0.8312705881109125 0.8077513147736634
D2,D2_U98,5,D4,O161,A2 M Confidential 0.1 0.7403419793120308 0.7853380056284709
D3,D3_U94,5,D1,O177,A2 L Secret 0.1 0.8805215459804504 0.8195111652400981
D5,D5_U94,5,D1,O234,A2 L Secret 0.1 0.8193532772658552 0.8048669039239953
D4,D4_U96,5,D2,O262,A2 M Unclassified 0.1 0.5585894102373742 0.3576855863040741
D4,D4_U92,5,D1,O331,A2 M Unclassified 0.1 0.5340955777585645 0.3466335046033731
D5,D5_U91,5,D3,O153,A2 L Unclassified 0.1 0.5638284829453535 0.36006118850701746
D1,D1_U96,5,D2,O257,A2 L Unclassified 0.1 0.5706437185447633 0.36315757484871486
D2,D2_U94,5,D4,O72,A2 H Unclassified 0.1 0.5819998315975161 0.3683322561442276
D3,D3_U98,5,D4,O636,A2 L Secret 0.1 0.8143006707484333 0.803639301591471
D2,D2_U94,5,D4,O40,A2 L Unclassified 0.1 0.5628892180993201 0.35963498893817614
D5,D5_U94,5,D1,O827,A2 H Secret 0.1 0.8796078649410584 0.8192953016091917
D2,D2_U98,5,D5,O881,A2 L Secret 0.1 0.838692658178342 0.8095399385376965
D5,D5_U92,5,D2,O498,A2 H Top_Secret 0.1 0.9302155473525789 0.8311256608576032
D3,D3_U92,5,D5,O130,A2 H Unclassified 0.1 0.5056394909547687 0.3339074677672129
D5,D5_U92,5,D4,O213,A2 L Top_Secret 0.1 0.9542958701355773 0.8366671302147265
D5,D5_U94,5,D2,O799,A2 L Secret 0.1 0.8709931859914163 0.8172558142380394
D3,D3_U100,5,D1,O419,A2 H Confidential 0.1 0.6896102234951103 0.7724047183640295
D2,D2_U97,5,D1,O58,A2 L Confidential 0.1 0.6761678167281411 0.7689228632082564
D3,D3_U94,5,D5,O992,A2 H Secret 0.1 0.7783846697970923 0.7948307206027747
D1,D1_U99,5,D4,O127,A2 M Secret 0.1 0.7848640224491972 0.7964306309994625
D3,D3_U97,5,D5,O590,A2 L Secret 0.1 0.8365887196999942 0.809033518618574
D5,D5_U100,5,D4,O921,A2 M Secret 0.1 0.8562456816920407 0.813746576805406
D4,D4_U93,5,D3,O531,A2 M Unclassified 0.1 0.5715286857938745 0.36356014847403156
D4,D4_U91,5,D3,O499,A2 M Confidential 0.1 0.6286609001449188 0.3897916580247026
D5,D5_U100,5,D2,O304,A2 L Top_Secret 0.1 0.9465772923763771 0.8348969027854976
D1,D1_U99,5,D5,O486,A2 H Unclassified 0.1 0.503817698965945 0.33309694945312984
D1,D1_U91,5,D5,O63,A2 L Unclassified 0.1 0.5315786180879287 0.34550291561127605
