D1_U1 11
D1_U2 0
D1_U3 0
D1_U4 16
D1_U5 6
D1_U6 10
D1_U7 17
D1_U8 31
D1_U9 7
D1_U10 0
D1_U11 0
D1_U12 0
D1_U13 0
D1_U14 0
D1_U15 0
D1_U16 0
D1_U17 0
D1_U18 0
D1_U19 0
D1_U20 0
D1_U21 10
D1_U22 3
D1_U23 0
D1_U24 11
D1_U25 0
D1_U26 0
D1_U27 15
D1_U28 0
D1_U29 0
D1_U30 23
D1_U31 16
D1_U32 0
D1_U33 9
D1_U34 0
D1_U35 0
D1_U36 10
D1_U37 0
D1_U38 0
D1_U39 6
D1_U40 0
D1_U41 0
D1_U42 0
D1_U43 0
D1_U44 12
D1_U45 11
D1_U46 0
D1_U47 10
D1_U48 8
D1_U49 27
D1_U50 36
D1_U51 34
D1_U52 0
D1_U53 0
D1_U54 13
D1_U55 0
D1_U56 20
D1_U57 7
D1_U58 0
D1_U59 0
D1_U60 17
D1_U61 239
D1_U62 57
D1_U63 0
D1_U64 0
D1_U65 63
D1_U66 0
D1_U67 0
D1_U68 0
D1_U69 138
D1_U70 66
D1_U71 0
D1_U72 121
D1_U73 71
D1_U74 57
D1_U75 0
D1_U76 0
D1_U77 0
D1_U78 0
D1_U79 0
D1_U80 0
D1_U81 0
D1_U82 106
D1_U83 0
D1_U84 54
D1_U85 0
D1_U86 66
D1_U87 0
D1_U88 0
D1_U89 0
D1_U90 0
D1_U91 179
D1_U92 188
D1_U93 181
D1_U94 180
D1_U95 182
D1_U96 0
D1_U97 0
D1_U98 0
D1_U99 176
D1_U100 0
