D5,D5_U6,5,D3,O633,A1 L Unclassified 0.95 0.03076840450551516
D3,D3_U45,5,D4,O242,A1 H Unclassified 0.95 0.026311449509597525
D2,D2_U13,5,D5,O48,A1 M Confidential 0.95 0.03584126592088437
D4,D4_U29,5,D2,O415,A3 H Unclassified 0.95 0.0315743961365529
D3,D3_U25,5,D2,O842,A2 L Confidential 0.95 0.037125559527906596
D2,D2_U33,5,D4,O467,A2 M Confidential 0.95 0.04125847925806367
D5,D5_U58,5,D2,O155,A2 L Unclassified 0.95 0.027620027058897652
D4,D4_U23,5,D1,O7,A2 M Secret 0.95 0.048201771153608845
D3,D3_U51,5,D5,O406,A2 L Secret 0.95 0.05492857525502298
D5,D5_U42,5,D1,O462,A1 M Confidential 0.95 0.0414094983419655
D3,D3_U8,5,D1,O116,A1 M Confidential 0.95 0.03645576400765045
D4,D4_U17,5,D2,O342,A3 L Confidential 0.95 0.03966449936439179
D3,D3_U1,5,D2,O384,A3 M Confidential 0.95 0.039103462135361054
D4,D4_U32,5,D2,O449,A2 H Unclassified 0.95 0.031736308865758574
D4,D4_U1,5,D1,O114,A2 L Secret 0.95 0.05568625230558402
D5,D5_U35,5,D1,O711,A1 M Confidential 0.95 0.042092934708035226
D2,D2_U8,5,D1,O168,A3 L Top_Secret 0.95 0.05912465698461136
D5,D5_U42,5,D1,O859,A1 L Top_Secret 0.95 0.05881165494537104
D4,D4_U5,5,D5,O651,A1 M Confidential 0.95 0.0348052769792238
D3,D3_U10,5,D5,O346,A3 L Unclassified 0.95 0.026975043236730462
D1,D1_U40,5,D5,O581,A2 M Confidential 0.95 0.03346167476496476
D5,D5_U40,5,D1,O17,A3 L Unclassified 0.95 0.026308076257163478
D4,D4_U7,5,D3,O838,A3 H Unclassified 0.95 0.029372594448413485
D4,D4_U53,5,D5,O885,A3 L Unclassified 0.95 0.0286647345242336
D4,D4_U27,5,D5,O601,A1 M Confidential 0.95 0.042009529381792955
D4,D4_U35,5,D1,O217,A2 M Unclassified 0.95 0.03209281657806245
D5,D5_U35,5,D3,O363,A1 M Confidential 0.95 0.034862981977585784
D2,D2_U11,5,D3,O491,A1 L Unclassified 0.95 0.026330675658679272
D5,D5_U28,5,D3,O545,A3 L Confidential 0.95 0.03944513858746081
D4,D4_U29,5,D5,O691,A3 L Confidential 0.95 0.042624356587252804
D2,D2_U27,5,D4,O610,A1 L Confidential 0.95 0.03642838632866234
D1,D1_U36,5,D3,O216,A2 M Confidential 0.95 0.039388478702607095
D4,D4_U41,5,D2,O411,A2 M Confidential 0.95 0.039891929193520935
D3,D3_U27,5,D4,O164,A3 M Confidential 0.95 0.04270111989711074
D5,D5_U33,5,D3,O665,A2 L Secret 0.95 0.04999197157782904
D4,D4_U9,5,D2,O560,A3 L Unclassified 0.95 0.03212855862044531
D4,D4_U45,5,D1,O717,A1 M Secret 0.95 0.04820306341180509
D5,D5_U56,5,D3,O645,A3 L Unclassified 0.95 0.029565926269807332
D3,D3_U42,5,D2,O806,A3 M Secret 0.95 0.04443486963515269
D5,D5_U24,5,D1,O291,A1 L Unclassified 0.95 0.031623753150339745
D4,D4_U11,5,D2,O674,A1 L Secret 0.95 0.05554621655825909
D5,D5_U24,5,D4,O429,A2 L Unclassified 0.95 0.03167679743859121
D2,D2_U38,5,D4,O390,A3 M Unclassified 0.95 0.02823257682066538
D3,D3_U45,5,D2,O960,A1 H Confidential 0.95 0.03711532632110396
D4,D4_U43,5,D1,O822,A2 L Secret 0.95 0.05196696817549328
D1,D1_U59,5,D2,O751,A1 L Confidential 0.95 0.03493513764945312
D5,D5_U25,5,D3,O577,A2 L Confidential 0.95 0.04195929870402063
D5,D5_U38,5,D2,O660,A2 L Confidential 0.95 0.04092523306244875
D5,D5_U59,5,D4,O467,A2 M Confidential 0.95 0.03381097070327042
D1,D1_U3,5,D4,O483,A1 L Secret 0.95 0.054179810383684614
D4,D4_U89,5,D1,O711,A1 M Confidential 0.7 0.03401636900817729
D2,D2_U82,5,D4,O77,A1 L Unclassified 0.7 0.02645024272998051
D4,D4_U86,5,D2,O870,A3 L Unclassified 0.7 0.02804819603115708
D5,D5_U65,5,D1,O576,A3 M Confidential 0.7 0.039313947533291725
D4,D4_U72,5,D2,O987,A1 L Unclassified 0.7 0.029774840224326082
D3,D3_U64,5,D2,O492,A1 L Secret 0.7 0.04858739015386274
D3,D3_U73,5,D2,O771,A3 L Confidential 0.7 0.033997356535084684
D5,D5_U69,5,D3,O485,A1 M Secret 0.7 0.048004009478973986
D1,D1_U69,5,D5,O693,A1 M Unclassified 0.7 0.028458783216443878
D2,D2_U70,5,D1,O562,A3 H Confidential 0.7 0.0340772662746146
D3,D3_U69,5,D2,O310,A3 L Unclassified 0.7 0.028511386535287862
D5,D5_U72,5,D2,O102,A3 H Confidential 0.7 0.033154493604782787
D2,D2_U72,5,D3,O600,A3 H Secret 0.7 0.051866739266994706
D1,D1_U90,5,D5,O533,A2 M Secret 0.7 0.04779353363370309
D1,D1_U65,5,D2,O461,A3 L Unclassified 0.7 0.02769707313008526
D1,D1_U70,5,D4,O354,A1 L Unclassified 0.7 0.02684983689469974
D5,D5_U69,5,D3,O181,A1 H Unclassified 0.7 0.030715613800645105
D3,D3_U78,5,D1,O723,A1 H Unclassified 0.7 0.027515301194885187
D3,D3_U61,5,D1,O280,A1 M Unclassified 0.7 0.029611031979495488
D1,D1_U71,5,D2,O981,A1 M Unclassified 0.7 0.026852955963851684
D5,D5_U78,5,D1,O241,A1 L Unclassified 0.7 0.0267198819250721
D5,D5_U70,5,D3,O963,A1 M Unclassified 0.7 0.026438626610946956
D1,D1_U61,5,D2,O316,A2 H Confidential 0.7 0.03805619705987973
D5,D5_U86,5,D1,O599,A1 L Unclassified 0.7 0.031062846596970894
D1,D1_U70,5,D5,O637,A3 M Unclassified 0.7 0.03037070356571688
D3,D3_U77,5,D2,O867,A1 L Unclassified 0.7 0.030680831574066272
D4,D4_U65,5,D3,O519,A3 L Secret 0.7 0.04489408747225143
D2,D2_U82,5,D4,O930,A1 L Secret 0.7 0.046876827002497054
D2,D2_U84,5,D3,O466,A1 H Top_Secret 0.7 0.058296551950797665
D5,D5_U74,5,D3,O786,A1 M Confidential 0.7 0.035970864869725325
D3,D3_U88,5,D1,O296,A3 L Unclassified 0.7 0.030239732584528122
D4,D4_U69,5,D2,O647,A3 M Unclassified 0.7 0.029325086042607522
D4,D4_U65,5,D1,O177,A2 L Secret 0.7 0.052932424218684895
D3,D3_U75,5,D2,O688,A3 H Confidential 0.7 0.03907949965200913
D4,D4_U63,5,D5,O823,A1 M Confidential 0.7 0.03983999344231522
D3,D3_U69,5,D5,O933,A2 H Unclassified 0.7 0.027025746119358054
D2,D2_U88,5,D3,O633,A1 L Unclassified 0.7 0.026784710809612915
D1,D1_U61,5,D3,O838,A3 H Unclassified 0.7 0.0292089521058585
D5,D5_U78,5,D2,O964,A2 L Secret 0.7 0.05337272470402433
D3,D3_U74,5,D4,O213,A2 L Top_Secret 0.7 0.06520369260324639
D3,D3_U69,5,D2,O73,A3 L Unclassified 0.7 0.029214161975338555
D5,D5_U83,5,D2,O609,A2 L Confidential 0.7 0.03364660157091337
D3,D3_U82,5,D1,O167,A3 L Unclassified 0.7 0.030968983216620914
D2,D2_U88,5,D3,O704,A2 H Confidential 0.7 0.04085695745203236
D5,D5_U82,5,D3,O838,A3 H Unclassified 0.7 0.02914121039604202
D5,D5_U77,5,D2,O260,A3 M Unclassified 0.7 0.031684119741916934
D2,D2_U77,5,D5,O43,A1 L Unclassified 0.7 0.03125616500944843
D1,D1_U70,5,D4,O754,A3 M Confidential 0.7 0.039961635868666454
D5,D5_U89,5,D4,O127,A2 M Secret 0.7 0.0536780051175189
D5,D5_U83,5,D1,O506,A1 M Secret 0.7 0.046289730719989354
D5,D5_U92,5,D1,O17,A3 L Unclassified 0.1 0.02862099280722535
D3,D3_U94,5,D5,O691,A3 L Confidential 0.1 0.03607028746004528
D4,D4_U91,5,D3,O633,A1 L Unclassified 0.1 0.03000551260364637
D2,D2_U99,5,D5,O953,A1 L Top_Secret 0.1 0.05694267241402247
D3,D3_U92,5,D5,O624,A3 L Secret 0.1 0.05492831019782686
D3,D3_U98,5,D1,O598,A1 M Confidential 0.1 0.03614712560541043
D4,D4_U100,5,D1,O145,A2 H Unclassified 0.1 0.03075154699753911
D5,D5_U100,5,D2,O124,A2 M Top_Secret 0.1 0.06467658090683442
D2,D2_U94,5,D3,O786,A1 M Confidential 0.1 0.042729320040576065
D2,D2_U95,5,D5,O6,A1 L Confidential 0.1 0.04076252600662284
D1,D1_U92,5,D3,O404,A2 M Unclassified 0.1 0.028868649000891703
D5,D5_U93,5,D2,O315,A2 L Unclassified 0.1 0.029872832974550907
D2,D2_U96,5,D1,O818,A2 M Unclassified 0.1 0.03165233890602075
D2,D2_U94,5,D1,O743,A3 M Confidential 0.1 0.0340262902774128
D1,D1_U91,5,D4,O649,A3 L Top_Secret 0.1 0.056116554534707215
D4,D4_U99,5,D3,O108,A3 M Unclassified 0.1 0.031942597734912016
D4,D4_U96,5,D1,O472,A2 L Confidential 0.1 0.041636572200140595
D4,D4_U92,5,D5,O770,A2 M Unclassified 0.1 0.028719576561317687
D2,D2_U100,5,D1,O280,A1 M Unclassified 0.1 0.02709956812848656
D3,D3_U92,5,D2,O411,A2 M Confidential 0.1 0.03996219325924564
D2,D2_U95,5,D5,O76,A1 M Unclassified 0.1 0.028525755813236825
D4,D4_U95,5,D2,O415,A3 H Unclassified 0.1 0.028671664742021274
D1,D1_U100,5,D5,O990,A3 L Confidential 0.1 0.03330258523347522
D5,D5_U92,5,D2,O650,A1 L Top_Secret 0.1 0.059418484453565366
D5,D5_U92,5,D3,O600,A3 H Secret 0.1 0.04710366873106801
D3,D3_U94,5,D1,O632,A3 L Unclassified 0.1 0.031121648396479948
D1,D1_U91,5,D4,O666,A2 L Secret 0.1 0.055257575821281484
D5,D5_U96,5,D3,O577,A2 L Confidential 0.1 0.03536728750277817
D5,D5_U100,5,D1,O46,A1 H Top_Secret 0.1 0.057819420957442705
D1,D1_U91,5,D3,O90,A3 M Unclassified 0.1 0.03143488375339459
D3,D3_U92,5,D1,O730,A2 H Top_Secret 0.1 0.0637508562143263
D1,D1_U99,5,D3,O923,A3 H Secret 0.1 0.05364752987007668
D3,D3_U92,5,D4,O555,A1 H Top_Secret 0.1 0.06179460291700541
D3,D3_U92,5,D5,O45,A2 L Unclassified 0.1 0.026295488227981237
D5,D5_U99,5,D1,O797,A2 L Confidential 0.1 0.035515368620494286
D1,D1_U98,5,D2,O260,A3 M Unclassified 0.1 0.031623918958709335
D5,D5_U100,5,D1,O261,A3 M Secret 0.1 0.049853467247183036
D1,D1_U94,5,D2,O450,A1 L Confidential 0.1 0.03718172826497572
D5,D5_U100,5,D3,O175,A2 M Secret 0.1 0.052620569179049226
D1,D1_U97,5,D3,O185,A2 M Secret 0.1 0.04579147242188669
D4,D4_U93,5,D2,O674,A1 L Secret 0.1 0.05324819498678233
D2,D2_U98,5,D4,O385,A2 M Confidential 0.1 0.03805035686267214
D3,D3_U98,5,D5,O885,A3 L Unclassified 0.1 0.02746028181217511
D1,D1_U99,5,D5,O452,A3 M Secret 0.1 0.05466296693582403
D3,D3_U98,5,D4,O40,A2 L Unclassified 0.1 0.029081609354583104
D2,D2_U95,5,D1,O837,A1 M Secret 0.1 0.047210203614621214
D4,D4_U96,5,D2,O235,A2 H Unclassified 0.1 0.029930513164692838
D1,D1_U97,5,D5,O591,A1 M Confidential 0.1 0.03671582189792131
D5,D5_U97,5,D3,O725,A1 L Unclassified 0.1 0.0323957772157014
D2,D2_U97,5,D4,O354,A1 L Unclassified 0.1 0.02906270043356241
