D4_U1 21
D4_U2 44
D4_U3 20
D4_U4 17
D4_U5 0
D4_U6 0
D4_U7 22
D4_U8 0
D4_U9 0
D4_U10 14
D4_U11 0
D4_U12 22
D4_U13 0
D4_U14 23
D4_U15 18
D4_U16 52
D4_U17 16
D4_U18 31
D4_U19 21
D4_U20 28
D4_U21 0
D4_U22 55
D4_U23 18
D4_U24 50
D4_U25 11
D4_U26 66
D4_U27 32
D4_U28 0
D4_U29 34
D4_U30 36
D4_U31 9
D4_U32 7
D4_U33 0
D4_U34 0
D4_U35 51
D4_U36 12
D4_U37 6
D4_U38 0
D4_U39 0
D4_U40 32
D4_U41 16
D4_U42 0
D4_U43 40
D4_U44 6
D4_U45 9
D4_U46 26
D4_U47 0
D4_U48 23
D4_U49 43
D4_U50 12
D4_U51 0
D4_U52 31
D4_U53 8
D4_U54 40
D4_U55 28
D4_U56 8
D4_U57 32
D4_U58 21
D4_U59 0
D4_U60 30
D4_U61 65
D4_U62 132
D4_U63 118
D4_U64 0
D4_U65 182
D4_U66 0
D4_U67 245
D4_U68 252
D4_U69 0
D4_U70 54
D4_U71 275
D4_U72 63
D4_U73 116
D4_U74 63
D4_U75 0
D4_U76 112
D4_U77 56
D4_U78 0
D4_U79 64
D4_U80 68
D4_U81 377
D4_U82 50
D4_U83 65
D4_U84 56
D4_U85 122
D4_U86 0
D4_U87 219
D4_U88 77
D4_U89 200
D4_U90 150
D4_U91 0
D4_U92 175
D4_U93 537
D4_U94 0
D4_U95 0
D4_U96 347
D4_U97 0
D4_U98 1256
D4_U99 0
D4_U100 1086
