D4,D4_U2,5,D2,O989,A1 M Unclassified 0.95
D1,D1_U27,5,D5,O823,A1 M Confidential 0.95
D1,D1_U9,5,D3,O873,A1 H Top_Secret 0.95
D2,D2_U39,5,D3,O239,A1 M Unclassified 0.95
D4,D4_U28,5,D3,O733,A1 M Unclassified 0.95
D3,D3_U21,5,D4,O355,A1 M Secret 0.95
D2,D2_U42,5,D3,O363,A1 M Confidential 0.95
D1,D1_U46,5,D2,O509,A1 L Unclassified 0.95
D3,D3_U5,5,D2,O271,A1 L Secret 0.95
D3,D3_U16,5,D4,O851,A1 M Top_Secret 0.95
D5,D5_U32,5,D4,O930,A1 L Secret 0.95
D1,D1_U47,5,D4,O4,A1 L Confidential 0.95
D4,D4_U20,5,D5,O631,A1 M Confidential 0.95
D3,D3_U2,5,D5,O999,A1 M Unclassified 0.95
D4,D4_U33,5,D5,O440,A1 L Unclassified 0.95
D2,D2_U28,5,D4,O567,A1 L Confidential 0.95
D4,D4_U20,5,D3,O694,A1 M Secret 0.95
D5,D5_U48,5,D1,O668,A1 L Confidential 0.95
D1,D1_U10,5,D2,O987,A1 L Unclassified 0.95
D3,D3_U21,5,D5,O630,A1 H Top_Secret 0.95
D5,D5_U44,5,D2,O775,A1 M Unclassified 0.95
D1,D1_U27,5,D5,O48,A1 M Confidential 0.95
D4,D4_U58,5,D3,O633,A1 L Unclassified 0.95
D4,D4_U2,5,D5,O909,A1 L Confidential 0.95
D3,D3_U36,5,D5,O43,A1 L Unclassified 0.95
D2,D2_U58,5,D3,O214,A1 M Confidential 0.95
D4,D4_U40,5,D5,O68,A1 L Confidential 0.95
D4,D4_U25,5,D5,O440,A1 L Unclassified 0.95
D4,D4_U25,5,D3,O18,A1 H Unclassified 0.95
D3,D3_U43,5,D1,O391,A1 M Confidential 0.95
D4,D4_U27,5,D3,O516,A1 M Top_Secret 0.95
D5,D5_U54,5,D3,O568,A1 L Top_Secret 0.95
D3,D3_U52,5,D1,O246,A1 L Confidential 0.95
D4,D4_U45,5,D2,O865,A1 H Secret 0.95
D1,D1_U46,5,D3,O282,A1 H Unclassified 0.95
D2,D2_U34,5,D1,O135,A1 M Unclassified 0.95
D1,D1_U56,5,D5,O440,A1 L Unclassified 0.95
D3,D3_U34,5,D2,O176,A1 H Secret 0.95
D1,D1_U36,5,D3,O656,A1 L Unclassified 0.95
D5,D5_U37,5,D1,O116,A1 M Confidential 0.95
D1,D1_U60,5,D5,O437,A1 L Top_Secret 0.95
D4,D4_U18,5,D1,O238,A1 M Unclassified 0.95
D4,D4_U11,5,D1,O212,A1 M Unclassified 0.95
D4,D4_U53,5,D5,O835,A1 H Unclassified 0.95
D3,D3_U1,5,D4,O766,A1 M Secret 0.95
D1,D1_U9,5,D2,O882,A1 M Unclassified 0.95
D1,D1_U36,5,D4,O685,A1 L Unclassified 0.95
D4,D4_U3,5,D1,O598,A1 M Confidential 0.95
D1,D1_U29,5,D4,O77,A1 L Unclassified 0.95
D2,D2_U17,5,D1,O241,A1 L Unclassified 0.95
