D5,D5_U6,5,D3,O633,A1 L Unclassified 0.95 0.16316714140171845 0.0021087188841492116
D3,D3_U45,5,D4,O242,A1 H Unclassified 0.95 0.18376361876033004 0.0023547605555068064
D5,D5_U58,5,D2,O155,A2 L Unclassified 0.95 0.21843058793421238 0.027762195667896186
D4,D4_U23,5,D1,O7,A2 M Secret 0.95 0.36300067910533146 0.04431437456187856
D5,D5_U38,5,D2,O660,A2 L Confidential 0.95 0.25708064756486304 0.032163882900606365
D2,D2_U33,5,D4,O467,A2 M Confidential 0.95 0.23768268657563774 0.03015010825990847
D3,D3_U51,5,D5,O406,A2 L Secret 0.95 0.3322109204704147 0.041232672962194766
D4,D4_U32,5,D2,O449,A2 H Unclassified 0.95 0.20310290285211385 0.025847610109298393
D3,D3_U8,5,D1,O116,A1 M Confidential 0.95 0.19818964377485404 0.0025848799607851693
D4,D4_U17,5,D2,O342,A3 L Confidential 0.95 0.3057727520952729 0.037242405962142976
D3,D3_U1,5,D2,O384,A3 M Confidential 0.95 0.27042171841565454 0.033305192208572594
D4,D4_U1,5,D1,O114,A2 L Secret 0.95 0.3345860542184989 0.041529484862076055
D2,D2_U8,5,D1,O168,A3 L Top_Secret 0.95 0.7724229660078324 0.04947168329908297
D4,D4_U5,5,D5,O651,A1 M Confidential 0.95 0.20170938178447526 0.002628109233810886
D3,D3_U10,5,D5,O346,A3 L Unclassified 0.95 0.23110011309705067 0.028562177042616613
D1,D1_U40,5,D5,O581,A2 M Confidential 0.95 0.2847494632523876 0.035817902314445774
D4,D4_U7,5,D3,O838,A3 H Unclassified 0.95 0.2324184070669403 0.02881525889991204
D4,D4_U53,5,D5,O885,A3 L Unclassified 0.95 0.22377208924939043 0.02779310287005667
D4,D4_U35,5,D1,O217,A2 M Unclassified 0.95 0.2161876817695623 0.02748052264408691
D2,D2_U11,5,D3,O491,A1 L Unclassified 0.95 0.16674865466312538 0.0021582299546511995
D5,D5_U28,5,D3,O545,A3 L Confidential 0.95 0.2664872758837676 0.03287350708119242
D2,D2_U27,5,D4,O610,A1 L Confidential 0.95 0.1875408423520161 0.0024305814715818654
D1,D1_U36,5,D3,O216,A2 M Confidential 0.95 0.27222323331341 0.03431288756771302
D4,D4_U41,5,D2,O411,A2 M Confidential 0.95 0.2916526816985677 0.036623649463450196
D5,D5_U33,5,D3,O665,A2 L Secret 0.95 0.32163945354305606 0.04003843729609518
D5,D5_U56,5,D3,O645,A3 L Unclassified 0.95 0.22931244378271567 0.028440213514927905
D2,D2_U38,5,D4,O390,A3 M Unclassified 0.95 0.2366498847939892 0.028990098816818733
D4,D4_U43,5,D1,O822,A2 L Secret 0.95 0.30865249745137 0.03846099170289063
D5,D5_U25,5,D3,O577,A2 L Confidential 0.95 0.257588962979482 0.03259683639095393
D5,D5_U59,5,D4,O467,A2 M Confidential 0.95 0.29431652095055455 0.03690338563999806
D4,D4_U9,5,D2,O560,A3 L Unclassified 0.95 0.2163022239735897 0.025287422621992635
D4,D4_U29,5,D2,O415,A3 H Unclassified 0.95 0.23090207402074664 0.025964068749252073
D3,D3_U25,5,D2,O842,A2 L Confidential 0.95 0.2573354866792793 0.031714469680878044
D5,D5_U35,5,D1,O711,A1 M Confidential 0.95 0.21409298058375548 0.0027893405656905746
D5,D5_U40,5,D1,O17,A3 L Unclassified 0.95 0.24072375980174326 0.02984098456167522
D3,D3_U42,5,D2,O806,A3 M Secret 0.95 0.3451213195206654 0.041349946567001916
D5,D5_U35,5,D3,O363,A1 M Confidential 0.95 0.20496122615132448 0.0026706899737563897
D3,D3_U27,5,D4,O164,A3 M Confidential 0.95 0.28846395164457916 0.03540385091285819
D5,D5_U24,5,D1,O291,A1 L Unclassified 0.95 0.1851459885103923 0.0021283950699195224
D3,D3_U45,5,D2,O960,A1 H Confidential 0.95 0.21149567836128771 0.0027206797681456063
D1,D1_U71,5,D2,O981,A1 M Unclassified 0.7 0.1990943079772211 0.0023137580900900925
D4,D4_U69,5,D2,O647,A3 M Unclassified 0.7 0.25523274264776963 0.029964476131380147
D3,D3_U74,5,D4,O213,A2 L Top_Secret 0.7 0.8293008429743464 0.048293077459092386
D3,D3_U92,5,D1,O730,A2 H Top_Secret 0.1 0.8440929260269273 0.04934707957952685
D5,D5_U100,5,D3,O175,A2 M Secret 0.1 0.819857598857045 0.04409943211789663
D1,D1_U99,5,D5,O452,A3 M Secret 0.1 0.8168221268160389 0.04244621349285099
D2,D2_U13,5,D5,O48,A1 M Confidential 0.95 0.22107586208235347 0.0028818280676717847
D5,D5_U42,5,D1,O462,A1 M Confidential 0.95 0.21631251373449797 0.002733731788366795
D4,D4_U29,5,D5,O691,A3 L Confidential 0.95 0.27661232327406815 0.03135231217820048
D4,D4_U27,5,D5,O601,A1 M Confidential 0.95 0.21807082431670965 0.002830743797966678
D5,D5_U24,5,D4,O429,A2 L Unclassified 0.95 0.24092016551679016 0.027814771964211196
D1,D1_U59,5,D2,O751,A1 L Confidential 0.95 0.22050354482033535 0.002874910807978318
D5,D5_U65,5,D1,O576,A3 M Confidential 0.7 0.35047970511099713 0.03436391544105224
D3,D3_U75,5,D2,O688,A3 H Confidential 0.7 0.31529935140962473 0.03251202941868186
D2,D2_U70,5,D1,O562,A3 H Confidential 0.7 0.3922052979794908 0.03671462200442029
D5,D5_U89,5,D4,O127,A2 M Secret 0.7 0.7935549377885822 0.04083775964289732
D1,D1_U90,5,D5,O533,A2 M Secret 0.7 0.7897614668710925 0.04007536072292887
D4,D4_U65,5,D1,O177,A2 L Secret 0.7 0.7893851734121209 0.03782482450550717
D5,D5_U100,5,D2,O124,A2 M Top_Secret 0.1 0.8370213398312031 0.04779216231752029
D1,D1_U91,5,D4,O649,A3 L Top_Secret 0.1 0.8301191088762281 0.045215283263414764
D1,D1_U91,5,D4,O666,A2 L Secret 0.1 0.8053078557328697 0.04105854929805238
D5,D5_U96,5,D3,O577,A2 L Confidential 0.1 0.7859151160570925 0.03713176156803738
D1,D1_U99,5,D3,O923,A3 H Secret 0.1 0.8111129744687301 0.04127782289657163
D5,D5_U99,5,D1,O797,A2 L Confidential 0.1 0.7852565566587127 0.0370009265324619
D2,D2_U98,5,D4,O385,A2 M Confidential 0.1 0.7867495950106003 0.03729778265401867
