D1,D1_U99,9,D3,O786,A1 M Confidential 0.1 M M
D4,D4_U94,1,D5,O526,A1 L Unclassified 0.1 L L
D2,D2_U99,9,D3,O641,A1 M Unclassified 0.1 M M
D5,D5_U98,6,D3,O322,A3 L Confidential 0.1 L L
D3,D3_U94,6,D5,O624,A3 L Secret 0.1 L L
D3,D3_U98,6,D2,O708,A3 L Confidential 0.1 L L
D3,D3_U98,6,D4,O454,A3 H Unclassified 0.1 H L
D3,D3_U94,6,D4,O895,A2 L Secret 0.1 L L
D3,D3_U96,10,D4,O367,A3 L Confidential 0.1 L H
D5,D5_U100,10,D4,O962,A1 H Unclassified 0.1 H H
D1,D1_U94,5,D3,O18,A1 H Unclassified 0.1 H L
D2,D2_U99,9,D1,O362,A1 H Unclassified 0.1 H M
D5,D5_U93,8,D3,O943,A3 L Unclassified 0.1 L M
D5,D5_U91,1,D3,O181,A1 H Unclassified 0.1 H L
D4,D4_U97,2,D5,O973,A1 L Unclassified 0.1 L L
D2,D2_U95,8,D5,O468,A3 M Unclassified 0.1 M M
D3,D3_U92,10,D1,O195,A3 L Secret 0.1 L H
D3,D3_U97,10,D5,O843,A2 H Top_Secret 0.1 H H
D3,D3_U92,10,D2,O230,A2 L Secret 0.1 L H
D5,D5_U94,6,D3,O181,A1 H Unclassified 0.1 H L
D3,D3_U97,10,D4,O5,A1 M Unclassified 0.1 M H
D2,D2_U96,6,D3,O965,A1 M Confidential 0.1 M L
D2,D2_U98,8,D1,O668,A1 L Confidential 0.1 L L
D4,D4_U93,7,D5,O346,A3 L Unclassified 0.1 L L
D2,D2_U99,9,D5,O294,A3 M Top_Secret 0.1 M H
D3,D3_U100,5,D1,O81,A1 M Confidential 0.1 M L
D3,D3_U94,6,D1,O822,A2 L Secret 0.1 L L
D1,D1_U91,9,D2,O882,A1 M Unclassified 0.1 M M
D4,D4_U93,7,D5,O691,A3 L Confidential 0.1 L M
D1,D1_U91,9,D5,O912,A3 H Secret 0.1 H H
D3,D3_U94,6,D4,O53,A2 H Secret 0.1 H L
D1,D1_U99,9,D3,O788,A2 L Confidential 0.1 L H
D1,D1_U94,5,D3,O824,A1 L Confidential 0.1 L L
D4,D4_U97,2,D1,O82,A1 H Unclassified 0.1 H L
D4,D4_U100,10,D3,O961,A2 L Secret 0.1 L H
D1,D1_U95,5,D2,O764,A2 M Confidential 0.1 M L
D4,D4_U99,5,D5,O326,A3 H Confidential 0.1 H L
D4,D4_U100,10,D1,O480,A1 L Top_Secret 0.1 L H
D5,D5_U92,10,D1,O740,A2 H Top_Secret 0.1 H H
D2,D2_U96,6,D1,O333,A1 M Unclassified 0.1 M L
D2,D2_U97,5,D5,O6,A1 L Confidential 0.1 L L
D1,D1_U92,5,D5,O927,A3 L Unclassified 0.1 L L
D1,D1_U96,5,D5,O662,A2 L Unclassified 0.1 L L
D5,D5_U94,6,D1,O505,A3 M Secret 0.1 M L
D2,D2_U99,9,D4,O113,A2 L Unclassified 0.1 L H
D5,D5_U98,6,D1,O914,A3 M Confidential 0.1 M L
D5,D5_U99,5,D4,O390,A3 M Unclassified 0.1 M L
D3,D3_U93,1,D2,O742,A1 M Unclassified 0.1 M L
D3,D3_U95,5,D5,O690,A3 L Confidential 0.1 L L
D1,D1_U91,9,D5,O807,A1 M Secret 0.1 M M
D4,D4_U91,3,D3,O641,A1 M Unclassified 0.1 M L
D4,D4_U92,4,D1,O82,A1 H Unclassified 0.1 H L
D1,D1_U96,5,D3,O108,A3 M Unclassified 0.1 M L
D3,D3_U96,10,D2,O411,A2 M Confidential 0.1 M H
D3,D3_U93,1,D5,O521,A1 L Unclassified 0.1 L L
D2,D2_U96,6,D5,O874,A2 M Confidential 0.1 M L
D3,D3_U99,7,D4,O19,A2 M Unclassified 0.1 M L
D5,D5_U93,8,D4,O370,A3 M Secret 0.1 M H
D3,D3_U97,10,D1,O620,A1 L Unclassified 0.1 L H
D1,D1_U99,9,D5,O869,A3 L Top_Secret 0.1 L H
D3,D3_U91,5,D5,O236,A1 L Confidential 0.1 L L
D4,D4_U94,1,D5,O43,A1 L Unclassified 0.1 L L
D3,D3_U94,6,D5,O881,A2 L Secret 0.1 L L
D2,D2_U91,1,D1,O891,A3 L Unclassified 0.1 L L
D3,D3_U99,7,D4,O534,A3 L Confidential 0.1 L L
D3,D3_U97,10,D2,O609,A2 L Confidential 0.1 L H
D5,D5_U98,6,D1,O376,A2 M Confidential 0.1 M L
D2,D2_U92,1,D3,O641,A1 M Unclassified 0.1 M L
D2,D2_U96,6,D5,O111,A1 H Unclassified 0.1 H L
D1,D1_U99,9,D3,O531,A2 M Unclassified 0.1 M H
D5,D5_U98,6,D1,O978,A2 L Unclassified 0.1 L L
D2,D2_U92,1,D3,O778,A2 L Unclassified 0.1 L L
D3,D3_U96,10,D1,O532,A2 M Confidential 0.1 M H
D5,D5_U94,6,D4,O541,A2 L Confidential 0.1 L L
D3,D3_U96,10,D2,O215,A1 L Confidential 0.1 L H
D5,D5_U100,10,D4,O753,A2 L Secret 0.1 L H
D3,D3_U93,1,D2,O882,A1 M Unclassified 0.1 M L
D4,D4_U98,7,D5,O43,A1 L Unclassified 0.1 L L
D4,D4_U100,10,D1,O470,A3 L Unclassified 0.1 L H
D2,D2_U99,9,D3,O643,A2 H Top_Secret 0.1 H H
D4,D4_U98,7,D2,O819,A3 H Unclassified 0.1 H L
D4,D4_U98,7,D1,O212,A1 M Unclassified 0.1 M L
D5,D5_U100,10,D4,O790,A3 L Secret 0.1 L H
D3,D3_U92,10,D2,O842,A2 L Confidential 0.1 L H
D3,D3_U92,10,D1,O683,A3 L Secret 0.1 L H
D3,D3_U96,10,D5,O275,A1 M Secret 0.1 M H
D1,D1_U98,2,D4,O134,A2 M Unclassified 0.1 M L
D5,D5_U100,10,D3,O680,A1 M Confidential 0.1 M H
D1,D1_U91,9,D4,O952,A3 H Top_Secret 0.1 H H
D3,D3_U99,7,D1,O116,A1 M Confidential 0.1 M L
D1,D1_U96,5,D2,O867,A1 L Unclassified 0.1 L L
D2,D2_U99,9,D5,O953,A1 L Top_Secret 0.1 L H
D2,D2_U96,6,D5,O582,A2 L Secret 0.1 L L
D2,D2_U95,8,D5,O601,A1 M Confidential 0.1 M L
D3,D3_U95,5,D4,O944,A2 L Confidential 0.1 L L
D5,D5_U96,5,D1,O711,A1 M Confidential 0.1 M L
D5,D5_U99,5,D1,O598,A1 M Confidential 0.1 M L
D2,D2_U99,9,D5,O973,A1 L Unclassified 0.1 L M
D4,D4_U91,3,D3,O282,A1 H Unclassified 0.1 H L
D1,D1_U92,5,D3,O239,A1 M Unclassified 0.1 M L
D5,D5_U92,10,D1,O199,A1 L Secret 0.1 L H
D3,D3_U97,10,D5,O474,A1 L Secret 0.1 L H
D3,D3_U99,7,D2,O605,A2 L Secret 0.1 L M
D1,D1_U95,5,D2,O862,A3 L Unclassified 0.1 L L
D3,D3_U97,10,D4,O985,A2 L Secret 0.1 L H
D5,D5_U94,6,D1,O871,A1 L Secret 0.1 L L
D3,D3_U95,5,D4,O628,A1 M Confidential 0.1 M L
D3,D3_U91,5,D5,O920,A1 H Confidential 0.1 H L
D4,D4_U97,2,D3,O872,A3 L Unclassified 0.1 L L
D5,D5_U91,1,D4,O685,A1 L Unclassified 0.1 L L
D3,D3_U97,10,D1,O475,A3 L Secret 0.1 L H
D3,D3_U97,10,D2,O271,A1 L Secret 0.1 L H
D2,D2_U97,5,D3,O904,A3 M Unclassified 0.1 M L
D1,D1_U91,9,D3,O785,A3 L Secret 0.1 L H
D2,D2_U94,5,D5,O414,A3 H Unclassified 0.1 H L
D4,D4_U98,7,D5,O691,A3 L Confidential 0.1 L L
D2,D2_U94,5,D4,O910,A2 M Unclassified 0.1 M L
D5,D5_U93,8,D1,O472,A2 L Confidential 0.1 L M
D1,D1_U99,9,D5,O372,A3 H Confidential 0.1 H H
D2,D2_U96,6,D5,O174,A1 M Secret 0.1 M L
D3,D3_U66,9,D5,O925,A2 L Secret 0.7 L H
D3,D3_U72,1,D4,O476,A3 L Unclassified 0.7 L L
D3,D3_U65,5,D5,O79,A3 L Confidential 0.7 L L
D5,D5_U73,10,D3,O123,A1 H Secret 0.7 H H
D4,D4_U87,7,D1,O871,A1 L Secret 0.7 L L
D1,D1_U79,6,D3,O423,A2 L Confidential 0.7 L L
D3,D3_U90,8,D4,O458,A3 H Unclassified 0.7 H M
D1,D1_U82,5,D2,O700,A2 L Unclassified 0.7 L L
D3,D3_U78,6,D1,O144,A3 M Unclassified 0.7 M L
D1,D1_U61,9,D2,O347,A2 H Unclassified 0.7 H H
D3,D3_U62,1,D2,O415,A3 H Unclassified 0.7 H L
D1,D1_U89,10,D5,O452,A3 M Secret 0.7 M H
D5,D5_U85,3,D4,O392,A3 L Confidential 0.7 L L
D1,D1_U69,7,D2,O64,A2 M Confidential 0.7 M L
D4,D4_U61,6,D1,O96,A1 L Secret 0.7 L L
D1,D1_U64,8,D5,O648,A3 M Confidential 0.7 M M
D3,D3_U89,3,D5,O947,A3 L Confidential 0.7 L L
D1,D1_U76,6,D2,O682,A3 L Unclassified 0.7 L L
D5,D5_U73,10,D1,O210,A1 M Top_Secret 0.7 M H
D4,D4_U86,8,D3,O479,A3 L Unclassified 0.7 L M
D3,D3_U83,3,D2,O867,A1 L Unclassified 0.7 L L
D2,D2_U88,7,D4,O407,A2 L Confidential 0.7 L L
D4,D4_U81,8,D1,O530,A3 L Unclassified 0.7 L M
D2,D2_U90,10,D1,O670,A1 L Unclassified 0.7 L H
D4,D4_U89,10,D2,O129,A2 M Unclassified 0.7 M H
D5,D5_U78,9,D3,O495,A3 M Top_Secret 0.7 M H
D5,D5_U81,1,D4,O910,A2 M Unclassified 0.7 M L
D1,D1_U84,9,D3,O864,A3 L Secret 0.7 L H
D5,D5_U78,9,D3,O864,A3 L Secret 0.7 L H
D3,D3_U88,6,D4,O804,A3 L Confidential 0.7 L L
D1,D1_U64,8,D5,O474,A1 L Secret 0.7 L M
D2,D2_U76,7,D1,O145,A2 H Unclassified 0.7 H L
D1,D1_U77,8,D4,O161,A2 M Confidential 0.7 M M
D2,D2_U78,3,D4,O541,A2 L Confidential 0.7 L L
D2,D2_U84,9,D1,O193,A3 L Top_Secret 0.7 L H
D4,D4_U87,7,D3,O545,A3 L Confidential 0.7 L L
D4,D4_U64,2,D3,O633,A1 L Unclassified 0.7 L L
D1,D1_U75,6,D2,O73,A3 L Unclassified 0.7 L L
D1,D1_U72,8,D2,O411,A2 M Confidential 0.7 M M
D4,D4_U75,2,D5,O173,A2 M Unclassified 0.7 M L
D1,D1_U61,9,D3,O813,A2 L Confidential 0.7 L H
D1,D1_U77,8,D2,O509,A1 L Unclassified 0.7 L L
D3,D3_U69,7,D1,O154,A3 H Secret 0.7 H M
D1,D1_U84,9,D2,O384,A3 M Confidential 0.7 M H
D3,D3_U62,1,D5,O130,A2 H Unclassified 0.7 H L
D2,D2_U74,3,D4,O9,A2 M Confidential 0.7 M L
D2,D2_U62,4,D5,O772,A2 L Confidential 0.7 L L
D5,D5_U61,9,D1,O714,A1 L Secret 0.7 L H
D3,D3_U74,10,D4,O695,A3 H Secret 0.7 H H
D5,D5_U86,4,D3,O644,A3 M Unclassified 0.7 M L
D3,D3_U61,6,D1,O7,A2 M Secret 0.7 M L
D5,D5_U84,2,D4,O40,A2 L Unclassified 0.7 L L
D2,D2_U83,6,D1,O333,A1 M Unclassified 0.7 M L
D2,D2_U87,6,D1,O234,A2 L Secret 0.7 L L
D1,D1_U74,3,D4,O5,A1 M Unclassified 0.7 M L
D2,D2_U63,6,D3,O578,A2 H Unclassified 0.7 H L
D5,D5_U89,8,D1,O562,A3 H Confidential 0.7 H M
D3,D3_U65,5,D2,O700,A2 L Unclassified 0.7 L L
D2,D2_U88,7,D4,O878,A1 L Secret 0.7 L L
D4,D4_U79,3,D2,O966,A3 H Unclassified 0.7 H L
D3,D3_U57,2,D2,O987,A1 L Unclassified 0.95 L L
D4,D4_U24,10,D2,O316,A2 H Confidential 0.95 H H
D3,D3_U7,2,D5,O684,A3 L Unclassified 0.95 L L
D4,D4_U36,6,D1,O646,A3 L Confidential 0.95 L L
D4,D4_U19,9,D5,O382,A3 L Top_Secret 0.95 L H
D3,D3_U12,4,D1,O668,A1 L Confidential 0.95 L L
D3,D3_U13,9,D5,O630,A1 H Top_Secret 0.95 H H
D3,D3_U44,4,D4,O307,A3 M Unclassified 0.95 M L
D4,D4_U27,10,D3,O107,A2 L Secret 0.95 L H
D2,D2_U1,5,D1,O422,A2 M Unclassified 0.95 M L
D2,D2_U38,6,D3,O626,A1 H Unclassified 0.95 H L
D5,D5_U48,5,D2,O775,A1 M Unclassified 0.95 M L
D5,D5_U4,9,D3,O281,A1 M Confidential 0.95 M M
D4,D4_U22,10,D5,O776,A1 M Secret 0.95 M H
D2,D2_U40,8,D3,O570,A3 H Secret 0.95 H H
D3,D3_U46,9,D2,O498,A2 H Top_Secret 0.95 H H
D5,D5_U47,7,D1,O863,A3 L Secret 0.95 L M
D1,D1_U55,3,D5,O579,A3 H Confidential 0.95 H L
D2,D2_U1,5,D5,O879,A3 H Confidential 0.95 H L
D5,D5_U38,10,D1,O550,A3 M Confidential 0.95 M H
