D1_U1 0
D1_U2 10
D1_U3 12
D1_U4 20
D1_U5 0
D1_U6 16
D1_U7 14
D1_U8 40
D1_U9 25
D1_U10 10
D1_U11 10
D1_U12 63
D1_U13 41
D1_U14 18
D1_U15 19
D1_U16 24
D1_U17 0
D1_U18 26
D1_U19 14
D1_U20 0
D1_U21 37
D1_U22 14
D1_U23 30
D1_U24 0
D1_U25 47
D1_U26 62
D1_U27 0
D1_U28 19
D1_U29 16
D1_U30 18
D1_U31 13
D1_U32 55
D1_U33 10
D1_U34 0
D1_U35 21
D1_U36 43
D1_U37 0
D1_U38 0
D1_U39 52
D1_U40 29
D1_U41 9
D1_U42 18
D1_U43 0
D1_U44 13
D1_U45 0
D1_U46 20
D1_U47 17
D1_U48 17
D1_U49 31
D1_U50 11
D1_U51 35
D1_U52 11
D1_U53 14
D1_U54 6
D1_U55 0
D1_U56 8
D1_U57 21
D1_U58 0
D1_U59 94
D1_U60 13
D1_U61 239
D1_U62 59
D1_U63 0
D1_U64 57
D1_U65 0
D1_U66 0
D1_U67 178
D1_U68 121
D1_U69 0
D1_U70 113
D1_U71 54
D1_U72 62
D1_U73 52
D1_U74 61
D1_U75 123
D1_U76 0
D1_U77 61
D1_U78 113
D1_U79 171
D1_U80 253
D1_U81 202
D1_U82 57
D1_U83 0
D1_U84 115
D1_U85 131
D1_U86 58
D1_U87 0
D1_U88 240
D1_U89 55
D1_U90 62
D1_U91 177
D1_U92 0
D1_U93 0
D1_U94 180
D1_U95 0
D1_U96 0
D1_U97 363
D1_U98 186
D1_U99 0
D1_U100 0
