D5_U1 29
D5_U2 43
D5_U3 32
D5_U4 10
D5_U5 10
D5_U6 7
D5_U7 22
D5_U8 11
D5_U9 20
D5_U10 38
D5_U11 0
D5_U12 22
D5_U13 14
D5_U14 9
D5_U15 0
D5_U16 0
D5_U17 11
D5_U18 17
D5_U19 15
D5_U20 53
D5_U21 19
D5_U22 0
D5_U23 10
D5_U24 0
D5_U25 27
D5_U26 0
D5_U27 27
D5_U28 0
D5_U29 29
D5_U30 12
D5_U31 8
D5_U32 35
D5_U33 39
D5_U34 39
D5_U35 23
D5_U36 0
D5_U37 10
D5_U38 18
D5_U39 19
D5_U40 7
D5_U41 37
D5_U42 33
D5_U43 33
D5_U44 21
D5_U45 0
D5_U46 0
D5_U47 28
D5_U48 43
D5_U49 0
D5_U50 7
D5_U51 8
D5_U52 9
D5_U53 26
D5_U54 11
D5_U55 0
D5_U56 0
D5_U57 0
D5_U58 46
D5_U59 5
D5_U60 63
D5_U61 362
D5_U62 125
D5_U63 0
D5_U64 59
D5_U65 126
D5_U66 234
D5_U67 0
D5_U68 70
D5_U69 140
D5_U70 60
D5_U71 63
D5_U72 129
D5_U73 259
D5_U74 70
D5_U75 53
D5_U76 60
D5_U77 0
D5_U78 256
D5_U79 62
D5_U80 66
D5_U81 67
D5_U82 59
D5_U83 123
D5_U84 61
D5_U85 0
D5_U86 61
D5_U87 237
D5_U88 106
D5_U89 63
D5_U90 122
D5_U91 188
D5_U92 724
D5_U93 183
D5_U94 726
D5_U95 186
D5_U96 361
D5_U97 540
D5_U98 719
D5_U99 178
D5_U100 362
