D3,D3_U52,6,D1,O13,A2 0.2834232332543505 0.9141921889197013 0.041489857626056975 99
D3,D3_U100,5,D5,O690,A3 0.0 0.8891642549851847 0.03655270741725134 99
D4,D4_U3,4,D2,O264,A2 0.4227438441238178 0.36587414660247647 0.032370188108662476 99
D3,D3_U34,10,D2,O169,A2 0.9147826271051838 0.9207426894628623 0.04317132159960173 99
D2,D2_U54,5,D5,O414,A3 0.7754399335543498 0.3229695579386444 0.029009255551171165 99
D3,D3_U33,4,D1,O855,A2 0.9987615625369963 0.25038394831773536 0.026545088673005215 99
D4,D4_U28,2,D1,O670,A1 0.7754399335543498 0.19341261008218366 0.0020378082960324246 99
D1,D1_U12,7,D5,O60,A2 0.9999838950396176 0.41731055846412785 0.03432012623187362 99
D4,D4_U27,10,D2,O264,A2 0.9827519898727102 0.8985172144011259 0.03745420770214648 99
D3,D3_U20,8,D4,O985,A2 0.026985659986229815 0.9579671938810094 0.044118257410494084 99
D2,D2_U10,2,D1,O959,A1 0.9999838950396176 0.22668321419774504 0.0023235413196019627 99
D1,D1_U44,5,D2,O381,A3 0.9987615625369963 0.2806177851915922 0.02695872519981603 99
D3,D3_U70,7,D1,O667,A2 2.4945550427646346E-5 0.9430727510627179 0.043643049289971675 99
D3,D3_U53,6,D4,O53,A2 0.4227438441238178 0.9047421834499565 0.041429828283613974 99
D1,D1_U94,5,D4,O161,A2 0.0 0.8888337834558964 0.03646102886379912 99
D2,D2_U28,5,D4,O809,A2 0.18301815831800838 0.8816880211477405 0.03508006778537006 99
D1,D1_U45,3,D3,O479,A3 0.2834232332543505 0.2835847816294587 0.02779291168708511 99
D1,D1_U21,9,D3,O488,A2 0.9147826271051838 0.9025197854329337 0.0400483634938554 99
D2,D2_U22,10,D3,O439,A3 0.9147826271051838 0.9177250527716446 0.04219833268316642 99
D2,D2_U61,5,D5,O652,A3 5.009255186055883E-4 0.8877207817414343 0.036153401004354976 99
