D3,D3_U1,6,D5,O967,A3 0.026985659986229815 0.9055876725422155 0.03634885027897047 249
D3,D3_U100,5,D5,O690,A3 0.0 0.44462212202319357 0.031108268414338277 249
D3,D3_U86,3,D1,O978,A2 2.55351295663786E-15 0.3011524886122867 0.028385499098568343 249
D1,D1_U20,10,D3,O898,A2 0.5958307296149541 0.9265649985677147 0.03809446410306515 249
D2,D2_U24,6,D3,O286,A3 0.7754399335543498 0.3496785790789836 0.028590195465065457 249
D2,D2_U94,5,D4,O928,A2 0.0 0.8848797899644864 0.035376034800426996 249
D2,D2_U29,5,D5,O121,A2 1.5130315412670292E-5 0.8800248854299526 0.0340731716762064 249
D1,D1_U90,9,D2,O85,A3 0.0 0.9708312411372522 0.04412622531101206 249
D2,D2_U52,9,D3,O188,A3 0.18301815831800838 0.9586604235610404 0.040519755640440434 249
D2,D2_U10,2,D1,O959,A1 0.5958307296149541 0.2352979702696333 0.0023145783874457346 249
D4,D4_U24,10,D5,O590,A2 0.4227438441238178 0.9426282727863731 0.03816426635840604 249
D3,D3_U43,3,D4,O504,A2 0.5958307296149541 0.26377956613185416 0.02829690989573988 249
D5,D5_U15,5,D4,O982,A2 8.257523592123395E-4 0.8762874207467134 0.03309146363732123 249
D5,D5_U15,5,D2,O760,A3 8.257523592123395E-4 0.8801216739246056 0.034098837369300326 249
D1,D1_U94,5,D4,O161,A2 0.0 0.43941494712132706 0.030664541221085195 249
D3,D3_U27,5,D5,O787,A3 2.4945550427646346E-5 0.447661529023811 0.03136700349677759 249
D4,D4_U69,7,D1,O472,A2 1.5543122344752192E-15 0.9220298149896259 0.036506891396651586 249
D5,D5_U30,5,D2,O737,A3 0.01001340746294943 0.4232070210885996 0.02927917745499138 249
D3,D3_U5,6,D2,O10,A2 3.750458532625345E-8 0.9042074308083449 0.03593814261638324 249
D2,D2_U54,5,D5,O414,A3 0.04410114887344496 0.42202996469407295 0.02917829814394636 249
D4,D4_U55,5,D2,O49,A2 0.016455633266528213 0.43045302424861587 0.02989937292028936 249
D4,D4_U28,2,D1,O670,A1 0.01001340746294943 0.2615757704562077 0.0023761855472667 249
D2,D2_U1,5,D3,O69,A2 0.01001340746294943 0.4209731300186288 0.02908767240054241 249
D1,D1_U21,9,D3,O488,A2 0.026985659986229815 0.9712582920462633 0.04429847218181306 249
D2,D2_U28,5,D4,O809,A2 6.780758317137536E-5 0.44826231108643283 0.03141812399832764 249
D2,D2_U61,5,D5,O652,A3 1.7027490528676026E-12 0.8720558091893059 0.032001483037978944 249
D2,D2_U60,7,D4,O385,A2 0.5958307296149541 0.4381671529610689 0.03063376021551636 249
