D3,D3_U52,6,D1,O13,A2 0.18301815831800838 0.9218109731058896 0.042119270881594506 149
D5,D5_U43,7,D3,O519,A3 0.2834232332543505 0.9308427853029534 0.042423394204612 149
D5,D5_U1,6,D1,O376,A2 0.2834232332543505 0.8996337388982799 0.03708422113525016 149
D3,D3_U100,5,D5,O690,A3 0.0 0.8826415682411627 0.03477143430177484 149
D3,D3_U86,3,D1,O978,A2 1.0194802935181713E-7 0.30193079689567737 0.028455249885531626 149
D1,D1_U12,7,D5,O60,A2 0.7754399335543498 0.4498276963154189 0.03446852976560265 149
D2,D2_U66,2,D3,O838,A3 3.750458532625345E-8 0.22844149533354852 0.026649470484535715 149
D1,D1_U44,5,D2,O381,A3 0.9147826271051838 0.3151350684799054 0.029465714906609142 149
D1,D1_U18,3,D2,O821,A3 0.01001340746294943 0.2931690374719243 0.027668354623409375 149
D4,D4_U61,6,D2,O712,A3 1.2419805444086052E-6 0.9183204313941268 0.04027819315574549 149
D2,D2_U10,2,D1,O959,A1 0.9827519898727102 0.2062530171525181 0.0021681969603273878 149
D3,D3_U53,6,D4,O53,A2 0.18301815831800838 0.9225528736152999 0.042361249554190204 149
D1,D1_U94,5,D4,O161,A2 0.0 0.8857543204559382 0.03561413328517462 149
D3,D3_U27,5,D5,O787,A3 0.07166494925874234 0.8826614851252369 0.03477904769685072 149
D1,D1_U30,6,D4,O53,A2 0.07166494925874234 0.9207448160415902 0.04105921939943877 149
D3,D3_U68,4,D2,O10,A2 3.750458532625345E-8 0.3783050601118482 0.030297500343901485 149
D4,D4_U3,4,D2,O264,A2 0.07166494925874234 0.42042029588197105 0.03394008763378672 149
D3,D3_U1,6,D5,O967,A3 0.2834232332543505 0.8973168415577086 0.036413252822066484 149
D1,D1_U45,3,D5,O346,A3 0.04410114887344496 0.3031264635723823 0.028562353398553078 149
D1,D1_U80,4,D3,O654,A2 5.075693754186261E-9 0.38490935958461936 0.03087111273388319 149
D1,D1_U45,3,D3,O479,A3 0.04410114887344496 0.30597146560375366 0.028816930958283082 149
D4,D4_U96,4,D3,O446,A3 0.0 0.39511718173735627 0.0317555029798851 149
