%!PS-Adobe-2.0 EPSF-2.0
%%Title: 13.eps
%%Creator: gnuplot 4.6 patchlevel 6
%%CreationDate: Thu Jul 12 20:07:53 2018
%%DocumentFonts: (atend)
%%BoundingBox: 50 50 410 302
%%EndComments
%%BeginProlog
/gnudict 256 dict def
gnudict begin
%
% The following true/false flags may be edited by hand if desired.
% The unit line width and grayscale image gamma correction may also be changed.
%
/Color true def
/Blacktext false def
/Solid false def
/Dashlength 1 def
/Landscape false def
/Level1 false def
/Rounded false def
/ClipToBoundingBox false def
/SuppressPDFMark false def
/TransparentPatterns false def
/gnulinewidth 5.000 def
/userlinewidth gnulinewidth def
/Gamma 1.0 def
/BackgroundColor {-1.000 -1.000 -1.000} def
%
/vshift -46 def
/dl1 {
  10.0 Dashlength mul mul
  Rounded { currentlinewidth 0.75 mul sub dup 0 le { pop 0.01 } if } if
} def
/dl2 {
  10.0 Dashlength mul mul
  Rounded { currentlinewidth 0.75 mul add } if
} def
/hpt_ 31.5 def
/vpt_ 31.5 def
/hpt hpt_ def
/vpt vpt_ def
/doclip {
  ClipToBoundingBox {
    newpath 50 50 moveto 410 50 lineto 410 302 lineto 50 302 lineto closepath
    clip
  } if
} def
%
% Gnuplot Prolog Version 4.6 (September 2012)
%
%/SuppressPDFMark true def
%
/M {moveto} bind def
/L {lineto} bind def
/R {rmoveto} bind def
/V {rlineto} bind def
/N {newpath moveto} bind def
/Z {closepath} bind def
/C {setrgbcolor} bind def
/f {rlineto fill} bind def
/g {setgray} bind def
/Gshow {show} def   % May be redefined later in the file to support UTF-8
/vpt2 vpt 2 mul def
/hpt2 hpt 2 mul def
/Lshow {currentpoint stroke M 0 vshift R 
	Blacktext {gsave 0 setgray show grestore} {show} ifelse} def
/Rshow {currentpoint stroke M dup stringwidth pop neg vshift R
	Blacktext {gsave 0 setgray show grestore} {show} ifelse} def
/Cshow {currentpoint stroke M dup stringwidth pop -2 div vshift R 
	Blacktext {gsave 0 setgray show grestore} {show} ifelse} def
/UP {dup vpt_ mul /vpt exch def hpt_ mul /hpt exch def
  /hpt2 hpt 2 mul def /vpt2 vpt 2 mul def} def
/DL {Color {setrgbcolor Solid {pop []} if 0 setdash}
 {pop pop pop 0 setgray Solid {pop []} if 0 setdash} ifelse} def
/BL {stroke userlinewidth 2 mul setlinewidth
	Rounded {1 setlinejoin 1 setlinecap} if} def
/AL {stroke userlinewidth 2 div setlinewidth
	Rounded {1 setlinejoin 1 setlinecap} if} def
/UL {dup gnulinewidth mul /userlinewidth exch def
	dup 1 lt {pop 1} if 10 mul /udl exch def} def
/PL {stroke userlinewidth setlinewidth
	Rounded {1 setlinejoin 1 setlinecap} if} def
3.8 setmiterlimit
% Default Line colors
/LCw {1 1 1} def
/LCb {0 0 0} def
/LCa {0 0 0} def
/LC0 {1 0 0} def
/LC1 {0 1 0} def
/LC2 {0 0 1} def
/LC3 {1 0 1} def
/LC4 {0 1 1} def
/LC5 {1 1 0} def
/LC6 {0 0 0} def
/LC7 {1 0.3 0} def
/LC8 {0.5 0.5 0.5} def
% Default Line Types
/LTw {PL [] 1 setgray} def
/LTb {BL [] LCb DL} def
/LTa {AL [1 udl mul 2 udl mul] 0 setdash LCa setrgbcolor} def
/LT0 {PL [] LC0 DL} def
/LT1 {PL [4 dl1 2 dl2] LC1 DL} def
/LT2 {PL [2 dl1 3 dl2] LC2 DL} def
/LT3 {PL [1 dl1 1.5 dl2] LC3 DL} def
/LT4 {PL [6 dl1 2 dl2 1 dl1 2 dl2] LC4 DL} def
/LT5 {PL [3 dl1 3 dl2 1 dl1 3 dl2] LC5 DL} def
/LT6 {PL [2 dl1 2 dl2 2 dl1 6 dl2] LC6 DL} def
/LT7 {PL [1 dl1 2 dl2 6 dl1 2 dl2 1 dl1 2 dl2] LC7 DL} def
/LT8 {PL [2 dl1 2 dl2 2 dl1 2 dl2 2 dl1 2 dl2 2 dl1 4 dl2] LC8 DL} def
/Pnt {stroke [] 0 setdash gsave 1 setlinecap M 0 0 V stroke grestore} def
/Dia {stroke [] 0 setdash 2 copy vpt add M
  hpt neg vpt neg V hpt vpt neg V
  hpt vpt V hpt neg vpt V closepath stroke
  Pnt} def
/Pls {stroke [] 0 setdash vpt sub M 0 vpt2 V
  currentpoint stroke M
  hpt neg vpt neg R hpt2 0 V stroke
 } def
/Box {stroke [] 0 setdash 2 copy exch hpt sub exch vpt add M
  0 vpt2 neg V hpt2 0 V 0 vpt2 V
  hpt2 neg 0 V closepath stroke
  Pnt} def
/Crs {stroke [] 0 setdash exch hpt sub exch vpt add M
  hpt2 vpt2 neg V currentpoint stroke M
  hpt2 neg 0 R hpt2 vpt2 V stroke} def
/TriU {stroke [] 0 setdash 2 copy vpt 1.12 mul add M
  hpt neg vpt -1.62 mul V
  hpt 2 mul 0 V
  hpt neg vpt 1.62 mul V closepath stroke
  Pnt} def
/Star {2 copy Pls Crs} def
/BoxF {stroke [] 0 setdash exch hpt sub exch vpt add M
  0 vpt2 neg V hpt2 0 V 0 vpt2 V
  hpt2 neg 0 V closepath fill} def
/TriUF {stroke [] 0 setdash vpt 1.12 mul add M
  hpt neg vpt -1.62 mul V
  hpt 2 mul 0 V
  hpt neg vpt 1.62 mul V closepath fill} def
/TriD {stroke [] 0 setdash 2 copy vpt 1.12 mul sub M
  hpt neg vpt 1.62 mul V
  hpt 2 mul 0 V
  hpt neg vpt -1.62 mul V closepath stroke
  Pnt} def
/TriDF {stroke [] 0 setdash vpt 1.12 mul sub M
  hpt neg vpt 1.62 mul V
  hpt 2 mul 0 V
  hpt neg vpt -1.62 mul V closepath fill} def
/DiaF {stroke [] 0 setdash vpt add M
  hpt neg vpt neg V hpt vpt neg V
  hpt vpt V hpt neg vpt V closepath fill} def
/Pent {stroke [] 0 setdash 2 copy gsave
  translate 0 hpt M 4 {72 rotate 0 hpt L} repeat
  closepath stroke grestore Pnt} def
/PentF {stroke [] 0 setdash gsave
  translate 0 hpt M 4 {72 rotate 0 hpt L} repeat
  closepath fill grestore} def
/Circle {stroke [] 0 setdash 2 copy
  hpt 0 360 arc stroke Pnt} def
/CircleF {stroke [] 0 setdash hpt 0 360 arc fill} def
/C0 {BL [] 0 setdash 2 copy moveto vpt 90 450 arc} bind def
/C1 {BL [] 0 setdash 2 copy moveto
	2 copy vpt 0 90 arc closepath fill
	vpt 0 360 arc closepath} bind def
/C2 {BL [] 0 setdash 2 copy moveto
	2 copy vpt 90 180 arc closepath fill
	vpt 0 360 arc closepath} bind def
/C3 {BL [] 0 setdash 2 copy moveto
	2 copy vpt 0 180 arc closepath fill
	vpt 0 360 arc closepath} bind def
/C4 {BL [] 0 setdash 2 copy moveto
	2 copy vpt 180 270 arc closepath fill
	vpt 0 360 arc closepath} bind def
/C5 {BL [] 0 setdash 2 copy moveto
	2 copy vpt 0 90 arc
	2 copy moveto
	2 copy vpt 180 270 arc closepath fill
	vpt 0 360 arc} bind def
/C6 {BL [] 0 setdash 2 copy moveto
	2 copy vpt 90 270 arc closepath fill
	vpt 0 360 arc closepath} bind def
/C7 {BL [] 0 setdash 2 copy moveto
	2 copy vpt 0 270 arc closepath fill
	vpt 0 360 arc closepath} bind def
/C8 {BL [] 0 setdash 2 copy moveto
	2 copy vpt 270 360 arc closepath fill
	vpt 0 360 arc closepath} bind def
/C9 {BL [] 0 setdash 2 copy moveto
	2 copy vpt 270 450 arc closepath fill
	vpt 0 360 arc closepath} bind def
/C10 {BL [] 0 setdash 2 copy 2 copy moveto vpt 270 360 arc closepath fill
	2 copy moveto
	2 copy vpt 90 180 arc closepath fill
	vpt 0 360 arc closepath} bind def
/C11 {BL [] 0 setdash 2 copy moveto
	2 copy vpt 0 180 arc closepath fill
	2 copy moveto
	2 copy vpt 270 360 arc closepath fill
	vpt 0 360 arc closepath} bind def
/C12 {BL [] 0 setdash 2 copy moveto
	2 copy vpt 180 360 arc closepath fill
	vpt 0 360 arc closepath} bind def
/C13 {BL [] 0 setdash 2 copy moveto
	2 copy vpt 0 90 arc closepath fill
	2 copy moveto
	2 copy vpt 180 360 arc closepath fill
	vpt 0 360 arc closepath} bind def
/C14 {BL [] 0 setdash 2 copy moveto
	2 copy vpt 90 360 arc closepath fill
	vpt 0 360 arc} bind def
/C15 {BL [] 0 setdash 2 copy vpt 0 360 arc closepath fill
	vpt 0 360 arc closepath} bind def
/Rec {newpath 4 2 roll moveto 1 index 0 rlineto 0 exch rlineto
	neg 0 rlineto closepath} bind def
/Square {dup Rec} bind def
/Bsquare {vpt sub exch vpt sub exch vpt2 Square} bind def
/S0 {BL [] 0 setdash 2 copy moveto 0 vpt rlineto BL Bsquare} bind def
/S1 {BL [] 0 setdash 2 copy vpt Square fill Bsquare} bind def
/S2 {BL [] 0 setdash 2 copy exch vpt sub exch vpt Square fill Bsquare} bind def
/S3 {BL [] 0 setdash 2 copy exch vpt sub exch vpt2 vpt Rec fill Bsquare} bind def
/S4 {BL [] 0 setdash 2 copy exch vpt sub exch vpt sub vpt Square fill Bsquare} bind def
/S5 {BL [] 0 setdash 2 copy 2 copy vpt Square fill
	exch vpt sub exch vpt sub vpt Square fill Bsquare} bind def
/S6 {BL [] 0 setdash 2 copy exch vpt sub exch vpt sub vpt vpt2 Rec fill Bsquare} bind def
/S7 {BL [] 0 setdash 2 copy exch vpt sub exch vpt sub vpt vpt2 Rec fill
	2 copy vpt Square fill Bsquare} bind def
/S8 {BL [] 0 setdash 2 copy vpt sub vpt Square fill Bsquare} bind def
/S9 {BL [] 0 setdash 2 copy vpt sub vpt vpt2 Rec fill Bsquare} bind def
/S10 {BL [] 0 setdash 2 copy vpt sub vpt Square fill 2 copy exch vpt sub exch vpt Square fill
	Bsquare} bind def
/S11 {BL [] 0 setdash 2 copy vpt sub vpt Square fill 2 copy exch vpt sub exch vpt2 vpt Rec fill
	Bsquare} bind def
/S12 {BL [] 0 setdash 2 copy exch vpt sub exch vpt sub vpt2 vpt Rec fill Bsquare} bind def
/S13 {BL [] 0 setdash 2 copy exch vpt sub exch vpt sub vpt2 vpt Rec fill
	2 copy vpt Square fill Bsquare} bind def
/S14 {BL [] 0 setdash 2 copy exch vpt sub exch vpt sub vpt2 vpt Rec fill
	2 copy exch vpt sub exch vpt Square fill Bsquare} bind def
/S15 {BL [] 0 setdash 2 copy Bsquare fill Bsquare} bind def
/D0 {gsave translate 45 rotate 0 0 S0 stroke grestore} bind def
/D1 {gsave translate 45 rotate 0 0 S1 stroke grestore} bind def
/D2 {gsave translate 45 rotate 0 0 S2 stroke grestore} bind def
/D3 {gsave translate 45 rotate 0 0 S3 stroke grestore} bind def
/D4 {gsave translate 45 rotate 0 0 S4 stroke grestore} bind def
/D5 {gsave translate 45 rotate 0 0 S5 stroke grestore} bind def
/D6 {gsave translate 45 rotate 0 0 S6 stroke grestore} bind def
/D7 {gsave translate 45 rotate 0 0 S7 stroke grestore} bind def
/D8 {gsave translate 45 rotate 0 0 S8 stroke grestore} bind def
/D9 {gsave translate 45 rotate 0 0 S9 stroke grestore} bind def
/D10 {gsave translate 45 rotate 0 0 S10 stroke grestore} bind def
/D11 {gsave translate 45 rotate 0 0 S11 stroke grestore} bind def
/D12 {gsave translate 45 rotate 0 0 S12 stroke grestore} bind def
/D13 {gsave translate 45 rotate 0 0 S13 stroke grestore} bind def
/D14 {gsave translate 45 rotate 0 0 S14 stroke grestore} bind def
/D15 {gsave translate 45 rotate 0 0 S15 stroke grestore} bind def
/DiaE {stroke [] 0 setdash vpt add M
  hpt neg vpt neg V hpt vpt neg V
  hpt vpt V hpt neg vpt V closepath stroke} def
/BoxE {stroke [] 0 setdash exch hpt sub exch vpt add M
  0 vpt2 neg V hpt2 0 V 0 vpt2 V
  hpt2 neg 0 V closepath stroke} def
/TriUE {stroke [] 0 setdash vpt 1.12 mul add M
  hpt neg vpt -1.62 mul V
  hpt 2 mul 0 V
  hpt neg vpt 1.62 mul V closepath stroke} def
/TriDE {stroke [] 0 setdash vpt 1.12 mul sub M
  hpt neg vpt 1.62 mul V
  hpt 2 mul 0 V
  hpt neg vpt -1.62 mul V closepath stroke} def
/PentE {stroke [] 0 setdash gsave
  translate 0 hpt M 4 {72 rotate 0 hpt L} repeat
  closepath stroke grestore} def
/CircE {stroke [] 0 setdash 
  hpt 0 360 arc stroke} def
/Opaque {gsave closepath 1 setgray fill grestore 0 setgray closepath} def
/DiaW {stroke [] 0 setdash vpt add M
  hpt neg vpt neg V hpt vpt neg V
  hpt vpt V hpt neg vpt V Opaque stroke} def
/BoxW {stroke [] 0 setdash exch hpt sub exch vpt add M
  0 vpt2 neg V hpt2 0 V 0 vpt2 V
  hpt2 neg 0 V Opaque stroke} def
/TriUW {stroke [] 0 setdash vpt 1.12 mul add M
  hpt neg vpt -1.62 mul V
  hpt 2 mul 0 V
  hpt neg vpt 1.62 mul V Opaque stroke} def
/TriDW {stroke [] 0 setdash vpt 1.12 mul sub M
  hpt neg vpt 1.62 mul V
  hpt 2 mul 0 V
  hpt neg vpt -1.62 mul V Opaque stroke} def
/PentW {stroke [] 0 setdash gsave
  translate 0 hpt M 4 {72 rotate 0 hpt L} repeat
  Opaque stroke grestore} def
/CircW {stroke [] 0 setdash 
  hpt 0 360 arc Opaque stroke} def
/BoxFill {gsave Rec 1 setgray fill grestore} def
/Density {
  /Fillden exch def
  currentrgbcolor
  /ColB exch def /ColG exch def /ColR exch def
  /ColR ColR Fillden mul Fillden sub 1 add def
  /ColG ColG Fillden mul Fillden sub 1 add def
  /ColB ColB Fillden mul Fillden sub 1 add def
  ColR ColG ColB setrgbcolor} def
/BoxColFill {gsave Rec PolyFill} def
/PolyFill {gsave Density fill grestore grestore} def
/h {rlineto rlineto rlineto gsave closepath fill grestore} bind def
%
% PostScript Level 1 Pattern Fill routine for rectangles
% Usage: x y w h s a XX PatternFill
%	x,y = lower left corner of box to be filled
%	w,h = width and height of box
%	  a = angle in degrees between lines and x-axis
%	 XX = 0/1 for no/yes cross-hatch
%
/PatternFill {gsave /PFa [ 9 2 roll ] def
  PFa 0 get PFa 2 get 2 div add PFa 1 get PFa 3 get 2 div add translate
  PFa 2 get -2 div PFa 3 get -2 div PFa 2 get PFa 3 get Rec
  TransparentPatterns {} {gsave 1 setgray fill grestore} ifelse
  clip
  currentlinewidth 0.5 mul setlinewidth
  /PFs PFa 2 get dup mul PFa 3 get dup mul add sqrt def
  0 0 M PFa 5 get rotate PFs -2 div dup translate
  0 1 PFs PFa 4 get div 1 add floor cvi
	{PFa 4 get mul 0 M 0 PFs V} for
  0 PFa 6 get ne {
	0 1 PFs PFa 4 get div 1 add floor cvi
	{PFa 4 get mul 0 2 1 roll M PFs 0 V} for
 } if
  stroke grestore} def
%
/languagelevel where
 {pop languagelevel} {1} ifelse
 2 lt
	{/InterpretLevel1 true def}
	{/InterpretLevel1 Level1 def}
 ifelse
%
% PostScript level 2 pattern fill definitions
%
/Level2PatternFill {
/Tile8x8 {/PaintType 2 /PatternType 1 /TilingType 1 /BBox [0 0 8 8] /XStep 8 /YStep 8}
	bind def
/KeepColor {currentrgbcolor [/Pattern /DeviceRGB] setcolorspace} bind def
<< Tile8x8
 /PaintProc {0.5 setlinewidth pop 0 0 M 8 8 L 0 8 M 8 0 L stroke} 
>> matrix makepattern
/Pat1 exch def
<< Tile8x8
 /PaintProc {0.5 setlinewidth pop 0 0 M 8 8 L 0 8 M 8 0 L stroke
	0 4 M 4 8 L 8 4 L 4 0 L 0 4 L stroke}
>> matrix makepattern
/Pat2 exch def
<< Tile8x8
 /PaintProc {0.5 setlinewidth pop 0 0 M 0 8 L
	8 8 L 8 0 L 0 0 L fill}
>> matrix makepattern
/Pat3 exch def
<< Tile8x8
 /PaintProc {0.5 setlinewidth pop -4 8 M 8 -4 L
	0 12 M 12 0 L stroke}
>> matrix makepattern
/Pat4 exch def
<< Tile8x8
 /PaintProc {0.5 setlinewidth pop -4 0 M 8 12 L
	0 -4 M 12 8 L stroke}
>> matrix makepattern
/Pat5 exch def
<< Tile8x8
 /PaintProc {0.5 setlinewidth pop -2 8 M 4 -4 L
	0 12 M 8 -4 L 4 12 M 10 0 L stroke}
>> matrix makepattern
/Pat6 exch def
<< Tile8x8
 /PaintProc {0.5 setlinewidth pop -2 0 M 4 12 L
	0 -4 M 8 12 L 4 -4 M 10 8 L stroke}
>> matrix makepattern
/Pat7 exch def
<< Tile8x8
 /PaintProc {0.5 setlinewidth pop 8 -2 M -4 4 L
	12 0 M -4 8 L 12 4 M 0 10 L stroke}
>> matrix makepattern
/Pat8 exch def
<< Tile8x8
 /PaintProc {0.5 setlinewidth pop 0 -2 M 12 4 L
	-4 0 M 12 8 L -4 4 M 8 10 L stroke}
>> matrix makepattern
/Pat9 exch def
/Pattern1 {PatternBgnd KeepColor Pat1 setpattern} bind def
/Pattern2 {PatternBgnd KeepColor Pat2 setpattern} bind def
/Pattern3 {PatternBgnd KeepColor Pat3 setpattern} bind def
/Pattern4 {PatternBgnd KeepColor Landscape {Pat5} {Pat4} ifelse setpattern} bind def
/Pattern5 {PatternBgnd KeepColor Landscape {Pat4} {Pat5} ifelse setpattern} bind def
/Pattern6 {PatternBgnd KeepColor Landscape {Pat9} {Pat6} ifelse setpattern} bind def
/Pattern7 {PatternBgnd KeepColor Landscape {Pat8} {Pat7} ifelse setpattern} bind def
} def
%
%
%End of PostScript Level 2 code
%
/PatternBgnd {
  TransparentPatterns {} {gsave 1 setgray fill grestore} ifelse
} def
%
% Substitute for Level 2 pattern fill codes with
% grayscale if Level 2 support is not selected.
%
/Level1PatternFill {
/Pattern1 {0.250 Density} bind def
/Pattern2 {0.500 Density} bind def
/Pattern3 {0.750 Density} bind def
/Pattern4 {0.125 Density} bind def
/Pattern5 {0.375 Density} bind def
/Pattern6 {0.625 Density} bind def
/Pattern7 {0.875 Density} bind def
} def
%
% Now test for support of Level 2 code
%
Level1 {Level1PatternFill} {Level2PatternFill} ifelse
%
/Symbol-Oblique /Symbol findfont [1 0 .167 1 0 0] makefont
dup length dict begin {1 index /FID eq {pop pop} {def} ifelse} forall
currentdict end definefont pop
/MFshow {
   { dup 5 get 3 ge
     { 5 get 3 eq {gsave} {grestore} ifelse }
     {dup dup 0 get findfont exch 1 get scalefont setfont
     [ currentpoint ] exch dup 2 get 0 exch R dup 5 get 2 ne {dup dup 6
     get exch 4 get {Gshow} {stringwidth pop 0 R} ifelse }if dup 5 get 0 eq
     {dup 3 get {2 get neg 0 exch R pop} {pop aload pop M} ifelse} {dup 5
     get 1 eq {dup 2 get exch dup 3 get exch 6 get stringwidth pop -2 div
     dup 0 R} {dup 6 get stringwidth pop -2 div 0 R 6 get
     show 2 index {aload pop M neg 3 -1 roll neg R pop pop} {pop pop pop
     pop aload pop M} ifelse }ifelse }ifelse }
     ifelse }
   forall} def
/Gswidth {dup type /stringtype eq {stringwidth} {pop (n) stringwidth} ifelse} def
/MFwidth {0 exch { dup 5 get 3 ge { 5 get 3 eq { 0 } { pop } ifelse }
 {dup 3 get{dup dup 0 get findfont exch 1 get scalefont setfont
     6 get Gswidth pop add} {pop} ifelse} ifelse} forall} def
/MLshow { currentpoint stroke M
  0 exch R
  Blacktext {gsave 0 setgray MFshow grestore} {MFshow} ifelse } bind def
/MRshow { currentpoint stroke M
  exch dup MFwidth neg 3 -1 roll R
  Blacktext {gsave 0 setgray MFshow grestore} {MFshow} ifelse } bind def
/MCshow { currentpoint stroke M
  exch dup MFwidth -2 div 3 -1 roll R
  Blacktext {gsave 0 setgray MFshow grestore} {MFshow} ifelse } bind def
/XYsave    { [( ) 1 2 true false 3 ()] } bind def
/XYrestore { [( ) 1 2 true false 4 ()] } bind def
Level1 SuppressPDFMark or 
{} {
/SDict 10 dict def
systemdict /pdfmark known not {
  userdict /pdfmark systemdict /cleartomark get put
} if
SDict begin [
  /Title (13.eps)
  /Subject (gnuplot plot)
  /Creator (gnuplot 4.6 patchlevel 6)
  /Author (rishabh)
%  /Producer (gnuplot)
%  /Keywords ()
  /CreationDate (Thu Jul 12 20:07:53 2018)
  /DOCINFO pdfmark
end
} ifelse
end
%%EndProlog
%%Page: 1 1
gnudict begin
gsave
doclip
50 50 translate
0.050 0.050 scale
0 setgray
newpath
(Helvetica) findfont 140 scalefont setfont
BackgroundColor 0 lt 3 1 roll 0 lt exch 0 lt or or not {BackgroundColor C 1.000 0 0 7200.00 5040.00 BoxColFill} if
1.000 UL
LTb
LCb setrgbcolor
1224 1120 M
63 0 V
stroke
1140 1120 M
[ [(Times-Roman) 300.0 0.0 true true 0 ( 0.2)]
] -100.0 MRshow
1.000 UL
LTb
LCb setrgbcolor
1224 1656 M
63 0 V
stroke
1140 1656 M
[ [(Times-Roman) 300.0 0.0 true true 0 ( 0.3)]
] -100.0 MRshow
1.000 UL
LTb
LCb setrgbcolor
1224 2192 M
63 0 V
stroke
1140 2192 M
[ [(Times-Roman) 300.0 0.0 true true 0 ( 0.4)]
] -100.0 MRshow
1.000 UL
LTb
LCb setrgbcolor
1224 2728 M
63 0 V
stroke
1140 2728 M
[ [(Times-Roman) 300.0 0.0 true true 0 ( 0.5)]
] -100.0 MRshow
1.000 UL
LTb
LCb setrgbcolor
1224 3263 M
63 0 V
stroke
1140 3263 M
[ [(Times-Roman) 300.0 0.0 true true 0 ( 0.6)]
] -100.0 MRshow
1.000 UL
LTb
LCb setrgbcolor
1224 3799 M
63 0 V
stroke
1140 3799 M
[ [(Times-Roman) 300.0 0.0 true true 0 ( 0.7)]
] -100.0 MRshow
1.000 UL
LTb
LCb setrgbcolor
1224 4335 M
63 0 V
stroke
1140 4335 M
[ [(Times-Roman) 300.0 0.0 true true 0 ( 0.8)]
] -100.0 MRshow
1.000 UL
LTb
LCb setrgbcolor
1224 4871 M
63 0 V
stroke
1140 4871 M
[ [(Times-Roman) 300.0 0.0 true true 0 ( 0.9)]
] -100.0 MRshow
1.000 UL
LTb
LCb setrgbcolor
1224 1120 M
stroke
1098 910 M
[ [(Times-Roman) 300.0 0.0 true true 0 ( 0.5)]
] -100.0 MCshow
1.000 UL
LTb
LCb setrgbcolor
1796 1120 M
stroke
1670 910 M
[ [(Times-Roman) 300.0 0.0 true true 0 ( 0.55)]
] -100.0 MCshow
1.000 UL
LTb
LCb setrgbcolor
2369 1120 M
stroke
2243 910 M
[ [(Times-Roman) 300.0 0.0 true true 0 ( 0.6)]
] -100.0 MCshow
1.000 UL
LTb
LCb setrgbcolor
2941 1120 M
stroke
2815 910 M
[ [(Times-Roman) 300.0 0.0 true true 0 ( 0.65)]
] -100.0 MCshow
1.000 UL
LTb
LCb setrgbcolor
3513 1120 M
stroke
3387 910 M
[ [(Times-Roman) 300.0 0.0 true true 0 ( 0.7)]
] -100.0 MCshow
1.000 UL
LTb
LCb setrgbcolor
4086 1120 M
stroke
3960 910 M
[ [(Times-Roman) 300.0 0.0 true true 0 ( 0.75)]
] -100.0 MCshow
1.000 UL
LTb
LCb setrgbcolor
4658 1120 M
stroke
4532 910 M
[ [(Times-Roman) 300.0 0.0 true true 0 ( 0.8)]
] -100.0 MCshow
1.000 UL
LTb
LCb setrgbcolor
5230 1120 M
stroke
5104 910 M
[ [(Times-Roman) 300.0 0.0 true true 0 ( 0.85)]
] -100.0 MCshow
1.000 UL
LTb
LCb setrgbcolor
5802 1120 M
stroke
5676 910 M
[ [(Times-Roman) 300.0 0.0 true true 0 ( 0.9)]
] -100.0 MCshow
1.000 UL
LTb
LCb setrgbcolor
6375 1120 M
stroke
6249 910 M
[ [(Times-Roman) 300.0 0.0 true true 0 ( 0.95)]
] -100.0 MCshow
1.000 UL
LTb
LCb setrgbcolor
6947 1120 M
stroke
6821 910 M
[ [(Times-Roman) 300.0 0.0 true true 0 ( 1)]
] -100.0 MCshow
1.000 UL
LTb
LCb setrgbcolor
1.000 UL
LTb
LCb setrgbcolor
1224 4871 N
0 -3751 V
5723 0 V
0 3751 V
-5723 0 V
Z stroke
LCb setrgbcolor
230 3275 M
currentpoint gsave translate -270 rotate 0 0 moveto
[ [(Times:Bold) 350.0 0.0 true true 0 (Risk Score)]
] -116.7 MCshow
grestore
LTb
LCb setrgbcolor
4085 350 M
[ [(Times:Bold) 350.0 0.0 true true 0 (Object Sensitivity)]
] -116.7 MCshow
LTb
1.000 UP
1.000 UL
LTb
LCb setrgbcolor
% Begin plot #1
1.000 UP
2.000 UL
LT0
0.00 0.00 1.00 C LCb setrgbcolor
6266 3680 M
[ [(Times:Bold) 300.0 0.0 true true 0 (View)]
] -100.0 MRshow
LT0
0.00 0.00 1.00 C 6350 3680 M
399 0 V
1362 1590 M
13 2 V
59 9 V
122 19 V
3 1 V
156 24 V
18 3 V
4 1 V
61 9 V
55 9 V
80 13 V
25 4 V
27 4 V
2 0 V
105 17 V
30 5 V
70 11 V
54 9 V
66 10 V
92 15 V
33 5 V
116 19 V
175 28 V
115 19 V
232 38 V
32 5 V
60 10 V
35 5 V
34 6 V
420 69 V
285 47 V
39 7 V
18 3 V
8 1 V
21 4 V
21 3 V
85 14 V
376 63 V
179 31 V
611 2025 V
27 3 V
418 40 V
303 28 V
407 38 V
6 0 V
88 8 V
99 9 V
205 19 V
15 1 V
79 7 V
1362 1590 CircleF
1375 1592 CircleF
1434 1601 CircleF
1556 1620 CircleF
1559 1621 CircleF
1715 1645 CircleF
1733 1648 CircleF
1737 1649 CircleF
1798 1658 CircleF
1853 1667 CircleF
1933 1680 CircleF
1958 1684 CircleF
1985 1688 CircleF
1987 1688 CircleF
2092 1705 CircleF
2122 1710 CircleF
2192 1721 CircleF
2246 1730 CircleF
2312 1740 CircleF
2404 1755 CircleF
2437 1760 CircleF
2553 1779 CircleF
2728 1807 CircleF
2843 1826 CircleF
3075 1864 CircleF
3107 1869 CircleF
3167 1879 CircleF
3202 1884 CircleF
3236 1890 CircleF
3656 1959 CircleF
3941 2006 CircleF
3980 2013 CircleF
3998 2016 CircleF
4006 2017 CircleF
4027 2021 CircleF
4048 2024 CircleF
4133 2038 CircleF
4509 2101 CircleF
4688 2132 CircleF
5299 4157 CircleF
5326 4160 CircleF
5744 4200 CircleF
6047 4228 CircleF
6454 4266 CircleF
6460 4266 CircleF
6548 4274 CircleF
6647 4283 CircleF
6852 4302 CircleF
6867 4303 CircleF
6946 4310 CircleF
6549 3680 CircleF
% End plot #1
% Begin plot #2
1.000 UP
2.000 UL
LT0
0.00 0.00 0.00 C LCb setrgbcolor
6266 3442 M
[ [(Times:Bold) 300.0 0.0 true true 0 (Edit)]
] -100.0 MRshow
LT0
0.00 0.00 0.00 C 6350 3442 M
399 0 V
1343 1849 M
3 1 V
11 2 V
44 9 V
72 15 V
39 8 V
66 14 V
14 3 V
152 32 V
94 20 V
132 28 V
70 15 V
9 2 V
13 2 V
180 39 V
123 26 V
102 22 V
210 46 V
53 11 V
86 1972 V
261 33 V
72 8 V
92 12 V
368 44 V
60 7 V
294 35 V
248 29 V
16 2 V
121 14 V
81 10 V
92 10 V
113 13 V
91 11 V
77 8 V
81 10 V
126 14 V
29 3 V
29 4 V
50 5 V
96 11 V
8 1 V
45 5 V
80 9 V
157 17 V
205 23 V
90 10 V
275 30 V
14 1 V
100 11 V
438 47 V
1343 1849 Star
1346 1850 Star
1357 1852 Star
1401 1861 Star
1473 1876 Star
1512 1884 Star
1578 1898 Star
1592 1901 Star
1744 1933 Star
1838 1953 Star
1970 1981 Star
2040 1996 Star
2049 1998 Star
2062 2000 Star
2242 2039 Star
2365 2065 Star
2467 2087 Star
2677 2133 Star
2730 2144 Star
2816 4116 Star
3077 4149 Star
3149 4157 Star
3241 4169 Star
3609 4213 Star
3669 4220 Star
3963 4255 Star
4211 4284 Star
4227 4286 Star
4348 4300 Star
4429 4310 Star
4521 4320 Star
4634 4333 Star
4725 4344 Star
4802 4352 Star
4883 4362 Star
5009 4376 Star
5038 4379 Star
5067 4383 Star
5117 4388 Star
5213 4399 Star
5221 4400 Star
5266 4405 Star
5346 4414 Star
5503 4431 Star
5708 4454 Star
5798 4464 Star
6073 4494 Star
6087 4495 Star
6187 4506 Star
6625 4553 Star
6549 3442 Star
% End plot #2
% Begin plot #3
1.000 UP
2.000 UL
LT0
1.00 0.00 0.00 C LCb setrgbcolor
6266 3204 M
[ [(Times:Bold) 300.0 0.0 true true 0 (Execute)]
] -100.0 MRshow
LT0
1.00 0.00 0.00 C 6350 3204 M
399 0 V
1333 1876 M
1 0 V
17 4 V
1 0 V
9 2 V
145 31 V
71 15 V
53 12 V
4 1 V
314 68 V
57 13 V
30 6 V
91 20 V
9 2 V
10 2 V
54 12 V
105 23 V
48 11 V
95 21 V
97 21 V
11 3 V
257 1995 V
60 7 V
216 27 V
1 0 V
33 4 V
29 4 V
145 18 V
9 1 V
255 31 V
55 7 V
42 5 V
230 28 V
219 26 V
73 9 V
512 60 V
130 15 V
125 14 V
179 21 V
28 3 V
31 3 V
153 18 V
236 26 V
712 79 V
52 6 V
101 11 V
44 5 V
1333 1876 BoxF
1334 1876 BoxF
1351 1880 BoxF
1352 1880 BoxF
1361 1882 BoxF
1506 1913 BoxF
1577 1928 BoxF
1577 1928 BoxF
1630 1940 BoxF
1634 1941 BoxF
1948 2009 BoxF
2005 2022 BoxF
2035 2028 BoxF
2035 2028 BoxF
2126 2048 BoxF
2135 2050 BoxF
2145 2052 BoxF
2199 2064 BoxF
2304 2087 BoxF
2352 2098 BoxF
2447 2119 BoxF
2544 2140 BoxF
2555 2143 BoxF
2812 4138 BoxF
2872 4145 BoxF
3088 4172 BoxF
3089 4172 BoxF
3122 4176 BoxF
3151 4180 BoxF
3296 4198 BoxF
3305 4199 BoxF
3560 4230 BoxF
3615 4237 BoxF
3657 4242 BoxF
3887 4270 BoxF
4106 4296 BoxF
4179 4305 BoxF
4691 4365 BoxF
4821 4380 BoxF
4946 4394 BoxF
5125 4415 BoxF
5153 4418 BoxF
5184 4421 BoxF
5337 4439 BoxF
5573 4465 BoxF
6285 4544 BoxF
6337 4550 BoxF
6438 4561 BoxF
6482 4566 BoxF
6549 3204 BoxF
% End plot #3
1.000 UL
LTb
LCb setrgbcolor
1224 4871 N
0 -3751 V
5723 0 V
0 3751 V
-5723 0 V
Z stroke
1.000 UP
1.000 UL
LTb
LCb setrgbcolor
stroke
grestore
end
showpage
%%Trailer
%%DocumentFonts: Times:Bold Times-Roman Helvetica
