D4,D4_U1,5,D3,O446,A3 M Confidential 0.95
D3,D3_U7,5,D2,O260,A3 M Unclassified 0.95
D5,D5_U4,5,D4,O243,A3 H Unclassified 0.95
D2,D2_U20,5,D1,O470,A3 L Unclassified 0.95
D3,D3_U54,5,D2,O966,A3 H Unclassified 0.95
D2,D2_U46,5,D1,O421,A3 L Top_Secret 0.95
D2,D2_U28,5,D1,O914,A3 M Confidential 0.95
D1,D1_U20,5,D4,O390,A3 M Unclassified 0.95
D5,D5_U13,5,D2,O862,A3 L Unclassified 0.95
D3,D3_U22,5,D5,O493,A3 L Unclassified 0.95
D2,D2_U4,5,D4,O845,A3 L Unclassified 0.95
D1,D1_U55,5,D2,O461,A3 L Unclassified 0.95
D3,D3_U1,5,D4,O390,A3 M Unclassified 0.95
D5,D5_U4,5,D4,O410,A3 L Secret 0.95
D2,D2_U58,5,D3,O570,A3 H Secret 0.95
D1,D1_U9,5,D3,O70,A3 M Confidential 0.95
D3,D3_U5,5,D2,O256,A3 H Confidential 0.95
D4,D4_U54,5,D3,O286,A3 L Unclassified 0.95
D1,D1_U19,5,D5,O179,A3 L Unclassified 0.95
D5,D5_U1,5,D1,O515,A3 M Unclassified 0.95
D4,D4_U27,5,D5,O634,A3 M Secret 0.95
D2,D2_U17,5,D3,O33,A3 H Confidential 0.95
D3,D3_U23,5,D2,O969,A3 L Unclassified 0.95
D5,D5_U37,5,D2,O771,A3 L Confidential 0.95
D2,D2_U15,5,D5,O29,A3 L Confidential 0.95
D5,D5_U60,5,D2,O659,A3 L Secret 0.95
D2,D2_U51,5,D4,O243,A3 H Unclassified 0.95
D5,D5_U12,5,D4,O790,A3 L Secret 0.95
D2,D2_U21,5,D5,O585,A3 L Unclassified 0.95
D5,D5_U16,5,D2,O708,A3 L Confidential 0.95
D3,D3_U31,5,D5,O165,A3 L Secret 0.95
D5,D5_U33,5,D3,O479,A3 L Unclassified 0.95
D1,D1_U36,5,D5,O358,A3 M Top_Secret 0.95
D3,D3_U59,5,D1,O752,A3 H Secret 0.95
D4,D4_U20,5,D1,O686,A3 L Top_Secret 0.95
D3,D3_U46,5,D4,O252,A3 L Secret 0.95
D3,D3_U17,5,D4,O621,A3 M Unclassified 0.95
D1,D1_U26,5,D4,O716,A3 L Unclassified 0.95
D5,D5_U30,5,D3,O706,A3 L Confidential 0.95
D4,D4_U22,5,D2,O308,A3 L Confidential 0.95
D5,D5_U28,5,D3,O722,A3 L Confidential 0.95
D3,D3_U21,5,D2,O225,A3 M Top_Secret 0.95
D1,D1_U7,5,D4,O983,A3 M Secret 0.95
D3,D3_U19,5,D2,O744,A3 L Unclassified 0.95
D1,D1_U19,5,D2,O737,A3 H Unclassified 0.95
D4,D4_U10,5,D3,O762,A3 L Secret 0.95
D4,D4_U55,5,D2,O862,A3 L Unclassified 0.95
D4,D4_U39,5,D1,O386,A3 M Unclassified 0.95
D5,D5_U11,5,D1,O27,A3 M Secret 0.95
D2,D2_U27,5,D4,O804,A3 L Confidential 0.95
