D1,D1_U61,5,D3,O285,A3 L Secret 0.7
D1,D1_U86,5,D4,O377,A3 L Confidential 0.7
D1,D1_U76,5,D3,O923,A3 H Secret 0.7
D2,D2_U77,5,D1,O154,A3 H Secret 0.7
D1,D1_U90,5,D2,O608,A3 L Confidential 0.7
D3,D3_U67,5,D5,O637,A3 M Unclassified 0.7
D1,D1_U69,5,D5,O579,A3 H Confidential 0.7
D4,D4_U72,5,D1,O451,A3 M Unclassified 0.7
D5,D5_U65,5,D3,O755,A3 L Unclassified 0.7
D2,D2_U79,5,D1,O296,A3 L Unclassified 0.7
D5,D5_U79,5,D3,O365,A3 L Unclassified 0.7
D2,D2_U90,5,D3,O923,A3 H Secret 0.7
D1,D1_U89,5,D4,O549,A3 H Top_Secret 0.7
D3,D3_U85,5,D1,O351,A3 H Unclassified 0.7
D2,D2_U63,5,D5,O585,A3 L Unclassified 0.7
D2,D2_U74,5,D3,O365,A3 L Unclassified 0.7
D4,D4_U63,5,D5,O250,A3 L Confidential 0.7
D3,D3_U84,5,D1,O17,A3 L Unclassified 0.7
D3,D3_U88,5,D4,O392,A3 L Confidential 0.7
D3,D3_U87,5,D5,O482,A3 M Unclassified 0.7
D1,D1_U74,5,D5,O250,A3 L Confidential 0.7
D4,D4_U71,5,D1,O784,A3 M Top_Secret 0.7
D5,D5_U88,5,D1,O550,A3 M Confidential 0.7
D2,D2_U68,5,D4,O808,A3 L Secret 0.7
D4,D4_U74,5,D1,O167,A3 L Unclassified 0.7
D4,D4_U67,5,D5,O637,A3 M Unclassified 0.7
D2,D2_U86,5,D4,O595,A3 L Confidential 0.7
D1,D1_U79,5,D2,O819,A3 H Unclassified 0.7
D5,D5_U85,5,D2,O708,A3 L Confidential 0.7
D4,D4_U90,5,D2,O221,A3 M Secret 0.7
D5,D5_U66,5,D2,O66,A3 L Top_Secret 0.7
D1,D1_U79,5,D3,O108,A3 M Unclassified 0.7
D5,D5_U82,5,D1,O646,A3 L Confidential 0.7
D4,D4_U72,5,D3,O943,A3 L Unclassified 0.7
D4,D4_U63,5,D2,O102,A3 H Confidential 0.7
D5,D5_U90,5,D2,O342,A3 L Confidential 0.7
D3,D3_U74,5,D5,O222,A3 L Unclassified 0.7
D2,D2_U70,5,D5,O758,A3 L Confidential 0.7
D1,D1_U67,5,D5,O326,A3 H Confidential 0.7
D3,D3_U61,5,D4,O611,A3 M Secret 0.7
D2,D2_U81,5,D1,O632,A3 L Unclassified 0.7
D1,D1_U75,5,D2,O608,A3 L Confidential 0.7
D1,D1_U84,5,D5,O556,A3 M Unclassified 0.7
D2,D2_U81,5,D5,O691,A3 L Confidential 0.7
D4,D4_U76,5,D2,O102,A3 H Confidential 0.7
D1,D1_U89,5,D2,O448,A3 L Top_Secret 0.7
D3,D3_U87,5,D1,O646,A3 L Confidential 0.7
D2,D2_U68,5,D3,O545,A3 L Confidential 0.7
D1,D1_U83,5,D5,O585,A3 L Unclassified 0.7
D1,D1_U62,5,D3,O872,A3 L Unclassified 0.7
