D3,D3_U52,6,D1,O13,A2 0.9827519898727102 0.8843207947104178 0.043078436026742016 49
D5,D5_U59,6,D4,O127,A2 0.9999838950396176 0.8783208590933096 0.04159372471484766 49
D2,D2_U56,3,D4,O754,A3 0.9999999874797662 0.34158517904811664 0.037111500417865664 49
D2,D2_U91,1,D3,O491,A1 3.0785638482910826E-9 0.17591315271772887 0.0021267619961954846 49
D1,D1_U9,10,D5,O353,A3 0.5958307296149541 0.9571580812082409 0.04900138916173566 49
D1,D1_U36,9,D4,O988,A3 0.7754399335543498 0.9322494059553226 0.047218524770223556 49
D2,D2_U66,2,D3,O838,A3 0.04410114887344496 0.253530530590427 0.028966756003048683 49
D1,D1_U45,3,D3,O479,A3 0.9827519898727102 0.2621985213502687 0.029916928171515974 49
D1,D1_U20,10,D3,O898,A2 0.9999999999999064 0.9213154461152486 0.0447485405627653 49
D3,D3_U13,9,D2,O614,A2 0.9827519898727102 0.9214289249111538 0.04696695849348103 49
D5,D5_U33,6,D4,O666,A2 0.9999999874797662 0.8870491222417486 0.043987428029972804 49
D4,D4_U89,10,D5,O558,A2 2.4945550427646346E-5 0.9955769786336216 0.049623251559896706 49
D5,D5_U95,1,D1,O17,A3 5.075693754186261E-9 0.19668432361352534 0.028569099448884906 49
D3,D3_U82,1,D2,O415,A3 0.006085459198397869 0.18706307318411258 0.0276541590277941 49
D4,D4_U40,6,D1,O157,A2 0.9987615625369963 0.8712205808318159 0.03971677925364086 49
D4,D4_U21,3,D5,O758,A3 0.7754399335543498 0.3090203391335498 0.033324795265932954 49
D4,D4_U56,1,D2,O989,A1 0.9999838950396176 0.17340880072685536 0.002107420135585559 49
D3,D3_U53,6,D4,O53,A2 0.9999999874797662 0.8890038726438109 0.0445389682257881 49
D3,D3_U43,3,D4,O504,A2 0.9999999874797662 0.2566183531190101 0.02946522749399931 49
D4,D4_U3,4,D2,O264,A2 0.9999838950396176 0.2928723112570013 0.03041310767438849 49
D1,D1_U87,1,D3,O963,A1 0.04410114887344496 0.16485054305710892 0.0020409485847774317 49
D5,D5_U61,9,D1,O402,A2 1.5130315412670292E-5 0.9837713895689411 0.04952405565123097 49
D1,D1_U2,1,D2,O257,A2 0.9987615625369963 0.18307974825830906 0.027273250097928022 49
