%!PS-Adobe-2.0 EPSF-2.0
%%Title: 7.eps
%%Creator: gnuplot 4.6 patchlevel 6
%%CreationDate: Thu Jul 12 18:52:23 2018
%%DocumentFonts: (atend)
%%BoundingBox: 50 50 410 302
%%EndComments
%%BeginProlog
/gnudict 256 dict def
gnudict begin
%
% The following true/false flags may be edited by hand if desired.
% The unit line width and grayscale image gamma correction may also be changed.
%
/Color true def
/Blacktext false def
/Solid false def
/Dashlength 1 def
/Landscape false def
/Level1 false def
/Rounded false def
/ClipToBoundingBox false def
/SuppressPDFMark false def
/TransparentPatterns false def
/gnulinewidth 5.000 def
/userlinewidth gnulinewidth def
/Gamma 1.0 def
/BackgroundColor {-1.000 -1.000 -1.000} def
%
/vshift -46 def
/dl1 {
  10.0 Dashlength mul mul
  Rounded { currentlinewidth 0.75 mul sub dup 0 le { pop 0.01 } if } if
} def
/dl2 {
  10.0 Dashlength mul mul
  Rounded { currentlinewidth 0.75 mul add } if
} def
/hpt_ 31.5 def
/vpt_ 31.5 def
/hpt hpt_ def
/vpt vpt_ def
/doclip {
  ClipToBoundingBox {
    newpath 50 50 moveto 410 50 lineto 410 302 lineto 50 302 lineto closepath
    clip
  } if
} def
%
% Gnuplot Prolog Version 4.6 (September 2012)
%
%/SuppressPDFMark true def
%
/M {moveto} bind def
/L {lineto} bind def
/R {rmoveto} bind def
/V {rlineto} bind def
/N {newpath moveto} bind def
/Z {closepath} bind def
/C {setrgbcolor} bind def
/f {rlineto fill} bind def
/g {setgray} bind def
/Gshow {show} def   % May be redefined later in the file to support UTF-8
/vpt2 vpt 2 mul def
/hpt2 hpt 2 mul def
/Lshow {currentpoint stroke M 0 vshift R 
	Blacktext {gsave 0 setgray show grestore} {show} ifelse} def
/Rshow {currentpoint stroke M dup stringwidth pop neg vshift R
	Blacktext {gsave 0 setgray show grestore} {show} ifelse} def
/Cshow {currentpoint stroke M dup stringwidth pop -2 div vshift R 
	Blacktext {gsave 0 setgray show grestore} {show} ifelse} def
/UP {dup vpt_ mul /vpt exch def hpt_ mul /hpt exch def
  /hpt2 hpt 2 mul def /vpt2 vpt 2 mul def} def
/DL {Color {setrgbcolor Solid {pop []} if 0 setdash}
 {pop pop pop 0 setgray Solid {pop []} if 0 setdash} ifelse} def
/BL {stroke userlinewidth 2 mul setlinewidth
	Rounded {1 setlinejoin 1 setlinecap} if} def
/AL {stroke userlinewidth 2 div setlinewidth
	Rounded {1 setlinejoin 1 setlinecap} if} def
/UL {dup gnulinewidth mul /userlinewidth exch def
	dup 1 lt {pop 1} if 10 mul /udl exch def} def
/PL {stroke userlinewidth setlinewidth
	Rounded {1 setlinejoin 1 setlinecap} if} def
3.8 setmiterlimit
% Default Line colors
/LCw {1 1 1} def
/LCb {0 0 0} def
/LCa {0 0 0} def
/LC0 {1 0 0} def
/LC1 {0 1 0} def
/LC2 {0 0 1} def
/LC3 {1 0 1} def
/LC4 {0 1 1} def
/LC5 {1 1 0} def
/LC6 {0 0 0} def
/LC7 {1 0.3 0} def
/LC8 {0.5 0.5 0.5} def
% Default Line Types
/LTw {PL [] 1 setgray} def
/LTb {BL [] LCb DL} def
/LTa {AL [1 udl mul 2 udl mul] 0 setdash LCa setrgbcolor} def
/LT0 {PL [] LC0 DL} def
/LT1 {PL [4 dl1 2 dl2] LC1 DL} def
/LT2 {PL [2 dl1 3 dl2] LC2 DL} def
/LT3 {PL [1 dl1 1.5 dl2] LC3 DL} def
/LT4 {PL [6 dl1 2 dl2 1 dl1 2 dl2] LC4 DL} def
/LT5 {PL [3 dl1 3 dl2 1 dl1 3 dl2] LC5 DL} def
/LT6 {PL [2 dl1 2 dl2 2 dl1 6 dl2] LC6 DL} def
/LT7 {PL [1 dl1 2 dl2 6 dl1 2 dl2 1 dl1 2 dl2] LC7 DL} def
/LT8 {PL [2 dl1 2 dl2 2 dl1 2 dl2 2 dl1 2 dl2 2 dl1 4 dl2] LC8 DL} def
/Pnt {stroke [] 0 setdash gsave 1 setlinecap M 0 0 V stroke grestore} def
/Dia {stroke [] 0 setdash 2 copy vpt add M
  hpt neg vpt neg V hpt vpt neg V
  hpt vpt V hpt neg vpt V closepath stroke
  Pnt} def
/Pls {stroke [] 0 setdash vpt sub M 0 vpt2 V
  currentpoint stroke M
  hpt neg vpt neg R hpt2 0 V stroke
 } def
/Box {stroke [] 0 setdash 2 copy exch hpt sub exch vpt add M
  0 vpt2 neg V hpt2 0 V 0 vpt2 V
  hpt2 neg 0 V closepath stroke
  Pnt} def
/Crs {stroke [] 0 setdash exch hpt sub exch vpt add M
  hpt2 vpt2 neg V currentpoint stroke M
  hpt2 neg 0 R hpt2 vpt2 V stroke} def
/TriU {stroke [] 0 setdash 2 copy vpt 1.12 mul add M
  hpt neg vpt -1.62 mul V
  hpt 2 mul 0 V
  hpt neg vpt 1.62 mul V closepath stroke
  Pnt} def
/Star {2 copy Pls Crs} def
/BoxF {stroke [] 0 setdash exch hpt sub exch vpt add M
  0 vpt2 neg V hpt2 0 V 0 vpt2 V
  hpt2 neg 0 V closepath fill} def
/TriUF {stroke [] 0 setdash vpt 1.12 mul add M
  hpt neg vpt -1.62 mul V
  hpt 2 mul 0 V
  hpt neg vpt 1.62 mul V closepath fill} def
/TriD {stroke [] 0 setdash 2 copy vpt 1.12 mul sub M
  hpt neg vpt 1.62 mul V
  hpt 2 mul 0 V
  hpt neg vpt -1.62 mul V closepath stroke
  Pnt} def
/TriDF {stroke [] 0 setdash vpt 1.12 mul sub M
  hpt neg vpt 1.62 mul V
  hpt 2 mul 0 V
  hpt neg vpt -1.62 mul V closepath fill} def
/DiaF {stroke [] 0 setdash vpt add M
  hpt neg vpt neg V hpt vpt neg V
  hpt vpt V hpt neg vpt V closepath fill} def
/Pent {stroke [] 0 setdash 2 copy gsave
  translate 0 hpt M 4 {72 rotate 0 hpt L} repeat
  closepath stroke grestore Pnt} def
/PentF {stroke [] 0 setdash gsave
  translate 0 hpt M 4 {72 rotate 0 hpt L} repeat
  closepath fill grestore} def
/Circle {stroke [] 0 setdash 2 copy
  hpt 0 360 arc stroke Pnt} def
/CircleF {stroke [] 0 setdash hpt 0 360 arc fill} def
/C0 {BL [] 0 setdash 2 copy moveto vpt 90 450 arc} bind def
/C1 {BL [] 0 setdash 2 copy moveto
	2 copy vpt 0 90 arc closepath fill
	vpt 0 360 arc closepath} bind def
/C2 {BL [] 0 setdash 2 copy moveto
	2 copy vpt 90 180 arc closepath fill
	vpt 0 360 arc closepath} bind def
/C3 {BL [] 0 setdash 2 copy moveto
	2 copy vpt 0 180 arc closepath fill
	vpt 0 360 arc closepath} bind def
/C4 {BL [] 0 setdash 2 copy moveto
	2 copy vpt 180 270 arc closepath fill
	vpt 0 360 arc closepath} bind def
/C5 {BL [] 0 setdash 2 copy moveto
	2 copy vpt 0 90 arc
	2 copy moveto
	2 copy vpt 180 270 arc closepath fill
	vpt 0 360 arc} bind def
/C6 {BL [] 0 setdash 2 copy moveto
	2 copy vpt 90 270 arc closepath fill
	vpt 0 360 arc closepath} bind def
/C7 {BL [] 0 setdash 2 copy moveto
	2 copy vpt 0 270 arc closepath fill
	vpt 0 360 arc closepath} bind def
/C8 {BL [] 0 setdash 2 copy moveto
	2 copy vpt 270 360 arc closepath fill
	vpt 0 360 arc closepath} bind def
/C9 {BL [] 0 setdash 2 copy moveto
	2 copy vpt 270 450 arc closepath fill
	vpt 0 360 arc closepath} bind def
/C10 {BL [] 0 setdash 2 copy 2 copy moveto vpt 270 360 arc closepath fill
	2 copy moveto
	2 copy vpt 90 180 arc closepath fill
	vpt 0 360 arc closepath} bind def
/C11 {BL [] 0 setdash 2 copy moveto
	2 copy vpt 0 180 arc closepath fill
	2 copy moveto
	2 copy vpt 270 360 arc closepath fill
	vpt 0 360 arc closepath} bind def
/C12 {BL [] 0 setdash 2 copy moveto
	2 copy vpt 180 360 arc closepath fill
	vpt 0 360 arc closepath} bind def
/C13 {BL [] 0 setdash 2 copy moveto
	2 copy vpt 0 90 arc closepath fill
	2 copy moveto
	2 copy vpt 180 360 arc closepath fill
	vpt 0 360 arc closepath} bind def
/C14 {BL [] 0 setdash 2 copy moveto
	2 copy vpt 90 360 arc closepath fill
	vpt 0 360 arc} bind def
/C15 {BL [] 0 setdash 2 copy vpt 0 360 arc closepath fill
	vpt 0 360 arc closepath} bind def
/Rec {newpath 4 2 roll moveto 1 index 0 rlineto 0 exch rlineto
	neg 0 rlineto closepath} bind def
/Square {dup Rec} bind def
/Bsquare {vpt sub exch vpt sub exch vpt2 Square} bind def
/S0 {BL [] 0 setdash 2 copy moveto 0 vpt rlineto BL Bsquare} bind def
/S1 {BL [] 0 setdash 2 copy vpt Square fill Bsquare} bind def
/S2 {BL [] 0 setdash 2 copy exch vpt sub exch vpt Square fill Bsquare} bind def
/S3 {BL [] 0 setdash 2 copy exch vpt sub exch vpt2 vpt Rec fill Bsquare} bind def
/S4 {BL [] 0 setdash 2 copy exch vpt sub exch vpt sub vpt Square fill Bsquare} bind def
/S5 {BL [] 0 setdash 2 copy 2 copy vpt Square fill
	exch vpt sub exch vpt sub vpt Square fill Bsquare} bind def
/S6 {BL [] 0 setdash 2 copy exch vpt sub exch vpt sub vpt vpt2 Rec fill Bsquare} bind def
/S7 {BL [] 0 setdash 2 copy exch vpt sub exch vpt sub vpt vpt2 Rec fill
	2 copy vpt Square fill Bsquare} bind def
/S8 {BL [] 0 setdash 2 copy vpt sub vpt Square fill Bsquare} bind def
/S9 {BL [] 0 setdash 2 copy vpt sub vpt vpt2 Rec fill Bsquare} bind def
/S10 {BL [] 0 setdash 2 copy vpt sub vpt Square fill 2 copy exch vpt sub exch vpt Square fill
	Bsquare} bind def
/S11 {BL [] 0 setdash 2 copy vpt sub vpt Square fill 2 copy exch vpt sub exch vpt2 vpt Rec fill
	Bsquare} bind def
/S12 {BL [] 0 setdash 2 copy exch vpt sub exch vpt sub vpt2 vpt Rec fill Bsquare} bind def
/S13 {BL [] 0 setdash 2 copy exch vpt sub exch vpt sub vpt2 vpt Rec fill
	2 copy vpt Square fill Bsquare} bind def
/S14 {BL [] 0 setdash 2 copy exch vpt sub exch vpt sub vpt2 vpt Rec fill
	2 copy exch vpt sub exch vpt Square fill Bsquare} bind def
/S15 {BL [] 0 setdash 2 copy Bsquare fill Bsquare} bind def
/D0 {gsave translate 45 rotate 0 0 S0 stroke grestore} bind def
/D1 {gsave translate 45 rotate 0 0 S1 stroke grestore} bind def
/D2 {gsave translate 45 rotate 0 0 S2 stroke grestore} bind def
/D3 {gsave translate 45 rotate 0 0 S3 stroke grestore} bind def
/D4 {gsave translate 45 rotate 0 0 S4 stroke grestore} bind def
/D5 {gsave translate 45 rotate 0 0 S5 stroke grestore} bind def
/D6 {gsave translate 45 rotate 0 0 S6 stroke grestore} bind def
/D7 {gsave translate 45 rotate 0 0 S7 stroke grestore} bind def
/D8 {gsave translate 45 rotate 0 0 S8 stroke grestore} bind def
/D9 {gsave translate 45 rotate 0 0 S9 stroke grestore} bind def
/D10 {gsave translate 45 rotate 0 0 S10 stroke grestore} bind def
/D11 {gsave translate 45 rotate 0 0 S11 stroke grestore} bind def
/D12 {gsave translate 45 rotate 0 0 S12 stroke grestore} bind def
/D13 {gsave translate 45 rotate 0 0 S13 stroke grestore} bind def
/D14 {gsave translate 45 rotate 0 0 S14 stroke grestore} bind def
/D15 {gsave translate 45 rotate 0 0 S15 stroke grestore} bind def
/DiaE {stroke [] 0 setdash vpt add M
  hpt neg vpt neg V hpt vpt neg V
  hpt vpt V hpt neg vpt V closepath stroke} def
/BoxE {stroke [] 0 setdash exch hpt sub exch vpt add M
  0 vpt2 neg V hpt2 0 V 0 vpt2 V
  hpt2 neg 0 V closepath stroke} def
/TriUE {stroke [] 0 setdash vpt 1.12 mul add M
  hpt neg vpt -1.62 mul V
  hpt 2 mul 0 V
  hpt neg vpt 1.62 mul V closepath stroke} def
/TriDE {stroke [] 0 setdash vpt 1.12 mul sub M
  hpt neg vpt 1.62 mul V
  hpt 2 mul 0 V
  hpt neg vpt -1.62 mul V closepath stroke} def
/PentE {stroke [] 0 setdash gsave
  translate 0 hpt M 4 {72 rotate 0 hpt L} repeat
  closepath stroke grestore} def
/CircE {stroke [] 0 setdash 
  hpt 0 360 arc stroke} def
/Opaque {gsave closepath 1 setgray fill grestore 0 setgray closepath} def
/DiaW {stroke [] 0 setdash vpt add M
  hpt neg vpt neg V hpt vpt neg V
  hpt vpt V hpt neg vpt V Opaque stroke} def
/BoxW {stroke [] 0 setdash exch hpt sub exch vpt add M
  0 vpt2 neg V hpt2 0 V 0 vpt2 V
  hpt2 neg 0 V Opaque stroke} def
/TriUW {stroke [] 0 setdash vpt 1.12 mul add M
  hpt neg vpt -1.62 mul V
  hpt 2 mul 0 V
  hpt neg vpt 1.62 mul V Opaque stroke} def
/TriDW {stroke [] 0 setdash vpt 1.12 mul sub M
  hpt neg vpt 1.62 mul V
  hpt 2 mul 0 V
  hpt neg vpt -1.62 mul V Opaque stroke} def
/PentW {stroke [] 0 setdash gsave
  translate 0 hpt M 4 {72 rotate 0 hpt L} repeat
  Opaque stroke grestore} def
/CircW {stroke [] 0 setdash 
  hpt 0 360 arc Opaque stroke} def
/BoxFill {gsave Rec 1 setgray fill grestore} def
/Density {
  /Fillden exch def
  currentrgbcolor
  /ColB exch def /ColG exch def /ColR exch def
  /ColR ColR Fillden mul Fillden sub 1 add def
  /ColG ColG Fillden mul Fillden sub 1 add def
  /ColB ColB Fillden mul Fillden sub 1 add def
  ColR ColG ColB setrgbcolor} def
/BoxColFill {gsave Rec PolyFill} def
/PolyFill {gsave Density fill grestore grestore} def
/h {rlineto rlineto rlineto gsave closepath fill grestore} bind def
%
% PostScript Level 1 Pattern Fill routine for rectangles
% Usage: x y w h s a XX PatternFill
%	x,y = lower left corner of box to be filled
%	w,h = width and height of box
%	  a = angle in degrees between lines and x-axis
%	 XX = 0/1 for no/yes cross-hatch
%
/PatternFill {gsave /PFa [ 9 2 roll ] def
  PFa 0 get PFa 2 get 2 div add PFa 1 get PFa 3 get 2 div add translate
  PFa 2 get -2 div PFa 3 get -2 div PFa 2 get PFa 3 get Rec
  TransparentPatterns {} {gsave 1 setgray fill grestore} ifelse
  clip
  currentlinewidth 0.5 mul setlinewidth
  /PFs PFa 2 get dup mul PFa 3 get dup mul add sqrt def
  0 0 M PFa 5 get rotate PFs -2 div dup translate
  0 1 PFs PFa 4 get div 1 add floor cvi
	{PFa 4 get mul 0 M 0 PFs V} for
  0 PFa 6 get ne {
	0 1 PFs PFa 4 get div 1 add floor cvi
	{PFa 4 get mul 0 2 1 roll M PFs 0 V} for
 } if
  stroke grestore} def
%
/languagelevel where
 {pop languagelevel} {1} ifelse
 2 lt
	{/InterpretLevel1 true def}
	{/InterpretLevel1 Level1 def}
 ifelse
%
% PostScript level 2 pattern fill definitions
%
/Level2PatternFill {
/Tile8x8 {/PaintType 2 /PatternType 1 /TilingType 1 /BBox [0 0 8 8] /XStep 8 /YStep 8}
	bind def
/KeepColor {currentrgbcolor [/Pattern /DeviceRGB] setcolorspace} bind def
<< Tile8x8
 /PaintProc {0.5 setlinewidth pop 0 0 M 8 8 L 0 8 M 8 0 L stroke} 
>> matrix makepattern
/Pat1 exch def
<< Tile8x8
 /PaintProc {0.5 setlinewidth pop 0 0 M 8 8 L 0 8 M 8 0 L stroke
	0 4 M 4 8 L 8 4 L 4 0 L 0 4 L stroke}
>> matrix makepattern
/Pat2 exch def
<< Tile8x8
 /PaintProc {0.5 setlinewidth pop 0 0 M 0 8 L
	8 8 L 8 0 L 0 0 L fill}
>> matrix makepattern
/Pat3 exch def
<< Tile8x8
 /PaintProc {0.5 setlinewidth pop -4 8 M 8 -4 L
	0 12 M 12 0 L stroke}
>> matrix makepattern
/Pat4 exch def
<< Tile8x8
 /PaintProc {0.5 setlinewidth pop -4 0 M 8 12 L
	0 -4 M 12 8 L stroke}
>> matrix makepattern
/Pat5 exch def
<< Tile8x8
 /PaintProc {0.5 setlinewidth pop -2 8 M 4 -4 L
	0 12 M 8 -4 L 4 12 M 10 0 L stroke}
>> matrix makepattern
/Pat6 exch def
<< Tile8x8
 /PaintProc {0.5 setlinewidth pop -2 0 M 4 12 L
	0 -4 M 8 12 L 4 -4 M 10 8 L stroke}
>> matrix makepattern
/Pat7 exch def
<< Tile8x8
 /PaintProc {0.5 setlinewidth pop 8 -2 M -4 4 L
	12 0 M -4 8 L 12 4 M 0 10 L stroke}
>> matrix makepattern
/Pat8 exch def
<< Tile8x8
 /PaintProc {0.5 setlinewidth pop 0 -2 M 12 4 L
	-4 0 M 12 8 L -4 4 M 8 10 L stroke}
>> matrix makepattern
/Pat9 exch def
/Pattern1 {PatternBgnd KeepColor Pat1 setpattern} bind def
/Pattern2 {PatternBgnd KeepColor Pat2 setpattern} bind def
/Pattern3 {PatternBgnd KeepColor Pat3 setpattern} bind def
/Pattern4 {PatternBgnd KeepColor Landscape {Pat5} {Pat4} ifelse setpattern} bind def
/Pattern5 {PatternBgnd KeepColor Landscape {Pat4} {Pat5} ifelse setpattern} bind def
/Pattern6 {PatternBgnd KeepColor Landscape {Pat9} {Pat6} ifelse setpattern} bind def
/Pattern7 {PatternBgnd KeepColor Landscape {Pat8} {Pat7} ifelse setpattern} bind def
} def
%
%
%End of PostScript Level 2 code
%
/PatternBgnd {
  TransparentPatterns {} {gsave 1 setgray fill grestore} ifelse
} def
%
% Substitute for Level 2 pattern fill codes with
% grayscale if Level 2 support is not selected.
%
/Level1PatternFill {
/Pattern1 {0.250 Density} bind def
/Pattern2 {0.500 Density} bind def
/Pattern3 {0.750 Density} bind def
/Pattern4 {0.125 Density} bind def
/Pattern5 {0.375 Density} bind def
/Pattern6 {0.625 Density} bind def
/Pattern7 {0.875 Density} bind def
} def
%
% Now test for support of Level 2 code
%
Level1 {Level1PatternFill} {Level2PatternFill} ifelse
%
/Symbol-Oblique /Symbol findfont [1 0 .167 1 0 0] makefont
dup length dict begin {1 index /FID eq {pop pop} {def} ifelse} forall
currentdict end definefont pop
/MFshow {
   { dup 5 get 3 ge
     { 5 get 3 eq {gsave} {grestore} ifelse }
     {dup dup 0 get findfont exch 1 get scalefont setfont
     [ currentpoint ] exch dup 2 get 0 exch R dup 5 get 2 ne {dup dup 6
     get exch 4 get {Gshow} {stringwidth pop 0 R} ifelse }if dup 5 get 0 eq
     {dup 3 get {2 get neg 0 exch R pop} {pop aload pop M} ifelse} {dup 5
     get 1 eq {dup 2 get exch dup 3 get exch 6 get stringwidth pop -2 div
     dup 0 R} {dup 6 get stringwidth pop -2 div 0 R 6 get
     show 2 index {aload pop M neg 3 -1 roll neg R pop pop} {pop pop pop
     pop aload pop M} ifelse }ifelse }ifelse }
     ifelse }
   forall} def
/Gswidth {dup type /stringtype eq {stringwidth} {pop (n) stringwidth} ifelse} def
/MFwidth {0 exch { dup 5 get 3 ge { 5 get 3 eq { 0 } { pop } ifelse }
 {dup 3 get{dup dup 0 get findfont exch 1 get scalefont setfont
     6 get Gswidth pop add} {pop} ifelse} ifelse} forall} def
/MLshow { currentpoint stroke M
  0 exch R
  Blacktext {gsave 0 setgray MFshow grestore} {MFshow} ifelse } bind def
/MRshow { currentpoint stroke M
  exch dup MFwidth neg 3 -1 roll R
  Blacktext {gsave 0 setgray MFshow grestore} {MFshow} ifelse } bind def
/MCshow { currentpoint stroke M
  exch dup MFwidth -2 div 3 -1 roll R
  Blacktext {gsave 0 setgray MFshow grestore} {MFshow} ifelse } bind def
/XYsave    { [( ) 1 2 true false 3 ()] } bind def
/XYrestore { [( ) 1 2 true false 4 ()] } bind def
Level1 SuppressPDFMark or 
{} {
/SDict 10 dict def
systemdict /pdfmark known not {
  userdict /pdfmark systemdict /cleartomark get put
} if
SDict begin [
  /Title (7.eps)
  /Subject (gnuplot plot)
  /Creator (gnuplot 4.6 patchlevel 6)
  /Author (rishabh)
%  /Producer (gnuplot)
%  /Keywords ()
  /CreationDate (Thu Jul 12 18:52:23 2018)
  /DOCINFO pdfmark
end
} ifelse
end
%%EndProlog
%%Page: 1 1
gnudict begin
gsave
doclip
50 50 translate
0.050 0.050 scale
0 setgray
newpath
(Helvetica) findfont 140 scalefont setfont
BackgroundColor 0 lt 3 1 roll 0 lt exch 0 lt or or not {BackgroundColor C 1.000 0 0 7200.00 5040.00 BoxColFill} if
1.000 UL
LTb
LCb setrgbcolor
1224 1120 M
63 0 V
stroke
1140 1120 M
[ [(Times-Roman) 300.0 0.0 true true 0 ( 0.2)]
] -100.0 MRshow
1.000 UL
LTb
LCb setrgbcolor
1224 1656 M
63 0 V
stroke
1140 1656 M
[ [(Times-Roman) 300.0 0.0 true true 0 ( 0.3)]
] -100.0 MRshow
1.000 UL
LTb
LCb setrgbcolor
1224 2192 M
63 0 V
stroke
1140 2192 M
[ [(Times-Roman) 300.0 0.0 true true 0 ( 0.4)]
] -100.0 MRshow
1.000 UL
LTb
LCb setrgbcolor
1224 2728 M
63 0 V
stroke
1140 2728 M
[ [(Times-Roman) 300.0 0.0 true true 0 ( 0.5)]
] -100.0 MRshow
1.000 UL
LTb
LCb setrgbcolor
1224 3263 M
63 0 V
stroke
1140 3263 M
[ [(Times-Roman) 300.0 0.0 true true 0 ( 0.6)]
] -100.0 MRshow
1.000 UL
LTb
LCb setrgbcolor
1224 3799 M
63 0 V
stroke
1140 3799 M
[ [(Times-Roman) 300.0 0.0 true true 0 ( 0.7)]
] -100.0 MRshow
1.000 UL
LTb
LCb setrgbcolor
1224 4335 M
63 0 V
stroke
1140 4335 M
[ [(Times-Roman) 300.0 0.0 true true 0 ( 0.8)]
] -100.0 MRshow
1.000 UL
LTb
LCb setrgbcolor
1224 4871 M
63 0 V
stroke
1140 4871 M
[ [(Times-Roman) 300.0 0.0 true true 0 ( 0.9)]
] -100.0 MRshow
1.000 UL
LTb
LCb setrgbcolor
1224 1120 M
stroke
1098 910 M
[ [(Times-Roman) 300.0 0.0 true true 0 ( 0.5)]
] -100.0 MCshow
1.000 UL
LTb
LCb setrgbcolor
1860 1120 M
stroke
1734 910 M
[ [(Times-Roman) 300.0 0.0 true true 0 ( 0.55)]
] -100.0 MCshow
1.000 UL
LTb
LCb setrgbcolor
2496 1120 M
stroke
2370 910 M
[ [(Times-Roman) 300.0 0.0 true true 0 ( 0.6)]
] -100.0 MCshow
1.000 UL
LTb
LCb setrgbcolor
3132 1120 M
stroke
3006 910 M
[ [(Times-Roman) 300.0 0.0 true true 0 ( 0.65)]
] -100.0 MCshow
1.000 UL
LTb
LCb setrgbcolor
3768 1120 M
stroke
3642 910 M
[ [(Times-Roman) 300.0 0.0 true true 0 ( 0.7)]
] -100.0 MCshow
1.000 UL
LTb
LCb setrgbcolor
4403 1120 M
stroke
4277 910 M
[ [(Times-Roman) 300.0 0.0 true true 0 ( 0.75)]
] -100.0 MCshow
1.000 UL
LTb
LCb setrgbcolor
5039 1120 M
stroke
4913 910 M
[ [(Times-Roman) 300.0 0.0 true true 0 ( 0.8)]
] -100.0 MCshow
1.000 UL
LTb
LCb setrgbcolor
5675 1120 M
stroke
5549 910 M
[ [(Times-Roman) 300.0 0.0 true true 0 ( 0.85)]
] -100.0 MCshow
1.000 UL
LTb
LCb setrgbcolor
6311 1120 M
stroke
6185 910 M
[ [(Times-Roman) 300.0 0.0 true true 0 ( 0.9)]
] -100.0 MCshow
1.000 UL
LTb
LCb setrgbcolor
6947 1120 M
stroke
6821 910 M
[ [(Times-Roman) 300.0 0.0 true true 0 ( 0.95)]
] -100.0 MCshow
1.000 UL
LTb
LCb setrgbcolor
1.000 UL
LTb
LCb setrgbcolor
1224 4871 N
0 -3751 V
5723 0 V
0 3751 V
-5723 0 V
Z stroke
LCb setrgbcolor
230 3275 M
currentpoint gsave translate -270 rotate 0 0 moveto
[ [(Times:Bold) 350.0 0.0 true true 0 (Risk Score)]
] -116.7 MCshow
grestore
LTb
LCb setrgbcolor
4085 350 M
[ [(Times:Bold) 350.0 0.0 true true 0 (Object Sensitivity)]
] -116.7 MCshow
LTb
1.000 UP
1.000 UL
LTb
LCb setrgbcolor
% Begin plot #1
1.000 UP
2.000 UL
LT0
0.00 0.00 1.00 C LCb setrgbcolor
2565 4698 M
[ [(Times:Bold) 300.0 0.0 true true 0 (Honest)]
] -100.0 MRshow
LT0
0.00 0.00 1.00 C 2649 4698 M
399 0 V
1315 1142 M
92 30 V
35 -9 V
19 19 V
88 15 V
21 -12 V
32 5 V
65 16 V
37 3 V
93 15 V
1 16 V
38 -10 V
16 8 V
124 22 V
28 5 V
12 12 V
28 26 V
22 -28 V
138 35 V
43 -7 V
90 31 V
25 -11 V
13 17 V
156 12 V
117 58 V
65 -25 V
5 0 V
61 11 V
190 50 V
198 19 V
55 12 V
110 57 V
153 -10 V
275 49 V
78 21 V
693 129 V
148 22 V
230 50 V
100 54 V
203 -2 V
119 101 V
160 -29 V
173 15 V
11 44 V
262 28 V
255 38 V
526 105 V
182 1977 V
1315 1142 CircleF
1407 1172 CircleF
1442 1163 CircleF
1461 1182 CircleF
1549 1197 CircleF
1570 1185 CircleF
1602 1190 CircleF
1667 1206 CircleF
1704 1209 CircleF
1797 1224 CircleF
1798 1240 CircleF
1836 1230 CircleF
1852 1238 CircleF
1976 1260 CircleF
2004 1265 CircleF
2016 1277 CircleF
2044 1303 CircleF
2066 1275 CircleF
2204 1310 CircleF
2247 1303 CircleF
2337 1334 CircleF
2362 1323 CircleF
2375 1340 CircleF
2531 1352 CircleF
2648 1410 CircleF
2713 1385 CircleF
2718 1385 CircleF
2779 1396 CircleF
2969 1446 CircleF
3167 1465 CircleF
3222 1477 CircleF
3332 1534 CircleF
3485 1524 CircleF
3760 1573 CircleF
3838 1594 CircleF
4531 1723 CircleF
4679 1745 CircleF
4909 1795 CircleF
5009 1849 CircleF
5212 1847 CircleF
5331 1948 CircleF
5491 1919 CircleF
5664 1934 CircleF
5675 1978 CircleF
5937 2006 CircleF
6192 2044 CircleF
6718 2149 CircleF
6900 4126 CircleF
2848 4698 CircleF
% End plot #1
% Begin plot #2
1.000 UP
2.000 UL
LT0
0.00 0.00 0.00 C LCb setrgbcolor
2565 4460 M
[ [(Times:Bold) 300.0 0.0 true true 0 (Selfish)]
] -100.0 MRshow
LT0
0.00 0.00 0.00 C 2649 4460 M
399 0 V
1345 1876 M
198 38 V
30 -98 V
44 113 V
1 -48 V
6 1 V
132 74 V
10 -183 V
44 189 V
16 -10 V
101 -11 V
38 7 V
30 54 V
15 3 V
96 19 V
56 -95 V
43 98 V
176 52 V
40 3 V
61 -172 V
120 163 V
101 70 V
102 3 V
88 1981 V
1 0 V
3106 1732 L
31 2422 V
34 4 V
12 2 V
183 -8 V
33 32 V
45 -5 V
38 4 V
79 19 V
318 35 V
76 8 V
233 25 V
39 -101 V
148 -40 V
87 66 V
232 129 V
365 39 V
19 -156 V
34 152 V
195 -126 V
102 157 V
1278 138 V
68 5 V
8 -6 V
18 11 V
1345 1876 Star
1543 1914 Star
1573 1816 Star
1617 1929 Star
1618 1881 Star
1624 1882 Star
1756 1956 Star
1766 1773 Star
1810 1962 Star
1826 1952 Star
1927 1941 Star
1965 1948 Star
1995 2002 Star
2010 2005 Star
2106 2024 Star
2162 1929 Star
2205 2027 Star
2381 2079 Star
2421 2082 Star
2482 1910 Star
2602 2073 Star
2703 2143 Star
2805 2146 Star
2893 4127 Star
2894 4127 Star
3106 1732 Star
3137 4154 Star
3171 4158 Star
3183 4160 Star
3366 4152 Star
3399 4184 Star
3444 4179 Star
3482 4183 Star
3561 4202 Star
3879 4237 Star
3955 4245 Star
4188 4270 Star
4227 4169 Star
4375 4129 Star
4462 4195 Star
4694 4324 Star
5059 4363 Star
5078 4207 Star
5112 4359 Star
5307 4233 Star
5409 4390 Star
6687 4528 Star
6755 4533 Star
6763 4527 Star
6781 4538 Star
2848 4460 Star
% End plot #2
% Begin plot #3
1.000 UP
2.000 UL
LT0
1.00 0.00 0.00 C LCb setrgbcolor
2565 4222 M
[ [(Times:Bold) 300.0 0.0 true true 0 (Malicious)]
] -100.0 MRshow
LT0
1.00 0.00 0.00 C 2649 4222 M
399 0 V
1230 1854 M
71 13 V
37 8 V
164 31 V
73 14 V
11 3 V
87 16 V
64 13 V
1 0 V
24 5 V
85 16 V
49 10 V
74 15 V
51 10 V
9 1 V
122 24 V
67 14 V
82 16 V
6 1 V
95 19 V
114 22 V
111 23 V
168 1987 V
189 22 V
32 4 V
87 9 V
379 43 V
199 22 V
143 16 V
264 29 V
27 2 V
109 12 V
49 5 V
8 1 V
4 1 V
326 35 V
64 6 V
121 13 V
394 42 V
21 2 V
226 23 V
64 7 V
53 5 V
464 48 V
97 9 V
256 26 V
161 16 V
213 21 V
46 5 V
1230 1854 BoxF
1301 1867 BoxF
1338 1875 BoxF
1502 1906 BoxF
1575 1920 BoxF
1586 1923 BoxF
1673 1939 BoxF
1737 1952 BoxF
1738 1952 BoxF
1762 1957 BoxF
1847 1973 BoxF
1896 1983 BoxF
1970 1998 BoxF
2021 2008 BoxF
2030 2009 BoxF
2152 2033 BoxF
2219 2047 BoxF
2301 2063 BoxF
2307 2064 BoxF
2402 2083 BoxF
2516 2105 BoxF
2627 2128 BoxF
2795 4115 BoxF
2984 4137 BoxF
3016 4141 BoxF
3103 4150 BoxF
3482 4193 BoxF
3681 4215 BoxF
3824 4231 BoxF
4088 4260 BoxF
4115 4262 BoxF
4224 4274 BoxF
4273 4279 BoxF
4281 4280 BoxF
4285 4281 BoxF
4611 4316 BoxF
4675 4322 BoxF
4796 4335 BoxF
5190 4377 BoxF
5211 4379 BoxF
5437 4402 BoxF
5501 4409 BoxF
5554 4414 BoxF
6018 4462 BoxF
6115 4471 BoxF
6371 4497 BoxF
6532 4513 BoxF
6745 4534 BoxF
6791 4539 BoxF
2848 4222 BoxF
% End plot #3
1.000 UL
LTb
LCb setrgbcolor
1224 4871 N
0 -3751 V
5723 0 V
0 3751 V
-5723 0 V
Z stroke
1.000 UP
1.000 UL
LTb
LCb setrgbcolor
stroke
grestore
end
showpage
%%Trailer
%%DocumentFonts: Times:Bold Times-Roman Helvetica
