D5,D5_U6,5,D3,O633,A1 L Unclassified 0.95 0.8787377637485537 0.5517593339137783
D3,D3_U45,5,D4,O242,A1 H Unclassified 0.95 0.8620953593659815 0.5846928780812203
D2,D2_U13,5,D5,O48,A1 M Confidential 0.95 0.86426131977175 0.6664523148295503
D4,D4_U29,5,D2,O415,A3 H Unclassified 0.95 0.8762530174989149 0.5325348049402885
D3,D3_U25,5,D2,O842,A2 L Confidential 0.95 0.8507188399224821 0.6615831706330357
D2,D2_U33,5,D4,O467,A2 M Confidential 0.95 0.86426131977175 0.6276586735908862
D5,D5_U58,5,D2,O155,A2 L Unclassified 0.95 0.86426131977175 0.6000643937560528
D3,D3_U51,5,D5,O406,A2 L Secret 0.95 0.8507188399224821 0.8326756711795121
D5,D5_U42,5,D1,O462,A1 M Confidential 0.95 0.8690562079480071 0.7058795267292957
D3,D3_U8,5,D1,O116,A1 M Confidential 0.95 0.86426131977175 0.7141412553383241
D4,D4_U17,5,D2,O342,A3 L Confidential 0.95 0.86426131977175 0.6276704204981093
D3,D3_U1,5,D2,O384,A3 M Confidential 0.95 0.8507188399224821 0.6960904825493911
D4,D4_U32,5,D2,O449,A2 H Unclassified 0.95 0.86426131977175 0.5409747655367007
D4,D4_U1,5,D1,O114,A2 L Secret 0.95 0.8787377637485537 0.8299815051248356
D5,D5_U35,5,D1,O711,A1 M Confidential 0.95 0.8762530174989149 0.7139696771402966
D4,D4_U5,5,D5,O651,A1 M Confidential 0.95 0.8787377637485537 0.653999128723379
D3,D3_U10,5,D5,O346,A3 L Unclassified 0.95 0.8260961492874496 0.6521089463544061
D1,D1_U40,5,D5,O581,A2 M Confidential 0.95 0.8380227650637935 0.6837483234130748
D5,D5_U40,5,D1,O17,A3 L Unclassified 0.95 0.8380227650637935 0.5773799666669168
D4,D4_U7,5,D3,O838,A3 H Unclassified 0.95 0.8787377637485537 0.5745834092739679
D4,D4_U53,5,D5,O885,A3 L Unclassified 0.95 0.8787377637485537 0.5224161285261913
D4,D4_U27,5,D5,O601,A1 M Confidential 0.95 0.8787377637485537 0.7354658648779521
D4,D4_U35,5,D1,O217,A2 M Unclassified 0.95 0.86426131977175 0.5318971810275633
D5,D5_U35,5,D3,O363,A1 M Confidential 0.95 0.8764616829690435 0.6897747909511329
D2,D2_U11,5,D3,O491,A1 L Unclassified 0.95 0.8507188399224821 0.5651850950123989
D5,D5_U28,5,D3,O545,A3 L Confidential 0.95 0.86426131977175 0.6412861476612465
D4,D4_U29,5,D5,O691,A3 L Confidential 0.95 0.8764616829690435 0.7046557855248857
D2,D2_U27,5,D4,O610,A1 L Confidential 0.95 0.8507188399224821 0.7640403626465464
D1,D1_U36,5,D3,O216,A2 M Confidential 0.95 0.8260961492874496 0.7982380282823255
D4,D4_U41,5,D2,O411,A2 M Confidential 0.95 0.86426131977175 0.6664103078011556
D3,D3_U27,5,D4,O164,A3 M Confidential 0.95 0.8380227650637935 0.7717720196676995
D4,D4_U9,5,D2,O560,A3 L Unclassified 0.95 0.86426131977175 0.5460473111117076
D5,D5_U56,5,D3,O645,A3 L Unclassified 0.95 0.86426131977175 0.5972024090879471
D3,D3_U42,5,D2,O806,A3 M Secret 0.95 0.8507188399224821 0.7954308635056565
D5,D5_U24,5,D1,O291,A1 L Unclassified 0.95 0.8690562079480071 0.5772157036478588
D5,D5_U24,5,D4,O429,A2 L Unclassified 0.95 0.8693794331571647 0.560648179290947
D2,D2_U38,5,D4,O390,A3 M Unclassified 0.95 0.86426131977175 0.5639130852971834
D3,D3_U45,5,D2,O960,A1 H Confidential 0.95 0.862525643016637 0.6358149873366568
D4,D4_U43,5,D1,O822,A2 L Secret 0.95 0.86426131977175 0.8254236385715948
D1,D1_U59,5,D2,O751,A1 L Confidential 0.95 0.8380227650637935 0.8055585331000804
D5,D5_U25,5,D3,O577,A2 L Confidential 0.95 0.8507188399224821 0.72935714704057
D5,D5_U38,5,D2,O660,A2 L Confidential 0.95 0.86426131977175 0.7451892912983942
D5,D5_U59,5,D4,O467,A2 M Confidential 0.95 0.8507188399224821 0.7060819246186844
D4,D4_U89,5,D1,O711,A1 M Confidential 0.7 0.7848365055206381 0.7539613706340478
D2,D2_U82,5,D4,O77,A1 L Unclassified 0.7 0.7669343914091755 0.6556450393165155
D4,D4_U86,5,D2,O870,A3 L Unclassified 0.7 0.8042874804392779 0.6340469807701663
D5,D5_U65,5,D1,O576,A3 M Confidential 0.7 0.8042874804392779 0.796140159698294
D4,D4_U72,5,D2,O987,A1 L Unclassified 0.7 0.7848365055206381 0.644793541841897
D1,D1_U69,5,D5,O693,A1 M Unclassified 0.7 0.7593071009399236 0.7085853091452892
D3,D3_U69,5,D2,O310,A3 L Unclassified 0.7 0.7809646052461634 0.7150963188326533
D1,D1_U65,5,D2,O461,A3 L Unclassified 0.7 0.7593071009399236 0.693093965333088
D1,D1_U70,5,D4,O354,A1 L Unclassified 0.7 0.7996601697351478 0.6134761732387161
D5,D5_U69,5,D3,O181,A1 H Unclassified 0.7 0.7644572137219252 0.717214661971576
D3,D3_U78,5,D1,O723,A1 H Unclassified 0.7 0.7673805023885257 0.6911703733596005
D3,D3_U61,5,D1,O280,A1 M Unclassified 0.7 0.7673805023885257 0.7187853335067994
D1,D1_U71,5,D2,O981,A1 M Unclassified 0.7 0.7848365055206381 0.6366432354092015
D5,D5_U78,5,D1,O241,A1 L Unclassified 0.7 0.7887242526905762 0.6439703568015078
D5,D5_U70,5,D3,O963,A1 M Unclassified 0.7 0.7593071009399236 0.7091060504503025
D5,D5_U86,5,D1,O599,A1 L Unclassified 0.7 0.7443136411068055 0.6911155644022456
D1,D1_U70,5,D5,O637,A3 M Unclassified 0.7 0.8004782993738438 0.6891013954043421
D3,D3_U77,5,D2,O867,A1 L Unclassified 0.7 0.8148710991450081 0.5745522545264685
D3,D3_U88,5,D1,O296,A3 L Unclassified 0.7 0.7673805023885257 0.6456202284450148
D4,D4_U69,5,D2,O647,A3 M Unclassified 0.7 0.7848365055206381 0.6170812405325167
D4,D4_U63,5,D5,O823,A1 M Confidential 0.7 0.7848365055206381 0.7288081167228598
D3,D3_U69,5,D5,O933,A2 H Unclassified 0.7 0.7789934977832766 0.6213484751651732
D2,D2_U88,5,D3,O633,A1 L Unclassified 0.7 0.7796642577367308 0.6711326279063355
D1,D1_U61,5,D3,O838,A3 H Unclassified 0.7 0.7900582352641237 0.7035613808712757
D3,D3_U69,5,D2,O73,A3 L Unclassified 0.7 0.7799323351088393 0.6449633081257826
D3,D3_U82,5,D1,O167,A3 L Unclassified 0.7 0.8042874804392779 0.6610005626126042
D5,D5_U82,5,D3,O838,A3 H Unclassified 0.7 0.8042874804392779 0.642158851846814
D5,D5_U77,5,D2,O260,A3 M Unclassified 0.7 0.7758788197028436 0.6139727936739493
D2,D2_U77,5,D5,O43,A1 L Unclassified 0.7 0.8042874804392779 0.6088594270170514
