D2,D2_U83,5,D4,O507,A1 L Confidential 0.7 0.6236028188888504 0.325541903679411
D5,D5_U69,5,D3,O503,A1 H Top_Secret 0.7 0.9231175880221951 0.7785499746273359
D1,D1_U81,5,D2,O987,A1 L Unclassified 0.7 0.5672513523637508 0.3062460091928837
D5,D5_U65,5,D4,O687,A1 L Confidential 0.7 0.6384988647394164 0.3306933124207326
D5,D5_U65,5,D3,O965,A1 M Confidential 0.7 0.6522161876901238 0.3354555697514956
D3,D3_U64,5,D1,O101,A1 M Confidential 0.7 0.6274437015473924 0.3261142494663184
D2,D2_U77,5,D5,O349,A1 L Secret 0.7 0.7596803533311393 0.37015029850283004
D4,D4_U71,5,D5,O835,A1 H Unclassified 0.7 0.5688763800637155 0.3037448607140874
D5,D5_U83,5,D1,O238,A1 M Unclassified 0.7 0.571001019814412 0.25728752381522974
D2,D2_U75,5,D1,O539,A1 M Unclassified 0.7 0.538617574768633 0.2637229090938086
D3,D3_U87,5,D5,O268,A1 M Unclassified 0.7 0.5010285551436469 0.20125279676414876
D2,D2_U88,5,D5,O601,A1 M Confidential 0.7 0.6870667364035993 0.34752030810981827
D4,D4_U65,5,D3,O626,A1 H Unclassified 0.7 0.5977567817133003 0.3135752473644648
D4,D4_U62,5,D1,O723,A1 H Unclassified 0.7 0.5525453748094705 0.25131322472512846
D5,D5_U75,5,D3,O281,A1 M Confidential 0.7 0.7177318945709192 0.355261938268847
D4,D4_U83,5,D3,O239,A1 M Unclassified 0.7 0.5841878093727658 0.31190312380833607
D1,D1_U81,5,D3,O694,A1 M Secret 0.7 0.8678574020112059 0.7692544804839785
D4,D4_U85,5,D2,O911,A1 H Unclassified 0.7 0.5796704112554044 0.30740945526830743
D4,D4_U74,5,D1,O330,A1 L Confidential 0.7 0.6044150928379788 0.31818824401352724
D5,D5_U65,5,D1,O95,A1 H Unclassified 0.7 0.5674406640822711 0.30631031920801477
D2,D2_U74,5,D4,O685,A1 L Unclassified 0.7 0.5630803959986356 0.23700667676761808
D1,D1_U90,5,D3,O494,A1 H Top_Secret 0.7 0.9925428640769818 0.7744474823229168
D5,D5_U68,5,D4,O559,A1 L Confidential 0.7 0.7187426375604002 0.3587904025701828
D4,D4_U63,5,D1,O116,A1 M Confidential 0.7 0.7250106167082173 0.30851646325317944
D1,D1_U85,5,D5,O26,A1 L Secret 0.7 0.833972166626242 0.36457562280704425
D2,D2_U87,5,D5,O409,A1 M Unclassified 0.7 0.5145145531484847 0.2799173657212552
D4,D4_U67,5,D3,O142,A1 L Unclassified 0.7 0.5633523376248866 0.28615701767832175
D4,D4_U86,5,D5,O440,A1 L Unclassified 0.7 0.5620235996324405 0.2543768872192429
D4,D4_U89,5,D5,O814,A1 L Unclassified 0.7 0.5073777937542288 0.2031895778258828
D4,D4_U61,5,D1,O303,A1 H Unclassified 0.7 0.5893504636614697 0.3137683901869323
D2,D2_U71,5,D5,O268,A1 M Unclassified 0.7 0.5878403830976127 0.2943605676991295
D2,D2_U63,5,D1,O664,A1 L Unclassified 0.7 0.595900995266715 0.2826123907742145
D1,D1_U71,5,D3,O277,A1 M Unclassified 0.7 0.5760426471120196 0.2904007961706796
D5,D5_U71,5,D2,O960,A1 H Confidential 0.7 0.7270489545471102 0.342107500545975
D1,D1_U77,5,D5,O26,A1 L Secret 0.7 0.7515516748356882 0.3696809062373374
D3,D3_U63,5,D2,O509,A1 L Unclassified 0.7 0.5707822423087779 0.27428768915103136
D2,D2_U66,5,D3,O641,A1 M Unclassified 0.7 0.5756610035655624 0.3060469238206291
D1,D1_U84,5,D2,O902,A1 H Confidential 0.7 0.6026436745812235 0.3183210388342236
D2,D2_U72,5,D1,O676,A1 H Confidential 0.7 0.6508516682160678 0.33185714432347974
D2,D2_U82,5,D1,O462,A1 M Confidential 0.7 0.6403851649088661 0.32247958036622726
D5,D5_U73,5,D3,O963,A1 M Unclassified 0.7 0.5796504572298206 0.2916102388456497
D1,D1_U64,5,D5,O36,A1 M Confidential 0.7 0.6359948348164693 0.3298258941105297
D4,D4_U69,5,D5,O999,A1 M Unclassified 0.7 0.5459715338016762 0.2983028538377968
D2,D2_U83,5,D3,O626,A1 H Unclassified 0.7 0.5426541005737534 0.29792012549775715
D1,D1_U68,5,D3,O786,A1 M Confidential 0.7 0.7453528653672901 0.36504738245354984
D5,D5_U78,5,D3,O18,A1 H Unclassified 0.7 0.5373510234163695 0.2961247009581423
D5,D5_U65,5,D1,O959,A1 L Unclassified 0.7 0.5415719671838602 0.2975552055414492
D1,D1_U78,5,D4,O396,A1 L Unclassified 0.7 0.5315483775497968 0.2934469632295713
D5,D5_U74,5,D4,O218,A1 L Secret 0.7 0.8274892345925129 0.7591467684264718
D1,D1_U67,5,D5,O526,A1 L Unclassified 0.7 0.5395592084365671 0.2640306641243494
