D2,D2_U88,7,D5,O405,A2 H Unclassified 0.7 H L
D2,D2_U73,8,D3,O98,A2 M Confidential 0.7 M M
D3,D3_U68,4,D5,O719,A2 M Confidential 0.7 M L
D3,D3_U90,8,D1,O818,A2 M Unclassified 0.7 M M
D5,D5_U71,6,D4,O504,A2 H Unclassified 0.7 H L
D1,D1_U81,7,D4,O504,A2 H Unclassified 0.7 H L
D4,D4_U63,3,D2,O821,A3 L Unclassified 0.7 L L
D5,D5_U64,10,D1,O667,A2 M Secret 0.7 M H
D5,D5_U65,9,D2,O764,A2 M Confidential 0.7 M H
D1,D1_U90,9,D5,O29,A3 L Confidential 0.7 L H
D3,D3_U65,5,D4,O829,A1 H Unclassified 0.7 H L
D4,D4_U84,2,D3,O778,A2 L Unclassified 0.7 L L
D3,D3_U77,3,D1,O296,A3 L Unclassified 0.7 L L
D4,D4_U79,3,D1,O135,A1 M Unclassified 0.7 M L
D1,D1_U90,9,D2,O760,A3 L Confidential 0.7 L H
D1,D1_U76,6,D2,O712,A3 H Secret 0.7 H L
D2,D2_U86,7,D4,O252,A3 L Secret 0.7 L M
D1,D1_U90,9,D3,O519,A3 L Secret 0.7 L H
D3,D3_U69,7,D5,O913,A2 L Secret 0.7 L M
D2,D2_U66,2,D3,O834,A3 M Unclassified 0.7 M L
D2,D2_U81,3,D4,O192,A2 M Unclassified 0.7 M L
D5,D5_U71,6,D2,O975,A1 L Confidential 0.7 L L
D3,D3_U89,3,D1,O664,A1 L Unclassified 0.7 L L
D5,D5_U75,4,D2,O290,A2 L Confidential 0.7 L L
D5,D5_U69,9,D3,O239,A1 M Unclassified 0.7 M M
D5,D5_U65,9,D3,O644,A3 M Unclassified 0.7 M H
D4,D4_U73,6,D1,O598,A1 M Confidential 0.7 M L
D4,D4_U85,7,D1,O886,A1 H Unclassified 0.7 H L
D5,D5_U72,3,D4,O928,A2 L Confidential 0.7 L L
D2,D2_U74,3,D1,O333,A1 M Unclassified 0.7 M L
D3,D3_U82,1,D1,O413,A3 L Unclassified 0.7 L L
D1,D1_U61,9,D4,O628,A1 M Confidential 0.7 M M
D5,D5_U78,9,D2,O966,A3 H Unclassified 0.7 H H
D2,D2_U67,8,D3,O965,A1 M Confidential 0.7 M L
D1,D1_U90,9,D3,O491,A1 L Unclassified 0.7 L M
D2,D2_U75,8,D3,O864,A3 L Secret 0.7 L H
D5,D5_U69,9,D2,O378,A2 L Confidential 0.7 L H
D4,D4_U73,6,D1,O7,A2 M Secret 0.7 M L
D5,D5_U76,1,D3,O834,A3 M Unclassified 0.7 M L
D1,D1_U90,9,D3,O986,A1 L Confidential 0.7 L M
D5,D5_U88,6,D2,O215,A1 L Confidential 0.7 L L
D4,D4_U87,7,D3,O813,A2 L Confidential 0.7 L L
D1,D1_U84,9,D3,O573,A3 M Confidential 0.7 M H
D4,D4_U68,7,D1,O484,A3 M Secret 0.7 M M
D2,D2_U72,9,D4,O952,A3 H Top_Secret 0.7 H H
D5,D5_U84,2,D1,O319,A2 M Unclassified 0.7 M L
D4,D4_U90,10,D2,O742,A1 M Unclassified 0.7 M H
D1,D1_U90,9,D5,O56,A1 L Secret 0.7 L M
D4,D4_U85,7,D5,O111,A1 H Unclassified 0.7 H L
D1,D1_U66,2,D3,O963,A1 M Unclassified 0.7 M L
D2,D2_U90,10,D5,O749,A1 L Secret 0.7 L H
D1,D1_U88,6,D3,O892,A2 M Unclassified 0.7 M L
D3,D3_U63,10,D2,O262,A2 M Unclassified 0.7 M H
D2,D2_U82,7,D3,O226,A2 M Secret 0.7 M M
D1,D1_U83,1,D3,O239,A1 M Unclassified 0.7 M L
D1,D1_U69,7,D5,O493,A3 L Unclassified 0.7 L L
D5,D5_U78,9,D1,O855,A2 M Unclassified 0.7 M M
D2,D2_U85,3,D1,O246,A1 L Confidential 0.7 L L
D1,D1_U90,9,D5,O776,A1 M Secret 0.7 M M
D5,D5_U68,5,D3,O640,A2 M Confidential 0.7 M L
D5,D5_U62,10,D1,O530,A3 L Unclassified 0.7 L H
D2,D2_U83,6,D5,O43,A1 L Unclassified 0.7 L L
D1,D1_U79,6,D5,O254,A3 L Confidential 0.7 L L
D2,D2_U81,3,D1,O17,A3 L Unclassified 0.7 L L
D4,D4_U73,6,D3,O69,A2 L Unclassified 0.7 L L
D3,D3_U74,10,D1,O17,A3 L Unclassified 0.7 L H
D1,D1_U81,7,D5,O456,A1 L Secret 0.7 L L
D2,D2_U72,9,D4,O602,A3 M Top_Secret 0.7 M H
D4,D4_U66,2,D5,O268,A1 M Unclassified 0.7 M L
D1,D1_U82,5,D2,O316,A2 H Confidential 0.7 H L
D5,D5_U68,5,D2,O151,A2 L Confidential 0.7 L L
D2,D2_U63,6,D5,O301,A3 L Secret 0.7 L L
D1,D1_U83,1,D4,O55,A3 H Unclassified 0.7 H L
D3,D3_U85,2,D2,O260,A3 M Unclassified 0.7 M L
D5,D5_U83,6,D4,O483,A1 L Secret 0.7 L L
D4,D4_U72,6,D2,O537,A2 M Unclassified 0.7 M L
D3,D3_U81,1,D2,O647,A3 M Unclassified 0.7 M L
D3,D3_U79,1,D4,O621,A3 M Unclassified 0.7 M L
D1,D1_U75,6,D5,O693,A1 M Unclassified 0.7 M L
D4,D4_U87,7,D1,O664,A1 L Unclassified 0.7 L L
D1,D1_U61,9,D5,O128,A3 L Top_Secret 0.7 L H
D5,D5_U64,10,D1,O447,A3 H Top_Secret 0.7 H H
D4,D4_U65,9,D2,O744,A3 L Unclassified 0.7 L H
D1,D1_U66,2,D2,O742,A1 M Unclassified 0.7 M L
D2,D2_U67,8,D5,O913,A2 L Secret 0.7 L H
D2,D2_U64,10,D4,O958,A2 M Confidential 0.7 M H
D3,D3_U66,9,D4,O720,A3 L Unclassified 0.7 L H
D4,D4_U71,9,D2,O315,A2 L Unclassified 0.7 L M
D3,D3_U74,10,D2,O10,A2 L Confidential 0.7 L H
D2,D2_U81,3,D4,O407,A2 L Confidential 0.7 L L
D2,D2_U84,9,D3,O350,A3 M Unclassified 0.7 M M
D5,D5_U89,8,D3,O125,A1 H Confidential 0.7 H L
D3,D3_U66,9,D4,O962,A1 H Unclassified 0.7 H M
D3,D3_U87,6,D5,O104,A3 L Secret 0.7 L L
D4,D4_U84,2,D3,O834,A3 M Unclassified 0.7 M L
D1,D1_U62,5,D2,O257,A2 L Unclassified 0.7 L L
D5,D5_U80,4,D2,O449,A2 H Unclassified 0.7 H L
D4,D4_U80,1,D3,O18,A1 H Unclassified 0.7 H L
D3,D3_U71,2,D4,O845,A3 L Unclassified 0.7 L L
D5,D5_U67,4,D2,O16,A2 L Unclassified 0.7 L L
D4,D4_U76,4,D2,O378,A2 L Confidential 0.7 L L
D1,D1_U85,7,D2,O605,A2 L Secret 0.7 L M
D1,D1_U82,5,D3,O340,A2 H Unclassified 0.7 H L
D2,D2_U87,6,D1,O664,A1 L Unclassified 0.7 L L
D5,D5_U62,10,D2,O806,A3 M Secret 0.7 M H
D3,D3_U69,7,D2,O821,A3 L Unclassified 0.7 L L
D2,D2_U86,7,D5,O406,A2 L Secret 0.7 L M
D1,D1_U77,8,D2,O189,A2 H Confidential 0.7 H M
D3,D3_U80,4,D4,O504,A2 H Unclassified 0.7 H L
D5,D5_U84,2,D3,O272,A2 H Unclassified 0.7 H L
D5,D5_U66,10,D4,O666,A2 L Secret 0.7 L H
D5,D5_U73,10,D4,O4,A1 L Confidential 0.7 L H
D3,D3_U71,2,D5,O179,A3 L Unclassified 0.7 L L
D1,D1_U77,8,D2,O565,A3 M Confidential 0.7 M M
D3,D3_U74,10,D5,O165,A3 L Secret 0.7 L H
D4,D4_U76,4,D2,O987,A1 L Unclassified 0.7 L L
D1,D1_U61,9,D3,O986,A1 L Confidential 0.7 L M
D5,D5_U65,9,D2,O371,A3 M Confidential 0.7 M H
D3,D3_U71,2,D1,O291,A1 L Unclassified 0.7 L L
D1,D1_U67,6,D4,O40,A2 L Unclassified 0.7 L L
D3,D3_U11,8,D1,O413,A3 L Unclassified 0.95 L M
D3,D3_U9,9,D5,O250,A3 L Confidential 0.95 L H
D5,D5_U7,7,D3,O694,A1 M Secret 0.95 M L
D3,D3_U49,9,D4,O888,A3 L Unclassified 0.95 L H
D3,D3_U52,6,D2,O969,A3 L Unclassified 0.95 L L
D2,D2_U15,8,D5,O769,A2 L Confidential 0.95 L M
D2,D2_U30,9,D5,O693,A1 M Unclassified 0.95 M M
D3,D3_U34,10,D4,O779,A1 L Top_Secret 0.95 L H
D3,D3_U23,5,D4,O569,A2 H Unclassified 0.95 H L
D3,D3_U16,10,D1,O763,A2 L Top_Secret 0.95 L H
D3,D3_U9,9,D2,O745,A3 H Top_Secret 0.95 H H
D5,D5_U7,7,D2,O102,A3 H Confidential 0.95 H L
D2,D2_U26,4,D3,O828,A3 H Unclassified 0.95 H L
D3,D3_U21,10,D4,O611,A3 M Secret 0.95 M H
D4,D4_U20,10,D1,O177,A2 L Secret 0.95 L H
D3,D3_U55,7,D5,O772,A2 L Confidential 0.95 L L
D1,D1_U29,6,D5,O406,A2 L Secret 0.95 L L
D5,D5_U7,7,D3,O226,A2 M Secret 0.95 M M
D3,D3_U45,10,D2,O517,A3 M Secret 0.95 M H
D4,D4_U58,10,D2,O64,A2 M Confidential 0.95 M H
D5,D5_U19,4,D1,O451,A3 M Unclassified 0.95 M L
D5,D5_U43,7,D4,O458,A3 H Unclassified 0.95 H L
D1,D1_U44,5,D2,O100,A2 M Confidential 0.95 M L
D1,D1_U25,9,D3,O963,A1 M Unclassified 0.95 M M
D2,D2_U30,9,D4,O507,A1 L Confidential 0.95 L M
D3,D3_U44,4,D1,O81,A1 M Confidential 0.95 M L
D5,D5_U8,8,D3,O488,A2 L Secret 0.95 L M
D2,D2_U55,4,D1,O212,A1 M Unclassified 0.95 M L
D2,D2_U46,9,D5,O173,A2 M Unclassified 0.95 M H
D2,D2_U31,10,D3,O577,A2 L Confidential 0.95 L H
D4,D4_U5,10,D5,O382,A3 L Top_Secret 0.95 L H
D5,D5_U22,1,D3,O641,A1 M Unclassified 0.95 M L
D1,D1_U29,6,D2,O102,A3 H Confidential 0.95 H L
D5,D5_U33,6,D3,O365,A3 L Unclassified 0.95 L L
D2,D2_U6,9,D1,O114,A2 L Secret 0.95 L H
D1,D1_U11,3,D3,O108,A3 M Unclassified 0.95 M L
D3,D3_U21,10,D5,O772,A2 L Confidential 0.95 L H
D4,D4_U4,5,D3,O936,A3 M Confidential 0.95 M L
D4,D4_U21,3,D3,O202,A1 L Unclassified 0.95 L L
D4,D4_U16,10,D3,O322,A3 L Confidential 0.95 L H
D4,D4_U14,3,D1,O422,A2 M Unclassified 0.95 M L
D4,D4_U20,10,D5,O6,A1 L Confidential 0.95 L H
D4,D4_U59,1,D5,O45,A2 L Unclassified 0.95 L L
D1,D1_U47,10,D4,O77,A1 L Unclassified 0.95 L H
D2,D2_U52,9,D4,O465,A2 H Confidential 0.95 H H
D1,D1_U18,3,D5,O927,A3 L Unclassified 0.95 L L
D3,D3_U22,7,D4,O510,A1 M Unclassified 0.95 M L
D3,D3_U46,9,D5,O372,A3 H Confidential 0.95 H H
D4,D4_U3,4,D1,O723,A1 H Unclassified 0.95 H L
D2,D2_U36,6,D5,O883,A2 M Confidential 0.95 M L
D3,D3_U7,2,D1,O400,A2 H Unclassified 0.95 H L
D2,D2_U39,10,D4,O720,A3 L Unclassified 0.95 L H
D3,D3_U59,9,D4,O390,A3 M Unclassified 0.95 M H
D1,D1_U31,5,D2,O771,A3 L Confidential 0.95 L L
D1,D1_U30,6,D5,O520,A2 M Unclassified 0.95 M L
D1,D1_U42,6,D3,O633,A1 L Unclassified 0.95 L L
D3,D3_U21,10,D5,O52,A1 H Top_Secret 0.95 H H
D5,D5_U1,6,D1,O620,A1 L Unclassified 0.95 L L
D2,D2_U3,1,D1,O167,A3 L Unclassified 0.95 L L
D3,D3_U18,3,D5,O482,A3 M Unclassified 0.95 M L
D3,D3_U93,1,D1,O400,A2 H Unclassified 0.1 H L
D4,D4_U97,2,D5,O2,A3 M Unclassified 0.1 M L
D2,D2_U98,8,D3,O522,A3 M Secret 0.1 M H
D2,D2_U99,9,D1,O481,A1 L Top_Secret 0.1 L H
D3,D3_U96,10,D2,O799,A2 L Secret 0.1 L H
D2,D2_U98,8,D1,O13,A2 L Secret 0.1 L H
D1,D1_U95,5,D4,O478,A1 L Confidential 0.1 L L
D2,D2_U99,9,D3,O279,A3 L Secret 0.1 L H
D2,D2_U95,8,D1,O38,A1 L Confidential 0.1 L L
D1,D1_U98,2,D4,O621,A3 M Unclassified 0.1 M L
D4,D4_U92,4,D2,O647,A3 M Unclassified 0.1 M L
D4,D4_U93,7,D3,O107,A2 L Secret 0.1 L M
D4,D4_U97,2,D2,O394,A2 M Unclassified 0.1 M L
D3,D3_U94,6,D1,O101,A1 M Confidential 0.1 M L
D3,D3_U94,6,D2,O862,A3 L Unclassified 0.1 L L
D3,D3_U99,7,D5,O653,A2 M Secret 0.1 M M
D4,D4_U93,7,D5,O6,A1 L Confidential 0.1 L L
D1,D1_U100,4,D5,O48,A1 M Confidential 0.1 M L
D1,D1_U99,9,D2,O862,A3 L Unclassified 0.1 L M
D1,D1_U97,10,D5,O715,A3 L Confidential 0.1 L H
