D4_U1 0
D4_U2 6
D4_U3 10
D4_U4 0
D4_U5 7
D4_U6 0
D4_U7 0
D4_U8 7
D4_U9 13
D4_U10 0
D4_U11 8
D4_U12 7
D4_U13 0
D4_U14 0
D4_U15 9
D4_U16 12
D4_U17 0
D4_U18 0
D4_U19 0
D4_U20 34
D4_U21 0
D4_U22 0
D4_U23 0
D4_U24 0
D4_U25 0
D4_U26 7
D4_U27 12
D4_U28 0
D4_U29 8
D4_U30 33
D4_U31 0
D4_U32 6
D4_U33 0
D4_U34 0
D4_U35 0
D4_U36 11
D4_U37 0
D4_U38 0
D4_U39 0
D4_U40 0
D4_U41 10
D4_U42 0
D4_U43 0
D4_U44 0
D4_U45 0
D4_U46 8
D4_U47 0
D4_U48 13
D4_U49 9
D4_U50 0
D4_U51 0
D4_U52 0
D4_U53 0
D4_U54 0
D4_U55 0
D4_U56 0
D4_U57 0
D4_U58 0
D4_U59 0
D4_U60 0
D4_U61 0
D4_U62 0
D4_U63 0
D4_U64 54
D4_U65 0
D4_U66 0
D4_U67 0
D4_U68 0
D4_U69 0
D4_U70 0
D4_U71 0
D4_U72 53
D4_U73 56
D4_U74 0
D4_U75 0
D4_U76 0
D4_U77 0
D4_U78 0
D4_U79 68
D4_U80 0
D4_U81 0
D4_U82 0
D4_U83 0
D4_U84 0
D4_U85 117
D4_U86 53
D4_U87 0
D4_U88 62
D4_U89 0
D4_U90 116
D4_U91 0
D4_U92 177
D4_U93 184
D4_U94 0
D4_U95 0
D4_U96 0
D4_U97 0
D4_U98 183
D4_U99 0
D4_U100 0
