0.95 5.0 0.9147826271051838
0.95 2.0 0.9999838950396176
0.95 3.0 0.9987615625369963
0.1 47.0 1.867243359932047E-9
0.95 1.0 0.9999999874797662
0.95 0.0 0.9999999999999064
0.95 2.0 0.9999838950396176
0.95 9.0 0.2834232332543505
0.1 47.0 1.867243359932047E-9
0.95 1.0 0.9999999874797662
0.95 5.0 0.9147826271051838
0.1 94.0 0.0
0.95 1.0 0.9999999874797662
0.95 2.0 0.9999838950396176
0.95 4.0 0.9827519898727102
0.95 2.0 0.9999838950396176
0.95 5.0 0.9147826271051838
0.7 24.0 1.843093835380838E-4
0.1 90.0 0.0
0.95 6.0 0.7754399335543498
0.1 90.0 0.0
0.95 2.0 0.9999838950396176
0.95 5.0 0.9147826271051838
0.7 41.0 3.750458532625345E-8
0.95 2.0 0.9999838950396176
0.95 1.0 0.9999999874797662
0.95 4.0 0.9827519898727102
0.7 26.0 6.780758317137536E-5
0.95 1.0 0.9999999874797662
0.95 3.0 0.9987615625369963
0.1 44.0 8.368404191827494E-9
0.95 3.0 0.9987615625369963
0.1 95.0 0.0
0.1 45.0 5.075693754186261E-9
0.95 4.0 0.9827519898727102
0.95 1.0 0.9999999874797662
0.95 14.0 0.026985659986229815
0.7 12.0 0.07166494925874234
0.95 5.0 0.9147826271051838
0.95 5.0 0.9147826271051838
0.95 5.0 0.9147826271051838
0.95 3.0 0.9987615625369963
0.95 2.0 0.9999838950396176
0.7 17.0 0.006085459198397869
0.7 27.0 4.11279268150988E-5
0.95 2.0 0.9999838950396176
0.7 15.0 0.016455633266528213
0.95 1.0 0.9999999874797662
0.95 3.0 0.9987615625369963
0.7 16.0 0.01001340746294943
0.1 46.0 3.0785638482910826E-9
0.95 2.0 0.9999838950396176
0.95 5.0 0.9147826271051838
0.95 5.0 0.9147826271051838
0.7 22.0 5.009255186055883E-4
0.95 4.0 0.9827519898727102
0.95 2.0 0.9999838950396176
0.95 0.0 0.9999999999999064
0.95 3.0 0.9987615625369963
0.95 4.0 0.9827519898727102
0.95 2.0 0.9999838950396176
0.95 9.0 0.2834232332543505
0.7 11.0 0.11538534170803116
0.95 7.0 0.5958307296149541
0.95 3.0 0.9987615625369963
0.95 7.0 0.5958307296149541
0.95 2.0 0.9999838950396176
0.95 4.0 0.9827519898727102
0.95 4.0 0.9827519898727102
0.95 0.0 0.9999999999999064
0.95 2.0 0.9999838950396176
0.95 5.0 0.9147826271051838
0.95 1.0 0.9999999874797662
0.95 5.0 0.9147826271051838
0.95 3.0 0.9987615625369963
0.7 8.0 0.4227438441238178
0.7 21.0 8.257523592123395E-4
0.95 5.0 0.9147826271051838
0.95 9.0 0.2834232332543505
0.95 5.0 0.9147826271051838
0.95 8.0 0.4227438441238178
0.7 17.0 0.006085459198397869
0.1 45.0 5.075693754186261E-9
0.95 1.0 0.9999999874797662
0.7 12.0 0.07166494925874234
0.95 2.0 0.9999838950396176
0.95 2.0 0.9999838950396176
0.95 4.0 0.9827519898727102
0.1 41.0 3.750458532625345E-8
0.1 47.0 1.867243359932047E-9
0.95 2.0 0.9999838950396176
0.95 4.0 0.9827519898727102
0.95 3.0 0.9987615625369963
0.7 32.0 3.3760495427026527E-6
0.7 16.0 0.01001340746294943
0.7 12.0 0.07166494925874234
0.95 5.0 0.9147826271051838
0.95 4.0 0.9827519898727102
0.1 43.0 1.3797166076301437E-8
0.95 1.0 0.9999999874797662
0.1 45.0 5.075693754186261E-9
0.7 12.0 0.07166494925874234
0.7 26.0 6.780758317137536E-5
0.95 5.0 0.9147826271051838
0.7 11.0 0.11538534170803116
0.7 17.0 0.006085459198397869
0.7 27.0 4.11279268150988E-5
0.7 22.0 5.009255186055883E-4
0.7 11.0 0.11538534170803116
0.95 1.0 0.9999999874797662
0.7 11.0 0.11538534170803116
0.95 2.0 0.9999838950396176
0.7 14.0 0.026985659986229815
0.95 5.0 0.9147826271051838
0.7 42.0 2.2747681072132764E-8
0.7 31.0 5.56615859670373E-6
0.7 15.0 0.016455633266528213
0.95 1.0 0.9999999874797662
0.95 5.0 0.9147826271051838
0.95 4.0 0.9827519898727102
0.95 3.0 0.9987615625369963
0.95 3.0 0.9987615625369963
0.7 13.0 0.04410114887344496
0.1 43.0 1.3797166076301437E-8
0.95 2.0 0.9999838950396176
0.7 13.0 0.04410114887344496
0.95 3.0 0.9987615625369963
0.7 13.0 0.04410114887344496
0.95 6.0 0.7754399335543498
0.95 1.0 0.9999999874797662
0.7 18.0 0.0036954490817723284
0.7 15.0 0.016455633266528213
0.95 6.0 0.7754399335543498
0.7 16.0 0.01001340746294943
0.1 45.0 5.075693754186261E-9
0.95 2.0 0.9999838950396176
0.95 4.0 0.9827519898727102
0.95 7.0 0.5958307296149541
0.95 3.0 0.9987615625369963
0.95 3.0 0.9987615625369963
0.95 14.0 0.026985659986229815
0.95 2.0 0.9999838950396176
0.7 15.0 0.016455633266528213
0.95 3.0 0.9987615625369963
0.7 17.0 0.006085459198397869
0.7 10.0 0.18301815831800838
0.1 91.0 0.0
0.1 91.0 0.0
0.95 4.0 0.9827519898727102
0.95 3.0 0.9987615625369963
0.95 2.0 0.9999838950396176
0.7 25.0 1.1179334582056555E-4
0.7 43.0 1.3797166076301437E-8
0.7 10.0 0.18301815831800838
0.7 21.0 8.257523592123395E-4
0.7 31.0 5.56615859670373E-6
0.7 11.0 0.11538534170803116
0.7 15.0 0.016455633266528213
0.95 9.0 0.2834232332543505
0.95 4.0 0.9827519898727102
0.95 3.0 0.9987615625369963
0.95 1.0 0.9999999874797662
0.7 32.0 3.3760495427026527E-6
0.95 7.0 0.5958307296149541
0.95 2.0 0.9999838950396176
0.95 9.0 0.2834232332543505
0.95 1.0 0.9999999874797662
0.95 2.0 0.9999838950396176
0.95 5.0 0.9147826271051838
0.7 12.0 0.07166494925874234
0.7 17.0 0.006085459198397869
0.95 7.0 0.5958307296149541
0.95 5.0 0.9147826271051838
0.1 44.0 8.368404191827494E-9
0.95 7.0 0.5958307296149541
0.95 3.0 0.9987615625369963
0.95 14.0 0.026985659986229815
0.95 3.0 0.9987615625369963
0.7 12.0 0.07166494925874234
0.95 8.0 0.4227438441238178
0.95 3.0 0.9987615625369963
0.7 12.0 0.07166494925874234
0.95 9.0 0.2834232332543505
0.95 2.0 0.9999838950396176
0.7 22.0 5.009255186055883E-4
0.7 13.0 0.04410114887344496
0.95 1.0 0.9999999874797662
0.7 15.0 0.016455633266528213
0.1 42.0 2.2747681072132764E-8
0.7 17.0 0.006085459198397869
0.7 27.0 4.11279268150988E-5
0.95 6.0 0.7754399335543498
0.95 4.0 0.9827519898727102
0.95 4.0 0.9827519898727102
0.7 27.0 4.11279268150988E-5
0.95 5.0 0.9147826271051838
0.95 3.0 0.9987615625369963
0.95 6.0 0.7754399335543498
0.95 5.0 0.9147826271051838
0.95 0.0 0.9999999999999064
